﻿
DisplayName "Monte Carlo"



EVENT   1
 PAGE   1
  250(bytes(0x04,0x08,0x6f,0x3a,0x0c,0x52,0x50,0x47,0x3a,0x3a,0x53,0x45,0x08,0x3a,0x0a,0x40,0x6e,0x61,0x6d,0x65,0x49,0x22,0x09,0x4d,0x6f,0x76,0x65,0x06,0x3a,0x06,0x45,0x54,0x3a,0x0b,0x40,0x70,0x69,0x74,0x63,0x68,0x69,0x69,0x3a,0x0c,0x40,0x76,0x6f,0x6c,0x75,0x6d,0x65,0x69,0x55))
  TeleportPlayer(0,2,200,272,2,0)
  0()



EVENT   2
 PAGE   1
  250(bytes(0x04,0x08,0x6f,0x3a,0x0c,0x52,0x50,0x47,0x3a,0x3a,0x53,0x45,0x08,0x3a,0x0a,0x40,0x6e,0x61,0x6d,0x65,0x49,0x22,0x09,0x4d,0x6f,0x76,0x65,0x06,0x3a,0x06,0x45,0x54,0x3a,0x0b,0x40,0x70,0x69,0x74,0x63,0x68,0x69,0x69,0x3a,0x0c,0x40,0x76,0x6f,0x6c,0x75,0x6d,0x65,0x69,0x55))
  TeleportPlayer(0,2,200,272,2,0)
  0()



EVENT   3
 PAGE   1
  250(bytes(0x04,0x08,0x6f,0x3a,0x0c,0x52,0x50,0x47,0x3a,0x3a,0x53,0x45,0x08,0x3a,0x0a,0x40,0x6e,0x61,0x6d,0x65,0x49,0x22,0x09,0x4d,0x6f,0x76,0x65,0x06,0x3a,0x06,0x45,0x54,0x3a,0x0b,0x40,0x70,0x69,0x74,0x63,0x68,0x69,0x69,0x3a,0x0c,0x40,0x76,0x6f,0x6c,0x75,0x6d,0x65,0x69,0x55))
  TeleportPlayer(0,219,8,42,0,0)
  0()



EVENT   4
 PAGE   1
  250(bytes(0x04,0x08,0x6f,0x3a,0x0c,0x52,0x50,0x47,0x3a,0x3a,0x53,0x45,0x08,0x3a,0x0a,0x40,0x6e,0x61,0x6d,0x65,0x49,0x22,0x09,0x4d,0x6f,0x76,0x65,0x06,0x3a,0x06,0x45,0x54,0x3a,0x0b,0x40,0x70,0x69,0x74,0x63,0x68,0x69,0x69,0x3a,0x0c,0x40,0x76,0x6f,0x6c,0x75,0x6d,0x65,0x69,0x55))
  TeleportPlayer(0,219,9,17,0,0)
  0()



EVENT   5
 PAGE   1
  ChangeSwitch(31,31,1)
  250(bytes(0x04,0x08,0x6f,0x3a,0x0c,0x52,0x50,0x47,0x3a,0x3a,0x53,0x45,0x08,0x3a,0x0a,0x40,0x6e,0x61,0x6d,0x65,0x49,0x22,0x09,0x4d,0x6f,0x76,0x65,0x06,0x3a,0x06,0x45,0x54,0x3a,0x0b,0x40,0x70,0x69,0x74,0x63,0x68,0x69,0x69,0x3a,0x0c,0x40,0x76,0x6f,0x6c,0x75,0x6d,0x65,0x69,0x55))
  TeleportPlayer(0,219,28,13,0,0)
  0()



EVENT   6
 PAGE   1
  250(bytes(0x04,0x08,0x6f,0x3a,0x0c,0x52,0x50,0x47,0x3a,0x3a,0x53,0x45,0x08,0x3a,0x0a,0x40,0x6e,0x61,0x6d,0x65,0x49,0x22,0x09,0x4d,0x6f,0x76,0x65,0x06,0x3a,0x06,0x45,0x54,0x3a,0x0b,0x40,0x70,0x69,0x74,0x63,0x68,0x69,0x69,0x3a,0x0c,0x40,0x76,0x6f,0x6c,0x75,0x6d,0x65,0x69,0x55))
  TeleportPlayer(0,219,36,34,0,0)
  0()



EVENT   7
 PAGE   1
  250(bytes(0x04,0x08,0x6f,0x3a,0x0c,0x52,0x50,0x47,0x3a,0x3a,0x53,0x45,0x08,0x3a,0x0a,0x40,0x6e,0x61,0x6d,0x65,0x49,0x22,0x09,0x4d,0x6f,0x76,0x65,0x06,0x3a,0x06,0x45,0x54,0x3a,0x0b,0x40,0x70,0x69,0x74,0x63,0x68,0x69,0x69,0x3a,0x0c,0x40,0x76,0x6f,0x6c,0x75,0x6d,0x65,0x69,0x55))
  TeleportPlayer(0,219,19,66,0,0)
  0()



EVENT   8
 PAGE   1
  250(bytes(0x04,0x08,0x6f,0x3a,0x0c,0x52,0x50,0x47,0x3a,0x3a,0x53,0x45,0x08,0x3a,0x0a,0x40,0x6e,0x61,0x6d,0x65,0x49,0x22,0x09,0x4d,0x6f,0x76,0x65,0x06,0x3a,0x06,0x45,0x54,0x3a,0x0b,0x40,0x70,0x69,0x74,0x63,0x68,0x69,0x69,0x3a,0x0c,0x40,0x76,0x6f,0x6c,0x75,0x6d,0x65,0x69,0x55))
  TeleportPlayer(0,219,35,57,0,0)
  0()



EVENT   9
 PAGE   1
  250(bytes(0x04,0x08,0x6f,0x3a,0x0c,0x52,0x50,0x47,0x3a,0x3a,0x53,0x45,0x08,0x3a,0x0a,0x40,0x6e,0x61,0x6d,0x65,0x49,0x22,0x09,0x4d,0x6f,0x76,0x65,0x06,0x3a,0x06,0x45,0x54,0x3a,0x0b,0x40,0x70,0x69,0x74,0x63,0x68,0x69,0x69,0x3a,0x0c,0x40,0x76,0x6f,0x6c,0x75,0x6d,0x65,0x69,0x55))
  TeleportPlayer(0,219,73,21,0,0)
  0()



EVENT   11
 PAGE   1
  If(1,1024,0,0,0)
   ShowMessageFace("",0,0,2,1)
   ShowMessage("\\n<Informant>Mr. adventurer, won't you buy some information from Elka Company...? It's better to know more about this town and the surrounding area.")
   ShowChoices(strings("Buy normal information （10G）","Buy expensive information （100G）","Don't buy"),3)
   IfPlayerPicksChoice(0,null)
    If(7,10,0)
     125(1,0,10)
     ShowMessageFace("",0,0,2,2)
     ShowMessage("\\n<Informant>Thanks for your patronage... as you might know, Elka Company rules this town.")
     ShowMessageFace("",0,0,2,3)
     ShowMessage("\\n<Informant>Their headquarters are at the Eastern end of the town... it's the building at the end of the road. Their boss is Elka, I think he was the 8th generation's boss.")
     ShowMessageFace("",0,0,2,4)
     ShowMessage("\\n<Informant>Elka's power spans throughout Southern half of Sentora continent. He controls the underground society in the region, acting somewhat like a manager.")
     ShowMessageFace("",0,0,2,5)
     ShowMessage("\\n<Informant>The organization is strictly controlled so they don't dabble in petty crimes. What they're involved with, are large shady transactions and various politics.")
     ShowMessageFace("",0,0,2,6)
     ShowMessage("\\n<Informant>The company's members also eliminate little thugs and thieves. Their subordinates are first-class Black Marketeers and skilled ex-Adventurers.")
     ShowMessageFace("",0,0,2,7)
     ShowMessage("\\n<Informant>That's why, they don't involve themselves with ordinary adventurers. But, if you pick a fight with them you'll be crushed until you turn into sand.")
     ShowMessageFace("",0,0,2,8)
     ShowMessage("\\n<Informant>Of course, they know a lot about this area. If you go there you might hear lots of things but...")
     If(0,4,0)
      ShowMessageFace("alice_fc5",0,0,2,9)
      ShowMessage("\\n<Alice>Hmm... there might be some useful information. I sure would like to hear what they have to say.")
      0()
     EndIf()
     If(0,5,0)
      ShowMessageFace("iriasu_fc4",2,0,2,10)
      ShowMessage("\\n<Ilias>That kind of bunch might have some good information. It seems we ought to hear what the have to say.")
      0()
     EndIf()
     ShowMessageFace("",0,0,2,11)
     ShowMessage("\\n<Informant>But well, there's no way normal adventurers can meet with Elka. Give up...")
     ShowMessageFace("",0,0,2,12)
     ShowMessage("\\n<Informant>Well, that's about it for information. It was worth 10G, right?")
     EndEventProcessing()
     0()
    Else()
     ShowMessageFace("",0,0,2,13)
     ShowMessage("\\n<Informant>You don't have enough money...")
     EndEventProcessing()
     0()
    EndIf()
    0()
   IfPlayerPicksChoice(1,null)
    If(7,100,0)
     ShowMessageFace("",0,0,2,14)
     ShowMessage("\\n<Informant>Thanks for your patronage... speaking of valuable information, it's mostly about Elka's Company.")
     ShowMessageFace("",0,0,2,15)
     ShowMessage("\\n<Informant>Elka is governing over the underground society in the Southern half of Sentora continent but... they have a great benefactor thanks to whom no one can stand against them.")
     ShowMessageFace("",0,0,2,16)
     ShowMessage("\\n<Informant>That is, the person called Lazarus...")
     If(0,6,0)
      ShowMessageFace("sonia_fc2",2,0,2,17)
      ShowMessage("\\n<Sonya>That's not about uncle Lazarus, is it...?")
      0()
     Else()
      ShowMessageFace("ruka_fc1",0,0,2,18)
      ShowMessage("\\n<Luka>It's not about uncle Lazarus, is it...?")
      0()
     EndIf()
     ShowMessageFace("",0,0,2,19)
     ShowMessage("\\n<Informant>Hahaha, that uncle of yours must be someone else who has the same name. Lazarus has no family.")
     ShowMessageFace("",0,0,2,20)
     ShowMessage("\\n<Informant>But, I'm hearing that he's been bringing up a daughter of his old friends. Apparently she's Priest in a temple or something...")
     If(0,6,0)
      ShowMessageFace("sonia_fc2",3,0,2,21)
      ShowMessage("\\n<Sonya>Is that Priest's name 'Sonya'? In that case that'd be the same uncle Lazarus I know of.")
      ShowMessageFace("",0,0,2,22)
      ShowMessage("\\n<Informant>Eh...? No way... you're that girl...?")
      0()
     Else()
      ShowMessageFace("ruka_fc1",0,0,2,23)
      ShowMessage("\\n<Luka>Is that temple Priest's name 'Sonya'? If that's the case, this must be about the uncle Lazarus I know.")
      ShowMessageFace("",0,0,2,24)
      ShowMessage("\\n<Informant>Eh...? No way...　Are you acquainted with Lazarus?")
      ShowMessageFace("ruka_fc1",0,0,2,25)
      ShowMessage("\\n<Luka>I've been in uncle Lazarus' care. While it would be too much to call him the parent who brought me up, but...")
      0()
     EndIf()
     ShowMessageFace("",0,0,2,26)
     ShowMessage("\\n<Informant>...excuse me for my rudeness! I was unaware you're part of Mr. Lazarus' family and acted disrespectfully...")
     ShowMessageFace("",0,0,2,27)
     ShowMessage("\\n<Informant>No no, there's no need for the information fee. I would never...")
     ShowMessageFace("",0,0,2,28)
     ShowMessage("\\n<Informant>If you're part of Mr. Lazarus family you'll be definitely let in by the Elka Company. Although, you might need to prove it somehow...")
     ShowMessageFace("",0,0,2,29)
     ShowMessage("\\n<Informant>In any case, this is all that I know. If possible I would like to help you but...")
     If(0,6,0)
      ShowMessageFace("sonia_fc1",5,0,2,30)
      ShowMessage("\\n<Sonya>To think thugs like these treat uncle Lazarus with such respect... I hope he's not doing anything bad...")
      If(4,531,0)
       ShowMessageFace("saniria_fc2",0,0,2,31)
       ShowMessage("\\n<King of San Ilia>Like trying to assassinate the pope... right?")
       ShowMessageFace("sonia_fc2",3,0,2,32)
       ShowMessage("\\n<Sonya>T-that's an unjust accusation!")
       0()
      EndIf()
      0()
     EndIf()
     ChangeVariable(1024,1024,0,0,1)
     EndEventProcessing()
     0()
    Else()
     ShowMessageFace("",0,0,2,33)
     ShowMessage("\\n<Informant>You don't have enough money...")
     EndEventProcessing()
     0()
    EndIf()
    0()
   IfPlayerPicksChoice(2,null)
    0()
   404()
   0()
  EndIf()
  If(1,1024,0,1,1)
   ShowMessageFace("",0,0,2,34)
   ShowMessage("\\n<Informant>Well then, I'll explain once again. Of course, no need for payment.")
   ShowMessageFace("",0,0,2,35)
   ShowMessage("\\n<Informant>Elka Company is this town's ruler. Their power is said to span throughout Southern half of the continent.")
   ShowMessageFace("",0,0,2,36)
   ShowMessage("\\n<Informant>Their headquarters are at the Eastern end of the town... it's the building at the end of the road. Their boss is Elka, I think he was the 8th generation's boss.")
   ShowMessageFace("",0,0,2,37)
   ShowMessage("\\n<Informant>But, Elka treats Lazarus like his older brother. If it's you, if you can prove you're Lazarus' family they'll let you pass.")
   ShowMessageFace("",0,0,2,38)
   ShowMessage("\\n<Informant>This is all I know. I beg for your forgiveness.")
   EndEventProcessing()
   0()
  EndIf()
  0()



EVENT   12
 PAGE   1
  250(bytes(0x04,0x08,0x6f,0x3a,0x0c,0x52,0x50,0x47,0x3a,0x3a,0x53,0x45,0x08,0x3a,0x0a,0x40,0x6e,0x61,0x6d,0x65,0x49,0x22,0x09,0x4d,0x6f,0x76,0x65,0x06,0x3a,0x06,0x45,0x54,0x3a,0x0b,0x40,0x70,0x69,0x74,0x63,0x68,0x69,0x69,0x3a,0x0c,0x40,0x76,0x6f,0x6c,0x75,0x6d,0x65,0x69,0x55))
  TeleportPlayer(0,219,72,62,0,0)
  0()



EVENT   13
 PAGE   1
  250(bytes(0x04,0x08,0x6f,0x3a,0x0c,0x52,0x50,0x47,0x3a,0x3a,0x53,0x45,0x08,0x3a,0x0a,0x40,0x6e,0x61,0x6d,0x65,0x49,0x22,0x09,0x4d,0x6f,0x76,0x65,0x06,0x3a,0x06,0x45,0x54,0x3a,0x0b,0x40,0x70,0x69,0x74,0x63,0x68,0x69,0x69,0x3a,0x0c,0x40,0x76,0x6f,0x6c,0x75,0x6d,0x65,0x69,0x55))
  TeleportPlayer(0,219,58,62,0,0)
  0()



EVENT   14
 PAGE   1
  250(bytes(0x04,0x08,0x6f,0x3a,0x0c,0x52,0x50,0x47,0x3a,0x3a,0x53,0x45,0x08,0x3a,0x0a,0x40,0x6e,0x61,0x6d,0x65,0x49,0x22,0x09,0x4d,0x6f,0x76,0x65,0x06,0x3a,0x06,0x45,0x54,0x3a,0x0b,0x40,0x70,0x69,0x74,0x63,0x68,0x69,0x69,0x3a,0x0c,0x40,0x76,0x6f,0x6c,0x75,0x6d,0x65,0x69,0x55))
  TeleportPlayer(0,219,86,62,0,0)
  0()



EVENT   10
 PAGE   1
  ShowMessageFace("",0,0,2,1)
  ShowMessage("\\n<Shopkeeper>Welcome, this is a tool shop certified by Elka Company! We guarantee the quality!")
  Shop(0,2,0,0,false)
  605(0,7,0,0)
  605(0,11,0,0)
  605(0,13,0,0)
  605(0,14,0,0)
  605(0,15,0,0)
  605(0,16,0,0)
  605(0,17,0,0)
  605(0,18,0,0)
  605(0,19,0,0)
  605(0,23,0,0)
  0()



EVENT   19
 PAGE   1
  ShowMessageFace("",0,0,2,1)
  ShowMessage("\\n<Priest>Welcome to the Graveyard Church. What can I do for you?")
  ShowChoices(strings("Pray","Never mind"),2)
  IfPlayerPicksChoice(0,null)
   ChangeVariable(1002,1002,0,0,14)
   ShowMessageFace("",0,0,2,2)
   ShowMessage("\\n<Priest>Well then, let us pray to Ilias. ...there, you should feel a bond drawing you to this place.")
   ShowMessageFace("",0,0,2,3)
   ShowMessage("\\n<Priest>If something were to happen to you on your journey, the bond should lead you back here. May Ilias watch over you...")
   0()
  IfPlayerPicksChoice(1,null)
   ShowMessageFace("",0,0,2,4)
   ShowMessage("\\n<Priest>May Ilias watch over you...")
   0()
  404()
  0()



EVENT   15
 PAGE   1
  ShowMessageFace("",0,0,2,1)
  ShowMessage("\\n<Old Man>As you can see, this place is a dirty slum. Judging by your looks you're going to Sabasa, right?")
  ShowMessageFace("",0,0,2,2)
  ShowMessage("\\n<Old Man>In that case you need to go Southwest along the road for a long, loong time. At some point you'll exit the wastelands and reach Rubiana that's right in front of the desert.")
  ShowMessageFace("",0,0,2,3)
  ShowMessage("\\n<Old Man>...Oh right, that village is gone now. Still, you should be able to get some rest there.")
  0()



EVENT   16
 PAGE   1
  ShowMessageFace("",0,0,2,1)
  ShowMessage("\\n<Warrior>You can see the Carlos Hill from here, it's Southeast of the town. Lots of monsters appear in it, but there's nothing in particular there.")
  ShowMessageFace("",0,0,2,2)
  ShowMessage("\\n<Warrior>Unless you have something to do there, it's pointless to visit... and I can't think of anything to do there in the first place.")
  355("actor_label_jump")
  EndEventProcessing()
  DefineLabel("12")
  ShowMessageFace("sylph_fc1",0,0,2,3)
  ShowMessage("\\n<Sylph>It's perfect for hiking♪.")
  EndEventProcessing()
  DefineLabel("101")
  ShowMessageFace("cent2_fc1",0,0,2,4)
  ShowMessage("\\n<Lihitinu>Since we're here already, how about we ride in there for a bit?")
  EndEventProcessing()
  DefineLabel("139")
  ShowMessageFace("fairys_fc1",3,0,2,5)
  ShowMessage("\\n<Fairies>Hey, heey, let's go explore in there♪.")
  EndEventProcessing()
  0()



EVENT   20
 PAGE   1
  ShowMessageFace("",0,0,2,1)
  ShowMessage("\\n<Youth>Justice Kaiser is protecting this town's peace. I'm her fan.")
  ShowMessageFace("",0,0,2,2)
  ShowMessage("\\n<Youth>I'm sure Justice Kaiser will crush Elka Company as well. And then, the town will be truly peaceful!")
  355("actor_label_jump")
  EndEventProcessing()
  DefineLabel("155")
  ShowMessageFace("saki_fc1",3,0,2,3)
  ShowMessage("\\n<Saki>Is Justice Kaiser this town's idol...? I won't lose☆.")
  EndEventProcessing()
  0()



EVENT   22
 PAGE   1
  If(1,1024,0,0,0)
   ShowMessageFace("",0,0,2,1)
   ShowMessage("\\n<Warrior>You guys, the building ahead is private. People unrelated are prohibited from entering.")
   EndEventProcessing()
   0()
  EndIf()
  If(1,1024,0,1,0)
   ShowMessageFace("",0,0,2,2)
   ShowMessage("\\n<Warrior>You guys, the building ahead is private. People unrelated are prohibited from entering.")
   ShowMessageFace("ruka_fc1",0,0,2,3)
   ShowMessage("\\n<Luka>We need to prove we're acquainted with uncle Lazarus, right... let's go meet him first.")
   EndEventProcessing()
   0()
  EndIf()
  If(1,1024,0,2,0)
   ShowMessageFace("",0,0,2,4)
   ShowMessage("\\n<Warrior>You guys, the building ahead is private. People unrelated are prohibited from entering.")
   ShowMessageFace("ruka_fc1",0,0,2,5)
   ShowMessage("\\n<Luka>Um, we have letter of introduction from uncle Lazarus...")
   ShowMessageFace("",0,0,2,6)
   ShowMessage("\\n<Warrior>Mr's Lazarus'...?! Let's see...")
   ShowMessageFace("",0,0,2,7)
   ShowMessage("\\n<Warrior>...there's no mistake, it's real. I shall guide you to Elka.")
   ShowMessageFace("",0,0,2,8)
   ShowMessage("Like this, we were guided inside the building...")
   221()
   ChangeVariable(1024,1024,0,0,3)
   Wait(60)
   TeleportPlayer(0,219,72,35,8,2)
   222()
   0()
  EndIf()
  0()
 PAGE   2
  // condition: variable 1024 >= 3
  0()



EVENT   23
 PAGE   1
  ShowMessageFace("",0,0,2,1)
  ShowMessage("\\n<Youth>There's a rumor of a succubus infesting this town recently. Apparently she attacks men in the back alleys and squeezes their semen out...")
  ShowMessageFace("",0,0,2,2)
  ShowMessage("\\n<Youth>...I am hanging around the back alleys, but there's no deep meaning to it. Now, go somewhere else, you're a hindrance.")
  0()
 PAGE   2
  // condition: variable 1024 >= 3
  0()



EVENT   24
 PAGE   1
  ShowMessageFace("",0,0,2,1)
  ShowMessage("\\n<Old Man>A young girl has been going in and out of that house... isn't she too unwary to act like that in this town?")
  0()



EVENT   25
 PAGE   1
  ShowMessageFace("",0,0,2,1)
  ShowMessage("\\n<Minstrel>This town is quite convoluted... ahh, I feel like I'll get lost.")
  355("actor_label_jump")
  EndEventProcessing()
  DefineLabel("66")
  ShowMessageFace("vgirl_fc1",2,0,2,2)
  ShowMessage("\\n<Vanilla>I would definitely get lost if I was alone here...")
  EndEventProcessing()
  DefineLabel("102")
  ShowMessageFace("youko_fc1",2,0,2,3)
  ShowMessage("\\n<Kitsu>I can't memorize the way at aaalll!")
  EndEventProcessing()
  DefineLabel("103")
  ShowMessageFace("kamuro_fc1",0,0,2,4)
  ShowMessage("\\n<Kamuro>I made a map so there's no need to worry about being lost. Eh...? Am I being too meticulous...?")
  EndEventProcessing()
  0()



EVENT   27
 PAGE   1
  ShowMessageFace("",0,0,2,1)
  ShowMessage("\\n<Sleazy Man>Hey, adventurer. If you hold your life dear...")
  ShowMessageFace("",0,0,2,2)
  ShowMessage("\\n<Sleazy Man>...no, it's nothing. You guys look unexpectedly skilled.")
  ShowMessageFace("",0,0,2,3)
  ShowMessage("\\n<Sleazy Man>A cosplaying woman has been getting in my way recently... damn it, my business is going bankrupt.")
  355("actor_label_jump")
  EndEventProcessing()
  DefineLabel("89")
  ShowMessageFace("ropa_fc1",0,0,2,4)
  ShowMessage("\\n<Cindy>And here I thought I could eat him if he attacked us...")
  EndEventProcessing()
  DefineLabel("116")
  ShowMessageFace("iso_fc1",0,0,2,5)
  ShowMessage("\\n<Isabelle>Oh my, he's not attacking... what a shame, fufufu...")
  EndEventProcessing()
  DefineLabel("125")
  ShowMessageFace("grizzly_fc1",0,0,2,6)
  ShowMessage("\\n<Aisha>To think about bullying a bear, even if it's for a second... he either has amazing guts or is just an idiot.")
  EndEventProcessing()
  0()



EVENT   28
 PAGE   1
  ShowMessageFace("",0,0,2,1)
  ShowMessage("\\n<Swordsman>I can't drink any mooree♪ uhehe...♪")
  ShowMessageFace("",0,0,2,2)
  ShowMessage("A drunk swordsman was robbed of his sword and other belongings...")
  355("actor_label_jump")
  EndEventProcessing()
  DefineLabel("74")
  ShowMessageFace("usagi_fc1",2,0,2,3)
  ShowMessage("\\n<Barnny>Oh dear, I need to warn Sheepy as well...")
  EndEventProcessing()
  DefineLabel("75")
  ShowMessageFace("hituzi_fc1",3,0,2,4)
  ShowMessage("\\n<Mary>I need to be caaareful...")
  EndEventProcessing()
  DefineLabel("136")
  ShowMessageFace("elf_fc1",0,0,2,5)
  ShowMessage("\\n<Claudia>Hmph, how pathetic...")
  EndEventProcessing()
  0()



EVENT   29
 PAGE   1
  ShowMessageFace("",0,0,2,1)
  ShowMessage("\\n<Gruff Man>On the other side of this bridge there are Elka Company's headquarters. It's better not to get anywhere near it...")
  0()



EVENT   30
 PAGE   1
  ShowMessageFace("",0,0,2,1)
  ShowMessage("\\n<Old Man>There are many who lose their lives in pointless fights. Weaklings put on a brave act and won't escape when they should...")
  ShowMessageFace("",0,0,2,2)
  ShowMessage("\\n<Old Man>...mm? Me? Try guessing based on how long I live.")
  355("actor_label_jump")
  EndEventProcessing()
  DefineLabel("88")
  ShowMessageFace("jack_fc1",0,0,2,3)
  ShowMessage("\\n<Pumpkin>I too, escape when it's dangerous...")
  EndEventProcessing()
  DefineLabel("99")
  ShowMessageFace("namazu_fc1",0,0,2,4)
  ShowMessage("\\n<Gigi>Wisdom of age is important...")
  EndEventProcessing()
  0()



EVENT   31
 PAGE   1
  ShowMessageFace("",0,0,2,1)
  ShowMessage("\\n<Traveling Warrior>It's a long journey to Sabasa... it's better to prepare in this town.")
  0()



EVENT   32
 PAGE   1
  ShowMessageFace("",0,0,2,1)
  ShowMessage("\\n<Boy>Justice Kaiser, transform! Yahhh!")
  355("actor_label_jump")
  EndEventProcessing()
  DefineLabel("88")
  ShowMessageFace("jack_fc1",1,0,2,2)
  ShowMessage("\\n<Pumpkin>I'll play too...")
  ShowMessageFace("",0,0,2,3)
  ShowMessage("\\n<Boy>Then you'll have Pumpkin Monster's role!")
  ShowMessageFace("jack_fc1",2,0,2,4)
  ShowMessage("\\n<Pumpkin>Ehhh...")
  EndEventProcessing()
  355("actor_label_jump")
  EndEventProcessing()
  DefineLabel("138")
  ShowMessageFace("tfairy_fc1",0,0,2,5)
  ShowMessage("\\n<Milly & Liru>Yaay, we'll play with yoouu♪")
  EndEventProcessing()
  0()



EVENT   33
 PAGE   1
  // condition: variable 1024 >= 3
  ShowMessageFace("",0,0,2,1)
  ShowMessage("\\n<Warrior>Please, go in. Say my best regards to Lazarus...")
  0()



EVENT   35
 PAGE   1
  // condition: variable 1024 >= 3
  0()
 PAGE   2
  // condition: variable 1024 >= 4
  If(1,1024,0,5,2)
   ShowMessageFace("",0,0,2,1)
   ShowMessage("\\n<Youth>......")
   0()
  EndIf()
  If(1,1024,0,6,1)
   ShowMessageFace("",0,0,2,2)
   ShowMessage("\\n<Youth>I'm waiting here...")
   0()
  EndIf()
  355("actor_label_jump")
  EndEventProcessing()
  DefineLabel("143")
  ShowMessageFace("eva_fc1",0,0,2,3)
  ShowMessage("\\n<Eva>Oh, sorry. I'm not hungry now...")
  ShowMessageFace("",0,0,2,4)
  ShowMessage("\\n<Youth>N-no wayy...")
  EndEventProcessing()
  0()



EVENT   36
 PAGE   1
  // condition: variable 1024 >= 3
  0()
 PAGE   2
  // condition: variable 1024 >= 4
  0()



EVENT   34
 PAGE   1
  // condition: variable 1024 >= 3
  ShowMessageFace("ruka_fc1",0,0,2,1)
  ShowMessage("\\n<Luka>Ah, that's...!")
  241(bytes(0x04,0x08,0x6f,0x3a,0x0d,0x52,0x50,0x47,0x3a,0x3a,0x42,0x47,0x4d,0x08,0x3a,0x0a,0x40,0x6e,0x61,0x6d,0x65,0x49,0x22,0x0a,0x6b,0x69,0x6b,0x69,0x32,0x06,0x3a,0x06,0x45,0x54,0x3a,0x0c,0x40,0x76,0x6f,0x6c,0x75,0x6d,0x65,0x69,0x69,0x3a,0x0b,0x40,0x70,0x69,0x74,0x63,0x68,0x69,0x69))
  ShowMessageFace("",0,0,2,2)
  ShowMessage("A succubus approaches the Youth!")
  PictureDisplay(5,"80_eva_st02",0,0,0,0,100,100,0,0)
  PictureMove(5,null,0,0,0,0,100,100,255,0,30,true)
  ShowMessageFace("eva_fc1",1,0,2,3)
  ShowMessage("\\n<Eva>Fufu, what an appetizing prey. I'll thoroughly suck out that semen of yours...")
  205(36,bytes(0x04,0x08,0x6f,0x3a,0x13,0x52,0x50,0x47,0x3a,0x3a,0x4d,0x6f,0x76,0x65,0x52,0x6f,0x75,0x74,0x65,0x09,0x3a,0x0c,0x40,0x72,0x65,0x70,0x65,0x61,0x74,0x46,0x3a,0x0f,0x40,0x73,0x6b,0x69,0x70,0x70,0x61,0x62,0x6c,0x65,0x46,0x3a,0x0a,0x40,0x77,0x61,0x69,0x74,0x54,0x3a,0x0a,0x40,0x6c,0x69,0x73,0x74,0x5b,0x08,0x6f,0x3a,0x15,0x52,0x50,0x47,0x3a,0x3a,0x4d,0x6f,0x76,0x65,0x43,0x6f,0x6d,0x6d,0x61,0x6e,0x64,0x07,0x3a,0x0a,0x40,0x63,0x6f,0x64,0x65,0x69,0x07,0x3a,0x10,0x40,0x70,0x61,0x72,0x61,0x6d,0x65,0x74,0x65,0x72,0x73,0x5b,0x00,0x6f,0x3b,0x0a,0x07,0x3b,0x0b,0x69,0x07,0x3b,0x0c,0x5b,0x00,0x6f,0x3b,0x0a,0x07,0x3b,0x0b,0x69,0x00,0x3b,0x0c,0x5b,0x00))
  ShowMessageFace("eva_fc1",1,0,2,4)
  ShowMessage("\\n<Eva>Don't worry, I won't take your life... fufufu, I'll let you taste heaven...")
  ShowMessageFace("",0,0,2,5)
  ShowMessage("\\n<Youth>Woahh♪　someone save meee♪.")
  ShowMessageFace("eva_fc1",1,0,2,6)
  ShowMessage("\\n<Eva>Fufu, you think anyone will save you here? Give up, and let yourself be raped by me...")
  PictureClear(5)
  ShowChoices(strings("Help him","Let it be"),0)
  IfPlayerPicksChoice(0,null)
   ShowMessageFace("ruka_fc1",0,0,2,7)
   ShowMessage("\\n<Luka>This is bad, we need to help him...")
   ShowMessageFace("",0,0,2,8)
   ShowMessage("I tried to rush in there, but the next moment...")
   0()
  IfPlayerPicksChoice(1,null)
   RunCommonEvent(303)
   ShowMessageFace("ruka_fc1",0,0,2,9)
   ShowMessage("\\n<Luka>It would be rude to interrupt.")
   ShowMessageFace("",0,0,2,10)
   ShowMessage("As I stood on the sidelines...")
   0()
  404()
  241(bytes(0x04,0x08,0x6f,0x3a,0x0d,0x52,0x50,0x47,0x3a,0x3a,0x42,0x47,0x4d,0x08,0x3a,0x0a,0x40,0x6e,0x61,0x6d,0x65,0x49,0x22,0x09,0x68,0x65,0x72,0x6f,0x06,0x3a,0x06,0x45,0x54,0x3a,0x0c,0x40,0x76,0x6f,0x6c,0x75,0x6d,0x65,0x69,0x69,0x3a,0x0b,0x40,0x70,0x69,0x74,0x63,0x68,0x69,0x69))
  ChangeSwitch(31,31,0)
  205(37,bytes(0x04,0x08,0x6f,0x3a,0x13,0x52,0x50,0x47,0x3a,0x3a,0x4d,0x6f,0x76,0x65,0x52,0x6f,0x75,0x74,0x65,0x09,0x3a,0x0c,0x40,0x72,0x65,0x70,0x65,0x61,0x74,0x46,0x3a,0x0f,0x40,0x73,0x6b,0x69,0x70,0x70,0x61,0x62,0x6c,0x65,0x46,0x3a,0x0a,0x40,0x77,0x61,0x69,0x74,0x46,0x3a,0x0a,0x40,0x6c,0x69,0x73,0x74,0x5b,0x0a,0x6f,0x3a,0x15,0x52,0x50,0x47,0x3a,0x3a,0x4d,0x6f,0x76,0x65,0x43,0x6f,0x6d,0x6d,0x61,0x6e,0x64,0x07,0x3a,0x0a,0x40,0x63,0x6f,0x64,0x65,0x69,0x18,0x3a,0x10,0x40,0x70,0x61,0x72,0x61,0x6d,0x65,0x74,0x65,0x72,0x73,0x5b,0x00,0x6f,0x3b,0x0a,0x07,0x3b,0x0b,0x69,0x16,0x3b,0x0c,0x5b,0x00,0x6f,0x3b,0x0a,0x07,0x3b,0x0b,0x69,0x15,0x3b,0x0c,0x5b,0x00,0x6f,0x3b,0x0a,0x07,0x3b,0x0b,0x69,0x17,0x3b,0x0c,0x5b,0x00,0x6f,0x3b,0x0a,0x07,0x3b,0x0b,0x69,0x00,0x3b,0x0c,0x5b,0x00))
  Wait(15)
  PictureDisplay(5,"80_justice_st01",0,0,0,0,100,100,0,0)
  PictureMove(5,null,0,0,0,0,100,100,255,0,30,true)
  ShowMessageFace("justice_fc1",0,0,2,11)
  ShowMessage("\\n<???>HAa!!")
  ShowMessageFace("",0,0,2,12)
  ShowMessage("A strangely-dressed woman has appeared!")
  ShowMessageFace("eva_fc1",2,0,2,13)
  ShowMessage("\\n<Eva>Y-you are...?!")
  ShowMessageFace("justice_fc1",0,0,2,14)
  ShowMessage("\\n<???>An ally of justice, a\\*\\fi hero\\*\\fi, Justice Kaiser!")
  Wait(15)
  PictureClear(5)
  205(37,bytes(0x04,0x08,0x6f,0x3a,0x13,0x52,0x50,0x47,0x3a,0x3a,0x4d,0x6f,0x76,0x65,0x52,0x6f,0x75,0x74,0x65,0x09,0x3a,0x0c,0x40,0x72,0x65,0x70,0x65,0x61,0x74,0x46,0x3a,0x0f,0x40,0x73,0x6b,0x69,0x70,0x70,0x61,0x62,0x6c,0x65,0x46,0x3a,0x0a,0x40,0x77,0x61,0x69,0x74,0x46,0x3a,0x0a,0x40,0x6c,0x69,0x73,0x74,0x5b,0x08,0x6f,0x3a,0x15,0x52,0x50,0x47,0x3a,0x3a,0x4d,0x6f,0x76,0x65,0x43,0x6f,0x6d,0x6d,0x61,0x6e,0x64,0x07,0x3a,0x0a,0x40,0x63,0x6f,0x64,0x65,0x69,0x2a,0x3a,0x10,0x40,0x70,0x61,0x72,0x61,0x6d,0x65,0x74,0x65,0x72,0x73,0x5b,0x00,0x6f,0x3b,0x0a,0x07,0x3b,0x0b,0x69,0x13,0x3b,0x0c,0x5b,0x07,0x69,0x08,0x69,0x06,0x6f,0x3b,0x0a,0x07,0x3b,0x0b,0x69,0x00,0x3b,0x0c,0x5b,0x00))
  ShowMessageFace("justice_fc1",0,0,2,15)
  ShowMessage("\\n<Justice Kaiser>Rah!")
  Wait(15)
  PictureDisplay(5,"80_justice_st01",0,0,-150,0,100,100,0,0)
  PictureDisplay(6,"80_eva_st03",0,0,150,0,100,100,0,0)
  ShowMessageFace("eva_fc1",2,0,2,16)
  ShowMessage("\\n<Eva>What on earth are you?! Why do you keep getting in my way?!")
  ShowMessageFace("justice_fc1",0,0,2,17)
  ShowMessage("\\n<Justice Kaiser>My heart and soul shall not forgive villains threatening the weak! Take this,\\*\\fi Justice Knuckle...!\\*\\fi")
  ShowMessageFace("eva_fc1",2,0,2,18)
  ShowMessage("\\n<Eva>Ahh damn, I'm hungry and here comes annoyance... fine, I'll find another man!")
  Wait(15)
  PictureClear(5)
  PictureClear(6)
  250(bytes(0x04,0x08,0x6f,0x3a,0x0c,0x52,0x50,0x47,0x3a,0x3a,0x53,0x45,0x08,0x3a,0x0a,0x40,0x6e,0x61,0x6d,0x65,0x49,0x22,0x0d,0x6d,0x6f,0x6e,0x5f,0x77,0x61,0x72,0x70,0x06,0x3a,0x06,0x45,0x54,0x3a,0x0b,0x40,0x70,0x69,0x74,0x63,0x68,0x69,0x69,0x3a,0x0c,0x40,0x76,0x6f,0x6c,0x75,0x6d,0x65,0x69,0x69))
  205(36,bytes(0x04,0x08,0x6f,0x3a,0x13,0x52,0x50,0x47,0x3a,0x3a,0x4d,0x6f,0x76,0x65,0x52,0x6f,0x75,0x74,0x65,0x09,0x3a,0x0c,0x40,0x72,0x65,0x70,0x65,0x61,0x74,0x46,0x3a,0x0f,0x40,0x73,0x6b,0x69,0x70,0x70,0x61,0x62,0x6c,0x65,0x46,0x3a,0x0a,0x40,0x77,0x61,0x69,0x74,0x46,0x3a,0x0a,0x40,0x6c,0x69,0x73,0x74,0x5b,0x07,0x6f,0x3a,0x15,0x52,0x50,0x47,0x3a,0x3a,0x4d,0x6f,0x76,0x65,0x43,0x6f,0x6d,0x6d,0x61,0x6e,0x64,0x07,0x3a,0x0a,0x40,0x63,0x6f,0x64,0x65,0x69,0x2c,0x3a,0x10,0x40,0x70,0x61,0x72,0x61,0x6d,0x65,0x74,0x65,0x72,0x73,0x5b,0x00,0x6f,0x3b,0x0a,0x07,0x3b,0x0b,0x69,0x00,0x3b,0x0c,0x5b,0x00))
  ShowMessageFace("",0,0,2,19)
  ShowMessage("Eva has escaped!")
  241(bytes(0x04,0x08,0x6f,0x3a,0x0d,0x52,0x50,0x47,0x3a,0x3a,0x42,0x47,0x4d,0x08,0x3a,0x0a,0x40,0x6e,0x61,0x6d,0x65,0x49,0x22,0x0a,0x6d,0x75,0x72,0x61,0x33,0x06,0x3a,0x06,0x45,0x54,0x3a,0x0c,0x40,0x76,0x6f,0x6c,0x75,0x6d,0x65,0x69,0x69,0x3a,0x0b,0x40,0x70,0x69,0x74,0x63,0x68,0x69,0x69))
  ShowMessageFace("justice_fc1",0,0,2,20)
  ShowMessage("\\n<Justice Kaiser>Khh... she has escaped again...!")
  205(37,bytes(0x04,0x08,0x6f,0x3a,0x13,0x52,0x50,0x47,0x3a,0x3a,0x4d,0x6f,0x76,0x65,0x52,0x6f,0x75,0x74,0x65,0x09,0x3a,0x0c,0x40,0x72,0x65,0x70,0x65,0x61,0x74,0x46,0x3a,0x0f,0x40,0x73,0x6b,0x69,0x70,0x70,0x61,0x62,0x6c,0x65,0x46,0x3a,0x0a,0x40,0x77,0x61,0x69,0x74,0x46,0x3a,0x0a,0x40,0x6c,0x69,0x73,0x74,0x5b,0x07,0x6f,0x3a,0x15,0x52,0x50,0x47,0x3a,0x3a,0x4d,0x6f,0x76,0x65,0x43,0x6f,0x6d,0x6d,0x61,0x6e,0x64,0x07,0x3a,0x0a,0x40,0x63,0x6f,0x64,0x65,0x69,0x16,0x3a,0x10,0x40,0x70,0x61,0x72,0x61,0x6d,0x65,0x74,0x65,0x72,0x73,0x5b,0x00,0x6f,0x3b,0x0a,0x07,0x3b,0x0b,0x69,0x00,0x3b,0x0c,0x5b,0x00))
  ShowMessageFace("justice_fc1",0,0,2,21)
  ShowMessage("\\n<Justice Kaiser>It's all right,\\*\\fi evil\\*\\fi has left this place. Were you injured...?")
  ShowMessageFace("",0,0,2,22)
  ShowMessage("\\n<Youth>Yeah, yes...")
  205(35,bytes(0x04,0x08,0x6f,0x3a,0x13,0x52,0x50,0x47,0x3a,0x3a,0x4d,0x6f,0x76,0x65,0x52,0x6f,0x75,0x74,0x65,0x09,0x3a,0x0c,0x40,0x72,0x65,0x70,0x65,0x61,0x74,0x46,0x3a,0x0f,0x40,0x73,0x6b,0x69,0x70,0x70,0x61,0x62,0x6c,0x65,0x46,0x3a,0x0a,0x40,0x77,0x61,0x69,0x74,0x54,0x3a,0x0a,0x40,0x6c,0x69,0x73,0x74,0x5b,0x07,0x6f,0x3a,0x15,0x52,0x50,0x47,0x3a,0x3a,0x4d,0x6f,0x76,0x65,0x43,0x6f,0x6d,0x6d,0x61,0x6e,0x64,0x07,0x3a,0x0a,0x40,0x63,0x6f,0x64,0x65,0x69,0x15,0x3a,0x10,0x40,0x70,0x61,0x72,0x61,0x6d,0x65,0x74,0x65,0x72,0x73,0x5b,0x00,0x6f,0x3b,0x0a,0x07,0x3b,0x0b,0x69,0x00,0x3b,0x0c,0x5b,0x00))
  ShowMessageFace("",0,0,2,23)
  ShowMessage("\\n<Youth>......")
  205(37,bytes(0x04,0x08,0x6f,0x3a,0x13,0x52,0x50,0x47,0x3a,0x3a,0x4d,0x6f,0x76,0x65,0x52,0x6f,0x75,0x74,0x65,0x09,0x3a,0x0c,0x40,0x72,0x65,0x70,0x65,0x61,0x74,0x46,0x3a,0x0f,0x40,0x73,0x6b,0x69,0x70,0x70,0x61,0x62,0x6c,0x65,0x46,0x3a,0x0a,0x40,0x77,0x61,0x69,0x74,0x54,0x3a,0x0a,0x40,0x6c,0x69,0x73,0x74,0x5b,0x07,0x6f,0x3a,0x15,0x52,0x50,0x47,0x3a,0x3a,0x4d,0x6f,0x76,0x65,0x43,0x6f,0x6d,0x6d,0x61,0x6e,0x64,0x07,0x3a,0x0a,0x40,0x63,0x6f,0x64,0x65,0x69,0x06,0x3a,0x10,0x40,0x70,0x61,0x72,0x61,0x6d,0x65,0x74,0x65,0x72,0x73,0x5b,0x00,0x6f,0x3b,0x0a,0x07,0x3b,0x0b,0x69,0x00,0x3b,0x0c,0x5b,0x00))
  Wait(15)
  PictureDisplay(5,"80_justice_st01",0,0,0,0,100,100,0,0)
  PictureMove(5,null,0,0,0,0,100,100,255,0,30,true)
  ShowMessageFace("justice_fc1",0,0,2,24)
  ShowMessage("\\n<Justice Kaiser>Also, you there!")
  ShowMessageFace("ruka_fc1",0,0,2,25)
  ShowMessage("\\n<Luka>M-me...?!")
  ShowMessageFace("justice_fc1",0,0,2,26)
  ShowMessage("\\n<Justice Kaiser>I can see the\\*\\fi spirit\\*\\fi of justice in your eyes. I have high expectations and a request for you...")
  If(0,4,0)
   ShowMessageFace("alice_fc5",0,0,2,27)
   ShowMessage("\\n<Alice>Declined.")
   0()
  EndIf()
  If(0,5,0)
   ShowMessageFace("iriasu_fc4",2,0,2,28)
   ShowMessage("\\n<Ilias>We decline.")
   0()
  EndIf()
  ShowMessageFace("justice_fc1",0,0,2,29)
  ShowMessage("\\n<Justice Kaiser>This isn't a good place, let's go to\\*\\fi my house\\*\\fi to talk about this.")
  PictureClear(5)
  Wait(15)
  205(37,bytes(0x04,0x08,0x6f,0x3a,0x13,0x52,0x50,0x47,0x3a,0x3a,0x4d,0x6f,0x76,0x65,0x52,0x6f,0x75,0x74,0x65,0x09,0x3a,0x0c,0x40,0x72,0x65,0x70,0x65,0x61,0x74,0x46,0x3a,0x0f,0x40,0x73,0x6b,0x69,0x70,0x70,0x61,0x62,0x6c,0x65,0x46,0x3a,0x0a,0x40,0x77,0x61,0x69,0x74,0x54,0x3a,0x0a,0x40,0x6c,0x69,0x73,0x74,0x5b,0x07,0x6f,0x3a,0x15,0x52,0x50,0x47,0x3a,0x3a,0x4d,0x6f,0x76,0x65,0x43,0x6f,0x6d,0x6d,0x61,0x6e,0x64,0x07,0x3a,0x0a,0x40,0x63,0x6f,0x64,0x65,0x69,0x17,0x3a,0x10,0x40,0x70,0x61,0x72,0x61,0x6d,0x65,0x74,0x65,0x72,0x73,0x5b,0x00,0x6f,0x3b,0x0a,0x07,0x3b,0x0b,0x69,0x00,0x3b,0x0c,0x5b,0x00))
  ShowMessageFace("justice_fc1",0,0,2,30)
  ShowMessage("\\n<Justice Kaiser>It's ahead of my line of sight... ...you get what I mean? That's\\*\\fi my house...\\*\\fi")
  ShowMessageFace("justice_fc1",0,0,2,31)
  ShowMessage("\\n<Justice Kaiser>Well then, farewell... haa!!")
  205(37,bytes(0x04,0x08,0x6f,0x3a,0x13,0x52,0x50,0x47,0x3a,0x3a,0x4d,0x6f,0x76,0x65,0x52,0x6f,0x75,0x74,0x65,0x09,0x3a,0x0c,0x40,0x72,0x65,0x70,0x65,0x61,0x74,0x46,0x3a,0x0f,0x40,0x73,0x6b,0x69,0x70,0x70,0x61,0x62,0x6c,0x65,0x46,0x3a,0x0a,0x40,0x77,0x61,0x69,0x74,0x54,0x3a,0x0a,0x40,0x6c,0x69,0x73,0x74,0x5b,0x08,0x6f,0x3a,0x15,0x52,0x50,0x47,0x3a,0x3a,0x4d,0x6f,0x76,0x65,0x43,0x6f,0x6d,0x6d,0x61,0x6e,0x64,0x07,0x3a,0x0a,0x40,0x63,0x6f,0x64,0x65,0x69,0x2a,0x3a,0x10,0x40,0x70,0x61,0x72,0x61,0x6d,0x65,0x74,0x65,0x72,0x73,0x5b,0x00,0x6f,0x3b,0x0a,0x07,0x3b,0x0b,0x69,0x13,0x3b,0x0c,0x5b,0x07,0x69,0x00,0x69,0xf6,0x6f,0x3b,0x0a,0x07,0x3b,0x0b,0x69,0x00,0x3b,0x0c,0x5b,0x00))
  ChangeSwitch(31,31,1)
  If(4,68,0)
   ShowMessageFace("dragonp_fc1",0,0,2,32)
   ShowMessage("\\n<Papi>Ohh!! So cool!")
   If(4,62,0)
    ShowMessageFace("gob_fc1",3,0,2,33)
    ShowMessage("\\n<Gob>Is that so?")
    0()
   EndIf()
   0()
  EndIf()
  ShowMessageFace("ruka_fc1",0,0,2,34)
  ShowMessage("\\n<Luka>......")
  ShowMessageFace("",0,0,2,35)
  ShowMessage("\\n<Youth>......")
  ShowMessageFace("",0,0,2,36)
  ShowMessage("The house on the right side is Justice Kaiser's...? Now, what shall we do.")
  ChangeVariable(1024,1024,0,0,4)
  0()
 PAGE   2
  // condition: variable 1024 >= 4
  0()



EVENT   37
 PAGE   1
  // condition: switch 31 is ON
  0()



EVENT   38
 PAGE   1
  ShowMessageFace("",0,0,2,1)
  ShowMessage("\\n<Dog>Woof! Woof!")
  355("actor_label_jump")
  EndEventProcessing()
  DefineLabel("60")
  ShowMessageFace("dog_fc1",4,0,2,2)
  ShowMessage("\\n<Pochi>Woof woof! Woof!")
  EndEventProcessing()
  0()



EVENT   39
 PAGE   1
  250(bytes(0x04,0x08,0x6f,0x3a,0x0c,0x52,0x50,0x47,0x3a,0x3a,0x53,0x45,0x08,0x3a,0x0a,0x40,0x6e,0x61,0x6d,0x65,0x49,0x22,0x0a,0x49,0x74,0x65,0x6d,0x31,0x06,0x3a,0x06,0x45,0x54,0x3a,0x0b,0x40,0x70,0x69,0x74,0x63,0x68,0x69,0x69,0x3a,0x0c,0x40,0x76,0x6f,0x6c,0x75,0x6d,0x65,0x69,0x55))
  ChangeSelfSwitch("A",0)
  ChangeInventory_Item(7,0,0,1)
  0()
 PAGE   2
  // condition: self-switch A is ON
  0()



EVENT   21
 PAGE   1
  ShowMessageFace("",0,0,2,1)
  ShowMessage("\\n<Gruff Man>Elka Company is controlling this town. You better remember that...")
  ShowMessageFace("",0,0,2,2)
  ShowMessage("\\n<Gruff Man>Well, Elka Company is a large organization and their control works well. Unlike thugs and villains, they won't actively involve themselves with you.")
  0()



EVENT   40
 PAGE   1
  250(bytes(0x04,0x08,0x6f,0x3a,0x0c,0x52,0x50,0x47,0x3a,0x3a,0x53,0x45,0x08,0x3a,0x0a,0x40,0x6e,0x61,0x6d,0x65,0x49,0x22,0x0a,0x49,0x74,0x65,0x6d,0x31,0x06,0x3a,0x06,0x45,0x54,0x3a,0x0b,0x40,0x70,0x69,0x74,0x63,0x68,0x69,0x69,0x3a,0x0c,0x40,0x76,0x6f,0x6c,0x75,0x6d,0x65,0x69,0x55))
  ChangeSelfSwitch("A",0)
  ChangeInventory_Item(64,0,0,1)
  0()
 PAGE   2
  // condition: self-switch A is ON
  0()



EVENT   41
 PAGE   1
  250(bytes(0x04,0x08,0x6f,0x3a,0x0c,0x52,0x50,0x47,0x3a,0x3a,0x53,0x45,0x08,0x3a,0x0a,0x40,0x6e,0x61,0x6d,0x65,0x49,0x22,0x0a,0x49,0x74,0x65,0x6d,0x31,0x06,0x3a,0x06,0x45,0x54,0x3a,0x0b,0x40,0x70,0x69,0x74,0x63,0x68,0x69,0x69,0x3a,0x0c,0x40,0x76,0x6f,0x6c,0x75,0x6d,0x65,0x69,0x55))
  ChangeSelfSwitch("A",0)
  ChangeInventory_Item(188,0,0,1)
  0()
 PAGE   2
  // condition: self-switch A is ON
  0()



EVENT   42
 PAGE   1
  // condition: switch 1102 is ON
  // condition: switch 1103 is ON
  241(bytes(0x04,0x08,0x6f,0x3a,0x0d,0x52,0x50,0x47,0x3a,0x3a,0x42,0x47,0x4d,0x08,0x3a,0x0a,0x40,0x6e,0x61,0x6d,0x65,0x49,0x22,0x13,0x73,0x63,0x65,0x6e,0x65,0x5f,0x6f,0x64,0x61,0x79,0x61,0x6b,0x61,0x31,0x06,0x3a,0x06,0x45,0x54,0x3a,0x0c,0x40,0x76,0x6f,0x6c,0x75,0x6d,0x65,0x69,0x69,0x3a,0x0b,0x40,0x70,0x69,0x74,0x63,0x68,0x69,0x69))
  ShowMessageFace("kamuro_fc1",0,0,2,1)
  ShowMessage("\\n<Kamuro>Kitsune-senpai... why do rivers flow?")
  ShowMessageFace("youko_fc1",0,0,2,2)
  ShowMessage("\\n<Kitsu>Umm, that's... ...unless it flows, water is going to gather in one place.")
  ShowMessageFace("kamuro_fc1",0,0,2,3)
  ShowMessage("\\n<Kamuro>As expected of Kitsune-senpai! You know anything, don't you!")
  241(bytes(0x04,0x08,0x6f,0x3a,0x0d,0x52,0x50,0x47,0x3a,0x3a,0x42,0x47,0x4d,0x08,0x3a,0x0a,0x40,0x6e,0x61,0x6d,0x65,0x49,0x22,0x0a,0x6d,0x75,0x72,0x61,0x33,0x06,0x3a,0x06,0x45,0x54,0x3a,0x0c,0x40,0x76,0x6f,0x6c,0x75,0x6d,0x65,0x69,0x69,0x3a,0x0b,0x40,0x70,0x69,0x74,0x63,0x68,0x69,0x69))
  0()
 PAGE   2
  // condition: party contains actor #102
  0()
 PAGE   3
  // condition: party contains actor #103
  0()



EVENT   43
 PAGE   1
  // condition: switch 1102 is ON
  // condition: switch 1103 is ON
  241(bytes(0x04,0x08,0x6f,0x3a,0x0d,0x52,0x50,0x47,0x3a,0x3a,0x42,0x47,0x4d,0x08,0x3a,0x0a,0x40,0x6e,0x61,0x6d,0x65,0x49,0x22,0x13,0x73,0x63,0x65,0x6e,0x65,0x5f,0x6f,0x64,0x61,0x79,0x61,0x6b,0x61,0x31,0x06,0x3a,0x06,0x45,0x54,0x3a,0x0c,0x40,0x76,0x6f,0x6c,0x75,0x6d,0x65,0x69,0x69,0x3a,0x0b,0x40,0x70,0x69,0x74,0x63,0x68,0x69,0x69))
  ShowMessageFace("kamuro_fc1",0,0,2,1)
  ShowMessage("\\n<Kamuro>Kitsune-senpai... why do rivers flow?")
  ShowMessageFace("youko_fc1",0,0,2,2)
  ShowMessage("\\n<Kitsu>Umm, that's... ...unless it flows, water is going to gather in one place.")
  ShowMessageFace("kamuro_fc1",0,0,2,3)
  ShowMessage("\\n<Kamuro>As expected of Kitsune-senpai! You know anything, don't you!")
  241(bytes(0x04,0x08,0x6f,0x3a,0x0d,0x52,0x50,0x47,0x3a,0x3a,0x42,0x47,0x4d,0x08,0x3a,0x0a,0x40,0x6e,0x61,0x6d,0x65,0x49,0x22,0x0a,0x6d,0x75,0x72,0x61,0x33,0x06,0x3a,0x06,0x45,0x54,0x3a,0x0c,0x40,0x76,0x6f,0x6c,0x75,0x6d,0x65,0x69,0x69,0x3a,0x0b,0x40,0x70,0x69,0x74,0x63,0x68,0x69,0x69))
  0()
 PAGE   2
  // condition: party contains actor #102
  0()
 PAGE   3
  // condition: party contains actor #103
  0()



EVENT   26
 PAGE   1
  ShowMessageFace("",0,0,2,1)
  ShowMessage("\\n<Thug>If I enter Elka Company even I will...! Damn, I'll definitely go big one day!")
  355("actor_label_jump")
  EndEventProcessing()
  DefineLabel("102")
  ShowMessageFace("youko_fc1",0,0,2,2)
  ShowMessage("\\n<Kitsu>I'll become a splendid spirit fox as well!")
  EndEventProcessing()
  DefineLabel("143")
  ShowMessageFace("eva_fc1",0,0,2,3)
  ShowMessage("\\n<Eva>I'll go big as well! Without working, that is!")
  EndEventProcessing()
  DefineLabel("149")
  ShowMessageFace("lamp_fc1",1,0,2,4)
  ShowMessage("\\n<Jeannie>Shall I fulfill that wish of yours...?")
  ShowMessageFace("",0,0,2,5)
  ShowMessage("\\n<Thug>Hmm, Granny told me about this. She said not to jump at at happiness that comes without effort...")
  ShowMessageFace("lamp_fc1",0,0,2,6)
  ShowMessage("\\n<Jeannie>He's unexpectedly careful...")
  EndEventProcessing()
  DefineLabel("174")
  ShowMessageFace("sandw_fc1",0,0,2,7)
  ShowMessage("\\n<Dahlia>I'm big...")
  ShowMessageFace("",0,0,2,8)
  ShowMessage("\\n<Thug>But you didn't want to, right...")
  EndEventProcessing()
  0()



EVENT   44
 PAGE   1
  // condition: switch 1080 is ON
  ShowMessageFace("orc_fc1",1,0,2,1)
  ShowMessage("\\n<Hip>Oinkk! It's Orc's raid!")
  ShowMessageFace("orc_fc1",2,0,2,2)
  ShowMessage("\\n<Hip>...is what I said and was beat up by an ally of justice. She made me do weeding like this...")
  0()
 PAGE   2
  // condition: party contains actor #80
  0()



EVENT   45
 PAGE   1
  // condition: switch 1540 is ON
  241(bytes(0x04,0x08,0x6f,0x3a,0x0d,0x52,0x50,0x47,0x3a,0x3a,0x42,0x47,0x4d,0x08,0x3a,0x0a,0x40,0x6e,0x61,0x6d,0x65,0x49,0x22,0x0a,0x61,0x6d,0x69,0x72,0x61,0x06,0x3a,0x06,0x45,0x54,0x3a,0x0c,0x40,0x76,0x6f,0x6c,0x75,0x6d,0x65,0x69,0x69,0x3a,0x0b,0x40,0x70,0x69,0x74,0x63,0x68,0x69,0x69))
  If(2,"A",1)
   ChangeSelfSwitch("A",0)
   RunCommonEvent(322)
   0()
  Else()
   ShowMessageFace("amira_fc1",0,0,2,1)
   ShowMessage("\\n<Amira>You've found me here. Keep searching for me...")
   0()
  EndIf()
  241(bytes(0x04,0x08,0x6f,0x3a,0x0d,0x52,0x50,0x47,0x3a,0x3a,0x42,0x47,0x4d,0x08,0x3a,0x0a,0x40,0x6e,0x61,0x6d,0x65,0x49,0x22,0x0a,0x6d,0x75,0x72,0x61,0x33,0x06,0x3a,0x06,0x45,0x54,0x3a,0x0c,0x40,0x76,0x6f,0x6c,0x75,0x6d,0x65,0x69,0x69,0x3a,0x0b,0x40,0x70,0x69,0x74,0x63,0x68,0x69,0x69))
  EndEventProcessing()
  0()
 PAGE   2
  // condition: party contains actor #540
  0()



EVENT   18
 PAGE   1
  ShowMessageFace("",0,0,2,1)
  ShowMessage("\\n<Youth>Oh, a visitor. These are the Monte Carlo slums. Relax, I'm not gonna mug ya or anything.")
  281(1)
  355("unlimited_choices(11, [\"Inn\",")
  655("\"Weapon Shop-Blacksmith\",\"Item Shop\",")
  655("\"Church\",\"Nowhere\"])")
  If(1,11,0,0,0)
   TeleportPlayer(0,13,6,11,2,0)
   EndEventProcessing()
   0()
  EndIf()
  If(1,11,0,1,0)
   TeleportPlayer(0,13,20,21,2,0)
   EndEventProcessing()
   0()
  EndIf()
  If(1,11,0,2,0)
   TeleportPlayer(0,13,42,18,2,0)
   EndEventProcessing()
   0()
  EndIf()
  If(1,11,0,3,0)
   TeleportPlayer(0,13,47,5,2,0)
   EndEventProcessing()
   0()
  EndIf()
  If(1,11,0,4,0)
   EndEventProcessing()
   0()
  EndIf()
  0()



EVENT   17
 PAGE   1
  ChangeSelfSwitch("A",0)
  ShowMessageFace("ruka_fc1",0,0,2,1)
  ShowMessage("\\n<Luka>So this is Monte Carlo...")
  If(4,12,0)
   ShowMessageFace("sylph_fc1",0,0,2,2)
   ShowMessage("\\n<Sylph>Uwahhh, what a dirty town!")
   0()
  EndIf()
  If(4,41,0)
   ShowMessageFace("stein_fc2",0,0,2,3)
   ShowMessage("\\n<Promestein>This town looks like it has bad security. There's nothing in here that draws my attention...")
   0()
  EndIf()
  If(0,4,0)
   ShowMessageFace("alice_fc5",0,0,2,4)
   ShowMessage("\\n<Alice>Well then, let's try gathering information. I want to know more about the surroundings too.")
   0()
  EndIf()
  If(0,5,0)
   ShowMessageFace("iriasu_fc4",0,0,2,5)
   ShowMessage("\\n<Ilias>Well then, let's try gathering information. We ought to ask about the surrounding area as well.")
   0()
  EndIf()
  ShowMessageFace("ruka_fc1",0,0,2,6)
  ShowMessage("\\n<Luka>There should be an informant in a town like this. How about we try finding one first?")
  If(0,6,0)
   ShowMessageFace("sonia_fc2",2,0,2,7)
   ShowMessage("\\n<Sonya>Honestly, it's not a town you want to spend too long in... We don't have anything special to do here, let's leave after we ask our questions.")
   0()
  EndIf()
  0()
 PAGE   2
  // condition: self-switch A is ON
  0()
