﻿


EVENT   1
 PAGE   1
  250(bytes(0x04,0x08,0x6f,0x3a,0x0c,0x52,0x50,0x47,0x3a,0x3a,0x53,0x45,0x08,0x3a,0x0a,0x40,0x6e,0x61,0x6d,0x65,0x49,0x22,0x09,0x4d,0x6f,0x76,0x65,0x06,0x3a,0x06,0x45,0x54,0x3a,0x0b,0x40,0x70,0x69,0x74,0x63,0x68,0x69,0x69,0x3a,0x0c,0x40,0x76,0x6f,0x6c,0x75,0x6d,0x65,0x69,0x55))
  TeleportPlayer(0,226,61,101,2,0)
  0()



EVENT   2
 PAGE   1
  250(bytes(0x04,0x08,0x6f,0x3a,0x0c,0x52,0x50,0x47,0x3a,0x3a,0x53,0x45,0x08,0x3a,0x0a,0x40,0x6e,0x61,0x6d,0x65,0x49,0x22,0x09,0x4d,0x6f,0x76,0x65,0x06,0x3a,0x06,0x45,0x54,0x3a,0x0b,0x40,0x70,0x69,0x74,0x63,0x68,0x69,0x69,0x3a,0x0c,0x40,0x76,0x6f,0x6c,0x75,0x6d,0x65,0x69,0x55))
  TeleportPlayer(0,226,65,80,2,0)
  0()



EVENT   3
 PAGE   1
  281(1)
  250(bytes(0x04,0x08,0x6f,0x3a,0x0c,0x52,0x50,0x47,0x3a,0x3a,0x53,0x45,0x08,0x3a,0x0a,0x40,0x6e,0x61,0x6d,0x65,0x49,0x22,0x09,0x4d,0x6f,0x76,0x65,0x06,0x3a,0x06,0x45,0x54,0x3a,0x0b,0x40,0x70,0x69,0x74,0x63,0x68,0x69,0x69,0x3a,0x0c,0x40,0x76,0x6f,0x6c,0x75,0x6d,0x65,0x69,0x55))
  TeleportPlayer(0,224,41,53,0,0)
  0()



EVENT   4
 PAGE   1
  281(1)
  250(bytes(0x04,0x08,0x6f,0x3a,0x0c,0x52,0x50,0x47,0x3a,0x3a,0x53,0x45,0x08,0x3a,0x0a,0x40,0x6e,0x61,0x6d,0x65,0x49,0x22,0x09,0x4d,0x6f,0x76,0x65,0x06,0x3a,0x06,0x45,0x54,0x3a,0x0b,0x40,0x70,0x69,0x74,0x63,0x68,0x69,0x69,0x3a,0x0c,0x40,0x76,0x6f,0x6c,0x75,0x6d,0x65,0x69,0x55))
  TeleportPlayer(0,224,24,39,0,0)
  0()



EVENT   5
 PAGE   1
  281(1)
  250(bytes(0x04,0x08,0x6f,0x3a,0x0c,0x52,0x50,0x47,0x3a,0x3a,0x53,0x45,0x08,0x3a,0x0a,0x40,0x6e,0x61,0x6d,0x65,0x49,0x22,0x09,0x4d,0x6f,0x76,0x65,0x06,0x3a,0x06,0x45,0x54,0x3a,0x0b,0x40,0x70,0x69,0x74,0x63,0x68,0x69,0x69,0x3a,0x0c,0x40,0x76,0x6f,0x6c,0x75,0x6d,0x65,0x69,0x55))
  TeleportPlayer(0,224,30,39,0,0)
  0()



EVENT   7
 PAGE   1
  281(1)
  250(bytes(0x04,0x08,0x6f,0x3a,0x0c,0x52,0x50,0x47,0x3a,0x3a,0x53,0x45,0x08,0x3a,0x0a,0x40,0x6e,0x61,0x6d,0x65,0x49,0x22,0x09,0x4d,0x6f,0x76,0x65,0x06,0x3a,0x06,0x45,0x54,0x3a,0x0b,0x40,0x70,0x69,0x74,0x63,0x68,0x69,0x69,0x3a,0x0c,0x40,0x76,0x6f,0x6c,0x75,0x6d,0x65,0x69,0x55))
  TeleportPlayer(0,224,79,28,0,0)
  0()



EVENT   8
 PAGE   1
  281(1)
  250(bytes(0x04,0x08,0x6f,0x3a,0x0c,0x52,0x50,0x47,0x3a,0x3a,0x53,0x45,0x08,0x3a,0x0a,0x40,0x6e,0x61,0x6d,0x65,0x49,0x22,0x09,0x4d,0x6f,0x76,0x65,0x06,0x3a,0x06,0x45,0x54,0x3a,0x0b,0x40,0x70,0x69,0x74,0x63,0x68,0x69,0x69,0x3a,0x0c,0x40,0x76,0x6f,0x6c,0x75,0x6d,0x65,0x69,0x55))
  TeleportPlayer(0,224,46,34,0,0)
  0()



EVENT   9
 PAGE   1
  281(1)
  250(bytes(0x04,0x08,0x6f,0x3a,0x0c,0x52,0x50,0x47,0x3a,0x3a,0x53,0x45,0x08,0x3a,0x0a,0x40,0x6e,0x61,0x6d,0x65,0x49,0x22,0x09,0x4d,0x6f,0x76,0x65,0x06,0x3a,0x06,0x45,0x54,0x3a,0x0b,0x40,0x70,0x69,0x74,0x63,0x68,0x69,0x69,0x3a,0x0c,0x40,0x76,0x6f,0x6c,0x75,0x6d,0x65,0x69,0x55))
  TeleportPlayer(0,224,22,62,0,0)
  0()



EVENT   10
 PAGE   1
  281(1)
  250(bytes(0x04,0x08,0x6f,0x3a,0x0c,0x52,0x50,0x47,0x3a,0x3a,0x53,0x45,0x08,0x3a,0x0a,0x40,0x6e,0x61,0x6d,0x65,0x49,0x22,0x09,0x4d,0x6f,0x76,0x65,0x06,0x3a,0x06,0x45,0x54,0x3a,0x0b,0x40,0x70,0x69,0x74,0x63,0x68,0x69,0x69,0x3a,0x0c,0x40,0x76,0x6f,0x6c,0x75,0x6d,0x65,0x69,0x55))
  TeleportPlayer(0,224,56,64,0,0)
  216(0)
  0()



EVENT   11
 PAGE   1
  281(1)
  250(bytes(0x04,0x08,0x6f,0x3a,0x0c,0x52,0x50,0x47,0x3a,0x3a,0x53,0x45,0x08,0x3a,0x0a,0x40,0x6e,0x61,0x6d,0x65,0x49,0x22,0x09,0x4d,0x6f,0x76,0x65,0x06,0x3a,0x06,0x45,0x54,0x3a,0x0b,0x40,0x70,0x69,0x74,0x63,0x68,0x69,0x69,0x3a,0x0c,0x40,0x76,0x6f,0x6c,0x75,0x6d,0x65,0x69,0x55))
  TeleportPlayer(0,224,67,27,0,0)
  0()



EVENT   6
 PAGE   1
  ShowMessageFace("",0,0,2,1)
  ShowMessage("\\n<Curio Dealer>This is the witch's item shop, be sure to give a look. We also sell things you won't find anywhere else...")
  Shop(0,2,0,0,false)
  605(0,13,0,0)
  605(0,17,0,0)
  605(0,75,0,0)
  605(0,79,0,0)
  605(0,440,0,0)
  605(2,1111,0,0)
  605(2,1115,0,0)
  605(2,1151,0,0)
  If(1,1005,0,14,0)
   If(4,66,0)
    If(0,2065,0)
     If(2,"A",1)
      ChangeSelfSwitch("A",0)
      ShowMessageFace("vgirl_fc1",0,0,2,2)
      ShowMessage("\\n<Vanilla>Nice to meet you, I am Vanilla the merchant. I would like to sell Holy Stones and Dark Stones...")
      ShowMessageFace("",0,0,2,3)
      ShowMessage("\\n<Curio Dealer>Witches do not share for nothing, you know... Give me アグリストーン and I will think about it.")
      ShowMessageFace("",0,0,2,4)
      ShowMessage("\\n<Curio Dealer>We were supposed to receive it, but the transportation was attacked by thiefs. It seems it is the deed of the ウロコ thiefs infesting サルーン周辺...")
      EndEventProcessing()
      0()
     Else()
      If(8,526)
       ChangeInventory_Item(526,1,0,1)
       ShowMessageFace("",0,0,2,5)
       ShowMessage("\\n<Curio Dealer>This is exactly that... So as promised, I will supply your your shop too.")
       ShowMessageFace("vgirl_fc1",0,0,2,6)
       ShowMessage("\\n<Vanilla>Thank you very much! I look forward to dealing with you more in the future!")
       249(bytes(0x04,0x08,0x6f,0x3a,0x0c,0x52,0x50,0x47,0x3a,0x3a,0x4d,0x45,0x08,0x3a,0x0a,0x40,0x6e,0x61,0x6d,0x65,0x49,0x22,0x0c,0x66,0x61,0x6e,0x66,0x61,0x6c,0x65,0x06,0x3a,0x06,0x45,0x54,0x3a,0x0b,0x40,0x70,0x69,0x74,0x63,0x68,0x69,0x69,0x3a,0x0c,0x40,0x76,0x6f,0x6c,0x75,0x6d,0x65,0x69,0x69))
       ShowMessageFace("",0,0,2,7)
       ShowMessage("Vanilla can now sell Holy Stones and Dark Stones at her shop!")
       ChangeVariable(1005,1005,0,0,15)
       ChangeSwitch(2065,2065,1)
       355("gain_medal(1503)")
       Wait(60)
       EndEventProcessing()
       0()
      Else()
       ShowMessageFace("",0,0,2,8)
       ShowMessage("\\n<Curio Dealer>Witches do not share for nothing, you know... Give me アグリストーン and I will think about it.")
       ShowMessageFace("",0,0,2,9)
       ShowMessage("\\n<Curio Dealer>We were supposed to receive it, but the transportation was attacked by thiefs. It seems it is the deed of the ウロコ thiefs infesting サルーン周辺...")
       EndEventProcessing()
       0()
      EndIf()
      0()
     EndIf()
     0()
    EndIf()
    0()
   EndIf()
   0()
  EndIf()
  0()



EVENT   15
 PAGE   1
  ShowMessageFace("",0,0,2,1)
  ShowMessage("\\n<Witch>「鎌技」は、攻撃力のみならず魔力も影響するわ。 魔女に相応しい武器よねぇ、ふふふっ……")
  355("actor_label_jump")
  EndEventProcessing()
  DefineLabel("88")
  ShowMessageFace("jack_fc1",1,0,2,2)
  ShowMessage("\\n<Pumpkin>あたしも似合う気がする…… 似合うだけで、使いこなせないけど。")
  EndEventProcessing()
  DefineLabel("95")
  ShowMessageFace("delh_a_fc1",0,0,2,3)
  ShowMessage("\\n<Lona>でも、鎌ってなんだか中途半端な気がするのよね……")
  EndEventProcessing()
  0()



EVENT   13
 PAGE   1
  ShowMessageFace("",0,0,2,1)
  ShowMessage("\\n<Village Woman>私は、この村で虐待を受けておりました…… あの頃は、人間としての尊厳も感情も奪われていたものです。")
  ShowMessageFace("",0,0,2,2)
  ShowMessage("\\n<Village Woman>人ではない体となった今の方が、よほど人間らしい暮らしをしています。 皮肉なものですね……")
  355("actor_label_jump")
  EndEventProcessing()
  DefineLabel("127")
  ShowMessageFace("littlebug_fc1",2,0,2,3)
  ShowMessage("\\n<Lippy>難しい話は、アタシには分からないぜ……")
  EndEventProcessing()
  DefineLabel("163")
  ShowMessageFace("lily_fc1",3,0,2,4)
  ShowMessage("\\n<Lily>あんな過去は、何度だって打ち崩してやるわ…… 何度だって……何度だって……何度だって……")
  EndEventProcessing()
  DefineLabel("167")
  ShowMessageFace("lusia_fc1",2,0,2,5)
  ShowMessage("\\n<Lucia>今後は、蝕魔導の力に頼る必要はありません。 せめて心は人間らしく暮らせる事を祈ります……")
  EndEventProcessing()
  0()



EVENT   16
 PAGE   1
  ShowMessageFace("",0,0,2,1)
  ShowMessage("\\n<Village Woman>私の父は、長く私を虐待してきました。 母はそれを、見て見ぬ振りをするだけ……")
  ShowMessageFace("",0,0,2,2)
  ShowMessage("\\n<Village Woman>それなら、私が耐えればいいだけの話でしたが…… 父の虐待は、とうとう妹にも向いたのです。")
  ShowMessageFace("",0,0,2,3)
  ShowMessage("\\n<Village Woman>私はリリィ様に力を授かり、そして父を……")
  ShowMessageFace("",0,0,2,4)
  ShowMessage("\\n<Village Woman>この力がなければ、妹は死んでいたでしょう。 力こそが、私達姉妹を救ってくれたのです……")
  355("actor_label_jump")
  EndEventProcessing()
  DefineLabel("163")
  ShowMessageFace("lily_fc1",3,0,2,5)
  ShowMessage("\\n<Lily>もう大丈夫よ…… あなた達姉妹は、もう誰にも苦しめられる事はないわ。")
  EndEventProcessing()
  DefineLabel("167")
  ShowMessageFace("lusia_fc1",2,0,2,6)
  ShowMessage("\\n<Lucia>力がなければ、救いはなかったでしょう…… しかし次は、その力を持った者こそが……")
  EndEventProcessing()
  0()



EVENT   17
 PAGE   1
  ShowMessageFace("",0,0,2,1)
  ShowMessage("\\n<Girl>……………………")
  355("actor_label_jump")
  EndEventProcessing()
  DefineLabel("163")
  ShowMessageFace("lily_fc1",3,0,2,2)
  ShowMessage("\\n<Lily>可哀想に、今でも怯えきって…… あの男も、この娘の手で始末させるべきだったわね。")
  EndEventProcessing()
  DefineLabel("131")
  ShowMessageFace("doll_fc1",2,0,2,3)
  ShowMessage("\\n<Miyabi>げんきになったら、いっしょにあそぼうね……")
  EndEventProcessing()
  0()



EVENT   18
 PAGE   1
  ShowMessageFace("",0,0,2,1)
  ShowMessage("\\n<Man>私は弾圧時代、この村の女性達を保護する運動をしていてね…… だから今も、ここにいるんだよ。")
  ShowMessageFace("",0,0,2,2)
  ShowMessage("\\n<Man>どうか、彼女達を責めないでくれ。 どれだけの苦難を、ここの女性達が耐え抜いてきたか……")
  ShowMessageFace("",0,0,2,3)
  ShowMessage("\\n<Man>こうなる前に、なぜ我々は変われなかったのか…… それが心残りでならないよ。")
  355("actor_label_jump")
  EndEventProcessing()
  DefineLabel("105")
  ShowMessageFace("mimic_fc1",2,0,2,4)
  ShowMessage("\\n<Minelli>こういう話を聞いてると、ずっと閉じこもっていたくなる……")
  EndEventProcessing()
  DefineLabel("119")
  ShowMessageFace("page17_fc1",0,0,2,5)
  ShowMessage("\\n<Annie>人は弱いものだ…… 弱さが罪なら、人はみな生まれつき罪人なのだ……")
  EndEventProcessing()
  0()



EVENT   19
 PAGE   1
  ShowMessageFace("",0,0,2,1)
  ShowMessage("\\n<Inn>10Gになるけど…… 泊まっていくかい？\\$")
  ShowChoices(strings("Yes","No"),2)
  IfPlayerPicksChoice(0,null)
   If(7,10,0)
    125(1,0,10)
    221()
    249(bytes(0x04,0x08,0x6f,0x3a,0x0c,0x52,0x50,0x47,0x3a,0x3a,0x4d,0x45,0x08,0x3a,0x0a,0x40,0x6e,0x61,0x6d,0x65,0x49,0x22,0x08,0x49,0x6e,0x6e,0x06,0x3a,0x06,0x45,0x54,0x3a,0x0b,0x40,0x70,0x69,0x74,0x63,0x68,0x69,0x69,0x3a,0x0c,0x40,0x76,0x6f,0x6c,0x75,0x6d,0x65,0x69,0x69))
    Wait(150)
    314(0,0)
    222()
    0()
   Else()
    ShowMessageFace("",0,0,2,2)
    ShowMessage("\\n<Inn>お金が足りないよ……")
    0()
   EndIf()
   0()
  IfPlayerPicksChoice(1,null)
   0()
  404()
  0()



EVENT   20
 PAGE   1
  ShowMessageFace("",0,0,2,1)
  ShowMessage("\\n<Thief>とんでもない村に立ち寄ってしまったものだ……")
  ShowMessageFace("",0,0,2,2)
  ShowMessage("\\n<Thief>……俺も、嫁さんには優しくしようっと。")
  355("actor_label_jump")
  EndEventProcessing()
  DefineLabel("108")
  ShowMessageFace("kai_fc1",0,0,2,3)
  ShowMessage("\\n<Shelly>まあ、殊勝な心掛けですね……")
  EndEventProcessing()
  DefineLabel("160")
  ShowMessageFace("wormv_fc1",0,0,2,4)
  ShowMessage("\\n<Julia>反面教師として下さい。 この村の男のようにならないように……ふふっ。")
  EndEventProcessing()
  0()



EVENT   21
 PAGE   1
  ShowMessageFace("",0,0,2,1)
  ShowMessage("\\n<Traveling Black Mage>ここの領主は、旅人にも惜しみなく秘術を与えてくれるのだとか。 それを求め、私もここまでやって来たのよ。")
  If(0,2097,0)
   ShowMessageFace("",0,0,2,2)
   ShowMessage("\\n<Traveling Black Mage>でも、今は会えないようね……")
   355("actor_label_jump")
   EndEventProcessing()
   DefineLabel("163")
   ShowMessageFace("lily_fc1",3,0,2,3)
   ShowMessage("\\n<Lily>今は旅で多忙の身なの。 また今度、力を与えてあげるわ……")
   EndEventProcessing()
   0()
  EndIf()
  If(0,2096,0)
   ShowMessageFace("",0,0,2,4)
   ShowMessage("\\n<Traveling Black Mage>でも、すでに倒されてしまったようね……")
   EndEventProcessing()
   0()
  EndIf()
  0()



EVENT   22
 PAGE   1
  ShowMessageFace("",0,0,2,1)
  ShowMessage("\\n<Mage>虐げられた者に、それを打破する力を…… そんなリリィ様の思想に反対し、武力で抵抗する者達がいるわ。")
  ShowMessageFace("",0,0,2,2)
  ShowMessage("\\n<Mage>秘術の力は、決して広めるものではない……そういう考えね。 反対派は徒党を組み、南にある塔を根城にしているのよ。")
  355("actor_label_jump")
  EndEventProcessing()
  DefineLabel("109")
  ShowMessageFace("kani_fc1",2,0,2,3)
  ShowMessage("\\n<Soapy>そんな力、広げちゃってもいいの……？ 私は、反対派とやらに賛成ね。")
  EndEventProcessing()
  0()
 PAGE   2
  // condition: variable 1029 >= 5
  If(0,2097,0)
   ShowMessageFace("",0,0,2,1)
   ShowMessage("\\n<Mage>虐げられた者に、それを打破する力を…… そんなリリィ様の思想に反対し、武力で抵抗する者達がいたわ。")
   ShowMessageFace("",0,0,2,2)
   ShowMessage("\\n<Mage>でも、リリィ様の前に倒された。 残党が南の塔に残っているだけね。")
   EndEventProcessing()
   0()
  EndIf()
  If(0,2096,0)
   ShowMessageFace("",0,0,2,3)
   ShowMessage("\\n<Mage>虐げられた者に、それを打破する力を…… そんなリリィ様の思想に反対し、武力で抵抗する者達がいるわ。")
   ShowMessageFace("",0,0,2,4)
   ShowMessage("\\n<Mage>あの連中は恩あるはずのリリィ様を倒し…… そして、その理想も踏みにじったのよ。")
   355("actor_label_jump")
   EndEventProcessing()
   DefineLabel("167")
   ShowMessageFace("lusia_fc1",2,0,2,5)
   ShowMessage("\\n<Lucia>弁明はしません…… でも、蝕魔導の力が全ての人間に律しきれると思いますか？")
   EndEventProcessing()
   0()
  EndIf()
  0()



EVENT   23
 PAGE   1
  ShowMessageFace("",0,0,2,1)
  ShowMessage("\\n<Village Woman>秘めるべき力を、広く世に解き放つ…… それを不安に思う心情も、分からなくもありません。")
  ShowMessageFace("",0,0,2,2)
  ShowMessage("\\n<Village Woman>しかし、どれだけの者が暴虐の餌食になっているかを考えると…… そして、この力でどれだけの者が救えるかを考えると……")
  EndEventProcessing()
  0()
 PAGE   2
  // condition: variable 1029 >= 5
  If(0,2096,0)
   ShowMessageFace("",0,0,2,1)
   ShowMessage("\\n<Village Woman>やはり、この力は広めるべきではないと…… そう言われるのですか？")
   355("actor_label_jump")
   EndEventProcessing()
   DefineLabel("167")
   ShowMessageFace("lusia_fc1",2,0,2,2)
   ShowMessage("\\n<Lucia>蝕魔導の力で、暴虐を打ち破ったとしても…… その者が、新たな暴虐となるだけです。")
   EndEventProcessing()
   0()
  EndIf()
  If(0,2097,0)
   ShowMessageFace("",0,0,2,3)
   ShowMessage("\\n<Village Woman>秘めるべき力を、広く世に解き放つ…… それを不安に思う心情も、分からなくもありません。")
   ShowMessageFace("",0,0,2,4)
   ShowMessage("\\n<Village Woman>しかし、どれだけの者が暴虐の餌食になっているかを考えると…… そして、この力でどれだけの者が救えるかを考えると……")
   EndEventProcessing()
   0()
  EndIf()
  0()



EVENT   24
 PAGE   1
  ShowMessageFace("",0,0,2,1)
  ShowMessage("\\n<Mage>反対派の主張なんて、馬鹿げているわ。 救える者を救わないで、何のための力なの。")
  ShowMessageFace("",0,0,2,2)
  ShowMessage("\\n<Mage>人命より因習が大事というなら、 私達を虐待していた者達と何も変わらないわ。")
  0()
 PAGE   2
  // condition: variable 1029 >= 5
  If(0,2097,0)
   ShowMessageFace("",0,0,2,1)
   ShowMessage("\\n<Mage>馬鹿げた反対派も、なりを潜めたみたいね。 彼女達も、リリィ様に恩があったはずなのに……")
   EndEventProcessing()
   0()
  EndIf()
  If(0,2096,0)
   ShowMessageFace("",0,0,2,2)
   ShowMessage("\\n<Mage>反対派の主張なんて、馬鹿げているわ。 救える者を救わないで、何のための力なの。")
   ShowMessageFace("",0,0,2,3)
   ShowMessage("\\n<Mage>それを分からない裏切り者達が、リリィ様を……")
   EndEventProcessing()
   0()
  EndIf()
  0()



EVENT   26
 PAGE   1
  If(0,2092,1)
   ShowMessageFace("",0,0,2,1)
   ShowMessage("\\n<Mage>流石のリリィも、目と鼻の先に戦線基地があるとは気付いていないわ。 もちろん、隠遁の術や魔導遮断は幾重にもなされているのよ。")
   ShowMessageFace("",0,0,2,2)
   ShowMessage("\\n<Mage>この地下に、ルシア様が来ているわ。 どうか、頼みを聞いてくれない……？")
   EndEventProcessing()
   0()
  EndIf()
  If(0,2092,0)
   ShowMessageFace("",0,0,2,3)
   ShowMessage("\\n<Mage>今からでも考え直してもらえない……？ リリィの思想は、世に混乱をもたらすわ。")
   EndEventProcessing()
   0()
  EndIf()
  0()
 PAGE   2
  // condition: variable 1029 >= 5
  If(0,2097,0)
   ShowMessageFace("",0,0,2,1)
   ShowMessage("\\n<Mage>こうなった以上、レジスタンスは解散よ…… 結局、理解してはもらえなかったのね。")
   EndEventProcessing()
   0()
  EndIf()
  If(0,2096,0)
   ShowMessageFace("",0,0,2,2)
   ShowMessage("\\n<Mage>このアジトも、引き払わなければいけないわね。 しばらくは後処理が残っているけど……")
   355("actor_label_jump")
   EndEventProcessing()
   DefineLabel("167")
   ShowMessageFace("lusia_fc1",0,0,2,3)
   ShowMessage("\\n<Lucia>本当にご苦労様でした。 後の始末は、お願いしますね。")
   EndEventProcessing()
   0()
  EndIf()
  0()



EVENT   27
 PAGE   1
  ShowMessageFace("",0,0,2,1)
  ShowMessage("\\n<Mage>傭兵達にも給料を払わないといけないし…… レジスタンスも高くつくわね。")
  ShowMessageFace("",0,0,2,2)
  ShowMessage("\\n<Mage>でも、リリィを止めるためなら仕方ないわ。 彼女の考え方は、危険すぎるのよ。")
  355("actor_label_jump")
  EndEventProcessing()
  DefineLabel("134")
  ShowMessageFace("chrom_fc2",5,0,2,3)
  ShowMessage("\\n<Chrome>何をするにも金がかかるのう……")
  EndEventProcessing()
  0()
 PAGE   2
  // condition: variable 1029 >= 5
  If(0,2097,0)
   ShowMessageFace("",0,0,2,1)
   ShowMessage("\\n<Mage>もう、傭兵の給料に頭を悩ませる必要もないわね…… レジスタンス活動はこれで幕よ。")
   ShowMessageFace("",0,0,2,2)
   ShowMessage("\\n<Mage>……勝って幕を引きたかったけれどね。")
   EndEventProcessing()
   0()
  EndIf()
  If(0,2096,0)
   ShowMessageFace("",0,0,2,3)
   ShowMessage("\\n<Mage>もう、傭兵の給料に頭を悩ませる必要もないわね…… レジスタンス活動はこれで幕よ。")
   ShowMessageFace("",0,0,2,4)
   ShowMessage("\\n<Mage>あなたのおかげね、感謝しているわ。")
   EndEventProcessing()
   0()
  EndIf()
  0()



EVENT   14
 PAGE   1
  ShowMessageFace("",0,0,2,1)
  ShowMessage("\\n<Mage>触手生物化した人間や、魔導の力で動く疑似生物だけど…… この連中は、魔導モンスターと呼ばれているの。")
  ShowMessageFace("",0,0,2,2)
  ShowMessage("\\n<Mage>こいつらは炎・氷・雷の三属性に高い耐性を持っているわ。 その分、風・土・水の自然属性には弱いので狙い目よ。")
  355("actor_label_jump")
  EndEventProcessing()
  DefineLabel("142")
  ShowMessageFace("bander_fc1",0,0,2,3)
  ShowMessage("\\n<Banachi>私も同じ性質を備えている。 覚えておいてもらえると、嬉しい……")
  EndEventProcessing()
  DefineLabel("182")
  ShowMessageFace("c_homunculus_fc1",0,0,2,4)
  ShowMessage("\\n<Crowley>自然属性に弱いのは、造られた存在だからなのか……")
  EndEventProcessing()
  0()



EVENT   28
 PAGE   1
  ShowMessageFace("",0,0,2,1)
  ShowMessage("\\n<Village Woman>私は、リリィ様に力を与えてもらいました。 そして、自らの力で虐げられる日々を打破したのです。")
  ShowMessageFace("",0,0,2,2)
  ShowMessage("\\n<Village Woman>リリィ様には、今も感謝の念を抱いています。 しかし、この力を大々的に広げるなど……")
  ShowMessageFace("",0,0,2,3)
  ShowMessage("\\n<Village Woman>蝕魔導の力を手にしたからこそ、分かるのです。 この力は秘術のままとし、公開は禁じるべきです……")
  0()
 PAGE   2
  // condition: variable 1029 >= 5
  If(0,2097,0)
   ShowMessageFace("",0,0,2,1)
   ShowMessage("\\n<Village Woman>ルシア様の身柄は、我々が保護しています。 お命に別状はありませんが、魔導の力はもう……")
   355("actor_label_jump")
   EndEventProcessing()
   DefineLabel("163")
   ShowMessageFace("lily_fc1",3,0,2,2)
   ShowMessage("\\n<Lily>あの娘は、それで良かったのよ。 蝕魔導の力は、彼女にとって重荷だったわ……")
   EndEventProcessing()
   0()
  EndIf()
  If(0,2096,0)
   ShowMessageFace("",0,0,2,3)
   ShowMessage("\\n<Village Woman>リリィ様はお強い方です。 蝕魔導を失っても、大丈夫なはず……")
   EndEventProcessing()
   0()
  EndIf()
  0()



EVENT   29
 PAGE   1
  ShowMessageFace("",0,0,2,1)
  ShowMessage("\\n<Mage>蝕魔導とは、己の肉体を媒介に魔導触手を召喚する秘術。 事実上、体の一部を触手化させるようなものね。")
  ShowMessageFace("",0,0,2,2)
  ShowMessage("\\n<Mage>この蝕魔導は、実はそこまで強大な力ではないの。 世の中には、もっと凄まじい力を秘めた禁術もあるわ。")
  ShowMessageFace("",0,0,2,3)
  ShowMessage("\\n<Mage>蝕魔導が危険なのは、修得が極めて容易なところなの。 魔導の心得など全くない、ただの少女でさえ扱えるほどに。")
  ShowMessageFace("",0,0,2,4)
  ShowMessage("\\n<Mage>そして魔導触手を身に宿す分、副作用もあるわ。 意識の混濁や倫理観の喪失……精神に与える悪影響が大きいのよ。")
  ShowMessageFace("",0,0,2,5)
  ShowMessage("\\n<Mage>そして、安易に力を得た事による愉悦…… 立場の逆転が生み出す嗜虐……これが最も危険なのかもしれないわ。")
  ShowMessageFace("",0,0,2,6)
  ShowMessage("\\n<Mage>虐げられた者達に、蝕魔導の力を与える…… これほど危険な事はないと、我々は考えているの。")
  0()
 PAGE   2
  // condition: variable 1029 >= 5
  If(0,2097,0)
   ShowMessageFace("",0,0,2,1)
   ShowMessage("\\n<Mage>レジスタンスも終わり…… なんだか虚しいわね。")
   355("actor_label_jump")
   EndEventProcessing()
   DefineLabel("163")
   ShowMessageFace("lily_fc1",3,0,2,2)
   ShowMessage("\\n<Lily>あなた達こそ、ルシアから解放されたのよ。 私の邪魔さえしなければ、いっさい罪は問わないわ……")
   EndEventProcessing()
   0()
  EndIf()
  If(0,2096,0)
   ShowMessageFace("",0,0,2,3)
   ShowMessage("\\n<Mage>私達の勝利ね。 あなた達には、感謝の言葉もないわ。")
   EndEventProcessing()
   0()
  EndIf()
  0()



EVENT   31
 PAGE   1
  ShowMessageFace("",0,0,2,1)
  ShowMessage("\\n<Village Woman>私達の拠点は、南にある魔導の塔。 ここは偵察用のアジトとなっています。")
  ShowMessageFace("",0,0,2,2)
  ShowMessage("\\n<Village Woman>魔物の傭兵も、適当にかき集めているわけではありません。 ちゃんと我々の目的や活動の趣旨に賛同頂いた者のみです。")
  355("actor_label_jump")
  EndEventProcessing()
  DefineLabel("80")
  ShowMessageFace("orc_fc1",0,0,2,3)
  ShowMessage("\\n<Hip>なるほど、しっかり選んでいるのですね。 道理でオークにはお声が掛からなかった訳です。")
  EndEventProcessing()
  0()
 PAGE   2
  // condition: variable 1029 >= 5
  If(0,2097,0)
   ShowMessageFace("",0,0,2,1)
   ShowMessage("\\n<Village Woman>私達は、ここから動きません。 ルシア様の考えを受け継いでいきます……")
   355("actor_label_jump")
   EndEventProcessing()
   DefineLabel("163")
   ShowMessageFace("lily_fc1",3,0,2,2)
   ShowMessage("\\n<Lily>好きにすればいいわ…… ルシアが力を失った今、あなた達に何もできないでしょう。")
   EndEventProcessing()
   0()
  EndIf()
  If(0,2096,0)
   ShowMessageFace("",0,0,2,3)
   ShowMessage("\\n<Village Woman>決してリリィ様に恨みはありません…… ただ、あの方の考えは危険すぎたのです。")
   EndEventProcessing()
   0()
  EndIf()
  0()



EVENT   30
 PAGE   1
  ShowMessageFace("kooni_fc1",0,0,2,1)
  ShowMessage("\\n<Oni>あたし、用心棒の鬼っ子だよ！ お金で雇われてるの♪")
  ShowMessageFace("kooni_fc1",3,0,2,2)
  ShowMessage("\\n<Oni>でも……リリィって人のやる事には反対だな。 そういう秘術って、隠しておくのが掟だもんね。")
  355("actor_label_jump")
  EndEventProcessing()
  DefineLabel("103")
  ShowMessageFace("kamuro_fc1",0,0,2,3)
  ShowMessage("\\n<Kamuro>そうですよね…… 秘するからこそ秘術だと思います。")
  EndEventProcessing()
  0()
 PAGE   2
  // condition: variable 1029 >= 5
  If(0,2097,0)
   ShowMessageFace("kooni_fc1",2,0,2,1)
   ShowMessage("\\n<Oni>失業しちゃった…… また、新しい雇い主を探さないとね。")
   355("actor_label_jump")
   EndEventProcessing()
   0()
  EndIf()
  If(0,2096,0)
   ShowMessageFace("kooni_fc1",1,0,2,2)
   ShowMessage("\\n<Oni>私達の勝ち～♪")
   ShowMessageFace("kooni_fc1",2,0,2,3)
   ShowMessage("\\n<Oni>……じゃあ、私は失業？")
   355("actor_label_jump")
   EndEventProcessing()
   0()
  EndIf()
  DefineLabel("62")
  ShowMessageFace("gob_fc1",0,0,2,4)
  ShowMessage("\\n<Gob>あたしと一緒に、運送ギルドのお仕事する？")
  EndEventProcessing()
  DefineLabel("143")
  ShowMessageFace("eva_fc1",0,0,2,5)
  ShowMessage("\\n<Eva>野原でテント暮らしね……")
  EndEventProcessing()
  0()



EVENT   32
 PAGE   1
  250(bytes(0x04,0x08,0x6f,0x3a,0x0c,0x52,0x50,0x47,0x3a,0x3a,0x53,0x45,0x08,0x3a,0x0a,0x40,0x6e,0x61,0x6d,0x65,0x49,0x22,0x0a,0x49,0x74,0x65,0x6d,0x31,0x06,0x3a,0x06,0x45,0x54,0x3a,0x0b,0x40,0x70,0x69,0x74,0x63,0x68,0x69,0x69,0x3a,0x0c,0x40,0x76,0x6f,0x6c,0x75,0x6d,0x65,0x69,0x55))
  ChangeSelfSwitch("A",0)
  ChangeInventory_Item(28,0,0,1)
  0()
 PAGE   2
  // condition: self-switch A is ON
  0()



EVENT   33
 PAGE   1
  250(bytes(0x04,0x08,0x6f,0x3a,0x0c,0x52,0x50,0x47,0x3a,0x3a,0x53,0x45,0x08,0x3a,0x0a,0x40,0x6e,0x61,0x6d,0x65,0x49,0x22,0x0a,0x49,0x74,0x65,0x6d,0x31,0x06,0x3a,0x06,0x45,0x54,0x3a,0x0b,0x40,0x70,0x69,0x74,0x63,0x68,0x69,0x69,0x3a,0x0c,0x40,0x76,0x6f,0x6c,0x75,0x6d,0x65,0x69,0x55))
  ChangeSelfSwitch("A",0)
  ChangeInventory_Item(32,0,0,1)
  0()
 PAGE   2
  // condition: self-switch A is ON
  0()



EVENT   34
 PAGE   1
  250(bytes(0x04,0x08,0x6f,0x3a,0x0c,0x52,0x50,0x47,0x3a,0x3a,0x53,0x45,0x08,0x3a,0x0a,0x40,0x6e,0x61,0x6d,0x65,0x49,0x22,0x0a,0x49,0x74,0x65,0x6d,0x31,0x06,0x3a,0x06,0x45,0x54,0x3a,0x0b,0x40,0x70,0x69,0x74,0x63,0x68,0x69,0x69,0x3a,0x0c,0x40,0x76,0x6f,0x6c,0x75,0x6d,0x65,0x69,0x55))
  ChangeSelfSwitch("A",0)
  ChangeInventory_Item(385,0,0,1)
  0()
 PAGE   2
  // condition: self-switch A is ON
  0()



EVENT   35
 PAGE   1
  250(bytes(0x04,0x08,0x6f,0x3a,0x0c,0x52,0x50,0x47,0x3a,0x3a,0x53,0x45,0x08,0x3a,0x0a,0x40,0x6e,0x61,0x6d,0x65,0x49,0x22,0x0a,0x49,0x74,0x65,0x6d,0x31,0x06,0x3a,0x06,0x45,0x54,0x3a,0x0b,0x40,0x70,0x69,0x74,0x63,0x68,0x69,0x69,0x3a,0x0c,0x40,0x76,0x6f,0x6c,0x75,0x6d,0x65,0x69,0x55))
  ChangeSelfSwitch("A",0)
  ChangeInventory_Item(342,0,0,1)
  0()
 PAGE   2
  // condition: self-switch A is ON
  0()



EVENT   36
 PAGE   1
  250(bytes(0x04,0x08,0x6f,0x3a,0x0c,0x52,0x50,0x47,0x3a,0x3a,0x53,0x45,0x08,0x3a,0x0a,0x40,0x6e,0x61,0x6d,0x65,0x49,0x22,0x0a,0x49,0x74,0x65,0x6d,0x31,0x06,0x3a,0x06,0x45,0x54,0x3a,0x0b,0x40,0x70,0x69,0x74,0x63,0x68,0x69,0x69,0x3a,0x0c,0x40,0x76,0x6f,0x6c,0x75,0x6d,0x65,0x69,0x55))
  ChangeSelfSwitch("A",0)
  ChangeInventory_Item(195,0,0,1)
  0()
 PAGE   2
  // condition: self-switch A is ON
  0()



EVENT   37
 PAGE   1
  250(bytes(0x04,0x08,0x6f,0x3a,0x0c,0x52,0x50,0x47,0x3a,0x3a,0x53,0x45,0x08,0x3a,0x0a,0x40,0x6e,0x61,0x6d,0x65,0x49,0x22,0x0a,0x49,0x74,0x65,0x6d,0x31,0x06,0x3a,0x06,0x45,0x54,0x3a,0x0b,0x40,0x70,0x69,0x74,0x63,0x68,0x69,0x69,0x3a,0x0c,0x40,0x76,0x6f,0x6c,0x75,0x6d,0x65,0x69,0x55))
  ChangeSelfSwitch("A",0)
  ChangeInventory_Item(380,0,0,1)
  0()
 PAGE   2
  // condition: self-switch A is ON
  0()



EVENT   38
 PAGE   1
  ShowMessageFace("",0,0,2,1)
  ShowMessage("\\n<Village Woman>力とは麻薬です。 安易に手にすれば、たちまち溺れてしまうでしょう……")
  355("actor_label_jump")
  EndEventProcessing()
  DefineLabel("82")
  ShowMessageFace("suzume_fc1",0,0,2,2)
  ShowMessage("\\n<Chirp>そうですよね…… 私も突然に大きな力を持ったら、きっと……")
  EndEventProcessing()
  0()
 PAGE   2
  // condition: variable 1029 >= 5
  If(0,2097,0)
   ShowMessageFace("",0,0,2,1)
   ShowMessage("\\n<Village Woman>この村で起きたような惨劇…… どうか、他の場所で繰り返さないようにして下さい。")
   355("actor_label_jump")
   EndEventProcessing()
   DefineLabel("163")
   ShowMessageFace("lily_fc1",3,0,2,2)
   ShowMessage("\\n<Lily>大丈夫、安心しなさい…… それで排除されるのは、弱者を抑圧する強者なのだから。")
   EndEventProcessing()
   0()
  EndIf()
  If(0,2096,0)
   ShowMessageFace("",0,0,2,3)
   ShowMessage("\\n<Village Woman>リリィを打ち破って下さったのですね。 ありがとうございます……")
   EndEventProcessing()
   0()
  EndIf()
  0()



EVENT   25
 PAGE   1
  PictureDisplay(5,"80_lusia_st12",0,0,0,0,100,100,0,0)
  PictureMove(5,null,0,0,0,0,100,100,255,0,30,true)
  ChangeVariable(1029,1029,0,0,4)
  ShowMessageFace("lusia_fc1",5,0,2,1)
  ShowMessage("\\n<Lucia>初めまして…… 私が、レジスタンスのリーダーであるルシアです。")
  If(0,6,0)
   ShowMessageFace("sonia_fc3",7,0,2,2)
   ShowMessage("\\n<Sonya>両腕から魔導の力を感じるんですけど…… もしかして、ルシアさんも……")
   0()
  Else()
   ShowMessageFace("ruka_fc1",0,0,2,3)
   ShowMessage("\\n<Luka>両腕から魔導の力を感じるんですけど…… もしかして、ルシアさんも……")
   0()
  EndIf()
  ShowMessageFace("lusia_fc1",5,0,2,4)
  ShowMessage("\\n<Lucia>ええ……私は、リリィの研究助手を務めたのですよ。 錬金術分野の技能ならば、リリィよりも長じておりました。")
  ShowMessageFace("lusia_fc1",5,0,2,5)
  ShowMessage("\\n<Lucia>しかし今は、このように袂を分かち…… レジスタンスのリーダーとしてリリィ打倒を掲げています。")
  If(4,529,0)
   ShowMessageFace("sara_fc1",4,0,2,6)
   ShowMessage("\\n<Sara>するとあなたは、かつての仲間と敵対していると……")
   0()
  EndIf()
  ShowMessageFace("ruka_fc1",0,0,2,7)
  ShowMessage("\\n<Luka>なぜ、同志だったリリィの打倒を？ 蝕魔導を広げるのに反対って話だけど……")
  PictureDisplay(5,"80_lusia_st13",0,0,0,0,100,100,255,0)
  ShowMessageFace("lusia_fc1",6,0,2,8)
  ShowMessage("\\n<Lucia>リリィが広げようとしている蝕魔導の技術は、世を乱します。 これは、秘術のままにしておくべきものです。")
  ShowMessageFace("lusia_fc1",6,0,2,9)
  ShowMessage("\\n<Lucia>確かに、虐げられた弱者が力を得るでしょう。 そして、己の抑圧者を打ち破る――暴力と憎悪をもって。")
  ShowMessageFace("lusia_fc1",6,0,2,10)
  ShowMessage("\\n<Lucia>それがこの村で起きた事であり、そして悲劇です。 多大な犠牲をもたらした事、皆さんもご存じでしょう。")
  ShowMessageFace("ruka_fc1",0,0,2,11)
  ShowMessage("\\n<Luka>……………………")
  If(4,531,0)
   ShowMessageFace("saniria_fc2",0,0,2,12)
   ShowMessage("\\n<King of San Ilia>力とは、欲を生むもの…… 特に、弱き者が不意に力を手にした場合は……")
   0()
  EndIf()
  ShowMessageFace("lusia_fc1",6,0,2,13)
  ShowMessage("\\n<Lucia>私とて、この村の被害者でした。 命を落とした男達に、同情など微塵もありません……")
  ShowMessageFace("lusia_fc1",6,0,2,14)
  ShowMessage("\\n<Lucia>ですが、蝕魔導の技術が広まったなら…… この村の顛末が、あちこちで再生産される事になるでしょう。")
  ShowMessageFace("lusia_fc1",6,0,2,15)
  ShowMessage("\\n<Lucia>この村で起きたような……いや、もっと恐ろしい形で…… 弱者が強者を憎む気持ちが、最悪の形で噴出すれば……")
  ShowMessageFace("lusia_fc1",6,0,2,16)
  ShowMessage("\\n<Lucia>……リリィは誤っているのです。 弱者と強者の立場は、容易く入れ替わってしまうという事を。")
  ShowMessageFace("lusia_fc1",6,0,2,17)
  ShowMessage("\\n<Lucia>この力を備えた者が、今度は強者になるだけです。 そうした者達が、弱者を迫害する日は必ず来るでしょう。")
  If(0,4,0)
   ShowMessageFace("alice_fc5",0,0,2,18)
   ShowMessage("\\n<Alice>……まあ、大筋で間違ってはおるまい。 抑圧者と非抑圧者の関係など、得てして流動的なものだ。")
   0()
  EndIf()
  If(0,5,0)
   ShowMessageFace("iriasu_fc4",2,0,2,19)
   ShowMessage("\\n<Ilias>人ならざる者の意見を、肯定したくはありませんが…… やはり、力は管理されねばなりませんね。")
   0()
  EndIf()
  If(0,1529,0)
   ShowMessageFace("sara_fc1",4,0,2,20)
   ShowMessage("\\n<Sara>私達の認識も、誤っていたようね。 反乱軍は、村の支配権を巡って争っていたわけじゃない……")
   ShowMessageFace("sara_fc1",4,0,2,21)
   ShowMessage("\\n<Sara>もっと根底、蝕魔導を認めるか否か…… その部分にこそ、争いの種はあったのね。")
   0()
  EndIf()
  PictureDisplay(5,"80_lusia_st12",0,0,0,0,100,100,255,0)
  ShowMessageFace("lusia_fc1",5,0,2,22)
  ShowMessage("\\n<Lucia>さて、ここで私から申し出があります。 見当は付いているでしょうが、リリィを倒してほしいのです。")
  ShowMessageFace("lusia_fc1",5,0,2,23)
  ShowMessage("\\n<Lucia>命を奪う事までは望みません、力の封印で十分です。 そうする事で、我々レジスタンスの使命も終わります。")
  ShowMessageFace("lusia_fc1",5,0,2,24)
  ShowMessage("\\n<Lucia>そうなれば、リーダーの座もお役御免…… 以後は、あなた達の同志として力を貸しましょう。")
  ShowMessageFace("lusia_fc1",5,0,2,25)
  ShowMessage("\\n<Lucia>いずれ、世界を回って見聞を広めたいと思っておりました。 私にとっても良い機会と捉えています。")
  If(4,64,0)
   ShowMessageFace("pramia_fc1",0,0,2,26)
   ShowMessage("\\n<Teeny>仲間になってくれるの……？")
   0()
  EndIf()
  ShowMessageFace("ruka_fc1",0,0,2,27)
  ShowMessage("\\n<Luka>……………………")
  ShowMessageFace("",0,0,2,28)
  ShowMessage("リリィを倒せば、ルシアが仲間になってくれるという。 さて、どうするべきか――")
  ShowChoices(strings("取引に応じ、リリィを倒す","取引に応じず、ルシアを倒す","少し考える"),0)
  IfPlayerPicksChoice(0,null)
   ShowMessageFace("lusia_fc1",5,0,2,29)
   ShowMessage("\\n<Lucia>私の考えに賛同して下さり、心より感謝します。 リリィは、屋敷の中にいるはずです。")
   ShowMessageFace("lusia_fc1",5,0,2,30)
   ShowMessage("\\n<Lucia>お礼は、リリィを倒した後で…… その時こそ、あなた達の同志となりましょう。")
   PictureClear(5)
   EndEventProcessing()
   0()
  IfPlayerPicksChoice(1,null)
   PictureDisplay(5,"80_lusia_st13",0,0,0,0,100,100,255,0)
   ShowMessageFace("lusia_fc1",6,0,2,31)
   ShowMessage("\\n<Lucia>賛同は得られませんでしたか。 交渉は決裂ですね……")
   ShowMessageFace("lusia_fc1",6,0,2,32)
   ShowMessage("\\n<Lucia>それでは、魔導の塔で待っております。 リリィに従い、私を倒しに来るのでしょう……？")
   250(bytes(0x04,0x08,0x6f,0x3a,0x0c,0x52,0x50,0x47,0x3a,0x3a,0x53,0x45,0x08,0x3a,0x0a,0x40,0x6e,0x61,0x6d,0x65,0x49,0x22,0x0b,0x4d,0x61,0x67,0x69,0x63,0x31,0x06,0x3a,0x06,0x45,0x54,0x3a,0x0b,0x40,0x70,0x69,0x74,0x63,0x68,0x69,0x69,0x3a,0x0c,0x40,0x76,0x6f,0x6c,0x75,0x6d,0x65,0x69,0x55))
   PictureClear(5)
   ChangeSwitch(2092,2092,0)
   ShowMessageFace("",0,0,2,33)
   ShowMessage("ルシアは移動魔術で姿を消した！")
   ShowMessageFace("ruka_fc1",0,0,2,34)
   ShowMessage("\\n<Luka>……魔導の塔に行こう。")
   ShowMessageFace("",0,0,2,35)
   ShowMessage("反乱軍の本拠地は、南にある魔導の塔。 僕は、ルシアと戦う決意を固めたのだった――")
   EndEventProcessing()
   0()
  IfPlayerPicksChoice(2,null)
   ShowMessageFace("lusia_fc1",5,0,2,36)
   ShowMessage("\\n<Lucia>そうですか……熟考のほどをお願いします。 きっとあなたは、リリィの危険性を分かってくれるでしょう。")
   ShowMessageFace("lusia_fc1",5,0,2,37)
   ShowMessage("\\n<Lucia>リリィ撃退の報、お待ちしております。 その時こそ、あなた達の同志となりましょう。")
   PictureClear(5)
   EndEventProcessing()
   0()
  404()
  0()
 PAGE   2
  // condition: variable 1029 >= 4
  PictureDisplay(5,"80_lusia_st12",0,0,0,0,100,100,0,0)
  PictureMove(5,null,0,0,0,0,100,100,255,0,30,true)
  ShowMessageFace("lusia_fc1",5,0,2,1)
  ShowMessage("\\n<Lucia>ここで勝利の報を待っております。 それとも、何か心変わりでもあったのですか？")
  ShowChoices(strings("心変わりはない","やはりルシアを倒す","しばらく考える"),0)
  IfPlayerPicksChoice(0,null)
   ShowMessageFace("lusia_fc1",5,0,2,2)
   ShowMessage("\\n<Lucia>お礼は、リリィを倒した後で…… その時こそ、あなた達の同志となりましょう。")
   PictureClear(5)
   EndEventProcessing()
   0()
  IfPlayerPicksChoice(1,null)
   PictureDisplay(5,"80_lusia_st13",0,0,0,0,100,100,255,0)
   ShowMessageFace("lusia_fc1",6,0,2,3)
   ShowMessage("\\n<Lucia>賛同は得られませんでしたか。 交渉は決裂ですね……")
   ShowMessageFace("lusia_fc1",6,0,2,4)
   ShowMessage("\\n<Lucia>それでは、魔導の塔で待っております。 リリィに従い、私を倒しに来るのでしょう……？")
   250(bytes(0x04,0x08,0x6f,0x3a,0x0c,0x52,0x50,0x47,0x3a,0x3a,0x53,0x45,0x08,0x3a,0x0a,0x40,0x6e,0x61,0x6d,0x65,0x49,0x22,0x0b,0x4d,0x61,0x67,0x69,0x63,0x31,0x06,0x3a,0x06,0x45,0x54,0x3a,0x0b,0x40,0x70,0x69,0x74,0x63,0x68,0x69,0x69,0x3a,0x0c,0x40,0x76,0x6f,0x6c,0x75,0x6d,0x65,0x69,0x55))
   PictureClear(5)
   ChangeSwitch(2092,2092,0)
   ShowMessageFace("",0,0,2,5)
   ShowMessage("ルシアは移動魔術で姿を消した！")
   ShowMessageFace("ruka_fc1",0,0,2,6)
   ShowMessage("\\n<Luka>……魔導の塔に行こう。")
   ShowMessageFace("",0,0,2,7)
   ShowMessage("反乱軍の本拠地は、南にある魔導の塔。 僕は、ルシアと戦う決意を固めたのだった――")
   EndEventProcessing()
   0()
  IfPlayerPicksChoice(2,null)
   ShowMessageFace("lusia_fc1",5,0,2,8)
   ShowMessage("\\n<Lucia>そうですか……熟考のほどをお願いします。 きっとあなたは、リリィの危険性を分かってくれるでしょう。")
   ShowMessageFace("lusia_fc1",5,0,2,9)
   ShowMessage("\\n<Lucia>リリィ撃退の報、お待ちしております。 その時こそ、あなた達の同志となりましょう。")
   PictureClear(5)
   EndEventProcessing()
   0()
  404()
  0()
 PAGE   3
  // condition: switch 2092 is ON
  0()
 PAGE   4
  // condition: switch 2096 is ON
  PictureDisplay(5,"80_lusia_st12",0,0,0,0,100,100,0,0)
  PictureMove(5,null,0,0,0,0,100,100,255,0,30,true)
  ShowMessageFace("lusia_fc1",5,0,2,1)
  ShowMessage("\\n<Lucia>リリィを倒したようですね…… 頼みを聞いて下さり、心から礼を言いましょう。")
  PictureDisplay(5,"80_lusia_st13",0,0,0,0,100,100,255,0)
  ShowMessageFace("lusia_fc1",6,0,2,2)
  ShowMessage("\\n<Lucia>……リリィは正直でありすぎたのです。 あらゆる弱者に自分を重ね、目を背ける事ができなかった……")
  ShowMessageFace("lusia_fc1",6,0,2,3)
  ShowMessage("\\n<Lucia>彼女は、よく言っていました。 虐げられた者達が助けを呼ぶ声が聞こえる……と。")
  ShowMessageFace("lusia_fc1",6,0,2,4)
  ShowMessage("\\n<Lucia>それは例えではなく、リリィには実際に聞こえていたのです。 彼女の精神は、もはや破綻寸前だったのですよ……")
  ShowMessageFace("lusia_fc1",6,0,2,5)
  ShowMessage("\\n<Lucia>結局、力さえも彼女を救えなかった…… 力を奪う事だけが、今のリリィを救う手段なのです。")
  ShowMessageFace("ruka_fc1",0,0,2,6)
  ShowMessage("\\n<Luka>……………………")
  If(4,64,0)
   ShowMessageFace("pramia_fc1",0,0,2,7)
   ShowMessage("\\n<Teeny>リリィのこと、今も友達と思ってるんだね……")
   0()
  EndIf()
  PictureDisplay(5,"80_lusia_st12",0,0,0,0,100,100,255,0)
  ShowMessageFace("lusia_fc1",0,0,2,8)
  ShowMessage("\\n<Lucia>それでは、今度は私が約束を守りましょう。 仲間として、あなた達の旅に同行させてもらいます。")
  ShowMessageFace("lusia_fc1",0,0,2,9)
  ShowMessage("\\n<Lucia>旅先で見るものが、私を成長させる事を願って…… それでは、よろしくお願いしますね。")
  PictureClear(5)
  205(0,bytes(0x04,0x08,0x6f,0x3a,0x13,0x52,0x50,0x47,0x3a,0x3a,0x4d,0x6f,0x76,0x65,0x52,0x6f,0x75,0x74,0x65,0x09,0x3a,0x0c,0x40,0x72,0x65,0x70,0x65,0x61,0x74,0x46,0x3a,0x0f,0x40,0x73,0x6b,0x69,0x70,0x70,0x61,0x62,0x6c,0x65,0x46,0x3a,0x0a,0x40,0x77,0x61,0x69,0x74,0x54,0x3a,0x0a,0x40,0x6c,0x69,0x73,0x74,0x5b,0x09,0x6f,0x3a,0x15,0x52,0x50,0x47,0x3a,0x3a,0x4d,0x6f,0x76,0x65,0x43,0x6f,0x6d,0x6d,0x61,0x6e,0x64,0x07,0x3a,0x0a,0x40,0x63,0x6f,0x64,0x65,0x69,0x2a,0x3a,0x10,0x40,0x70,0x61,0x72,0x61,0x6d,0x65,0x74,0x65,0x72,0x73,0x5b,0x00,0x6f,0x3b,0x0a,0x07,0x3b,0x0b,0x69,0x0f,0x3b,0x0c,0x5b,0x00,0x6f,0x3b,0x0a,0x07,0x3b,0x0b,0x69,0x2c,0x3b,0x0c,0x5b,0x00,0x6f,0x3b,0x0a,0x07,0x3b,0x0b,0x69,0x00,0x3b,0x0c,0x5b,0x00))
  355("add_actor_ex(167)")
  249(bytes(0x04,0x08,0x6f,0x3a,0x0c,0x52,0x50,0x47,0x3a,0x3a,0x4d,0x45,0x08,0x3a,0x0a,0x40,0x6e,0x61,0x6d,0x65,0x49,0x22,0x0c,0x66,0x61,0x6e,0x66,0x61,0x6c,0x65,0x06,0x3a,0x06,0x45,0x54,0x3a,0x0b,0x40,0x70,0x69,0x74,0x63,0x68,0x69,0x69,0x3a,0x0c,0x40,0x76,0x6f,0x6c,0x75,0x6d,0x65,0x69,0x69))
  ShowMessageFace("",0,0,2,10)
  ShowMessage("ルシアが仲間に加わった！")
  Wait(60)
  ChangeSwitch(2138,2138,0)
  ChangeVariable(1029,1029,0,0,6)
  355("gain_medal(28)")
  If(1,1001,0,18,1)
   EndEventProcessing()
   0()
  EndIf()
  If(0,4,0)
   ShowMessageFace("alice_fc5",0,0,2,11)
   ShowMessage("\\n<Alice>さて、この件は片付いたな。 そろそろノームと契約を結びに行きたいところだが……")
   0()
  EndIf()
  If(0,5,0)
   ShowMessageFace("iriasu_fc4",0,0,2,12)
   ShowMessage("\\n<Ilias>これで、この件は片付きましたね。 気は進みませんが、そろそろノームのところに行きませんか？")
   0()
  EndIf()
  If(1,1031,0,2,2)
   If(0,6,0)
    ShowMessageFace("sonia_fc1",0,0,2,13)
    ShowMessage("\\n<Sonya>その前に、サルーンに行ってみない？ クリスタル製の装備が造れる鍛冶屋がいるって話じゃない。")
    0()
   Else()
    ShowMessageFace("ruka_fc1",0,0,2,14)
    ShowMessage("\\n<Luka>その前に、サルーンに行いきたいな。 クリスタル製の装備が造れる鍛冶屋がいるって話を聞いたよ。")
    0()
   EndIf()
   If(0,4,0)
    ShowMessageFace("alice_fc5",0,0,2,15)
    ShowMessage("\\n<Alice>うむ……激戦に挑む以上、装備も整えておきたいな。 貴様の判断に任せよう。")
    0()
   EndIf()
   If(0,5,0)
    ShowMessageFace("iriasu_fc4",0,0,2,16)
    ShowMessage("\\n<Ilias>激戦に備え、装備を固めるのは悪くありませんね。 あなたの判断に任せましょう。")
    0()
   EndIf()
   ShowMessageFace("",0,0,2,17)
   ShowMessage("サルーンは確か、サバサ最北の町。 グランドールから北にサファル砂漠遺跡があるが、さらに北。")
   ShowMessageFace("",0,0,2,18)
   ShowMessage("山脈の切れ目に、砂漠から荒野に変わる地点がある。 そこを東側に進むと、サルーンがある……そういう話だ。")
   ShowMessageFace("",0,0,2,19)
   ShowMessage("そこに、クリスタル製の装備品が造れる鍛冶屋がいるという。 ノームに会いに行く前に、揃えておくべきだろう。")
   ShowMessageFace("ruka_fc1",0,0,2,20)
   ShowMessage("\\n<Luka>それじゃあ、次の目的地に行こう！")
   ShowMessageFace("",0,0,2,21)
   ShowMessage("マギステア村の騒動は収束し、新たな仲間を迎えた。 こうして僕達は、次の目的地へ旅立つのだった――")
   If(1,1031,0,0,0)
    ChangeVariable(1031,1031,0,0,1)
    0()
   EndIf()
   EndEventProcessing()
   0()
  Else()
   ShowMessageFace("ruka_fc1",0,0,2,22)
   ShowMessage("\\n<Luka>ノームのいるサファル遺跡は、グランドールの北だったね。 それじゃあ、行こう！")
   EndEventProcessing()
   0()
  EndIf()
  0()
 PAGE   5
  // condition: switch 2138 is ON
  // condition: variable 1029 >= 6
  0()



EVENT   12
 PAGE   1
  If(1,819,0,2,1)
   If(0,1561,1)
    ShowMessageFace("mob_majyo1_fc1",0,0,2,1)
    ShowMessage("\\n<Witchy>私を供にする気はないかい？ せいぜい役に立ってみせるよ……")
    ShowChoices(strings("Let her join","Decline for now"),0)
    IfPlayerPicksChoice(0,null)
     ShowMessageFace("mob_majyo1_fc1",0,0,2,2)
     ShowMessage("\\n<Witchy>それじゃあ、行こうかねぇ。")
     PictureClear(5)
     205(0,bytes(0x04,0x08,0x6f,0x3a,0x13,0x52,0x50,0x47,0x3a,0x3a,0x4d,0x6f,0x76,0x65,0x52,0x6f,0x75,0x74,0x65,0x09,0x3a,0x0c,0x40,0x72,0x65,0x70,0x65,0x61,0x74,0x46,0x3a,0x0f,0x40,0x73,0x6b,0x69,0x70,0x70,0x61,0x62,0x6c,0x65,0x46,0x3a,0x0a,0x40,0x77,0x61,0x69,0x74,0x54,0x3a,0x0a,0x40,0x6c,0x69,0x73,0x74,0x5b,0x09,0x6f,0x3a,0x15,0x52,0x50,0x47,0x3a,0x3a,0x4d,0x6f,0x76,0x65,0x43,0x6f,0x6d,0x6d,0x61,0x6e,0x64,0x07,0x3a,0x0a,0x40,0x63,0x6f,0x64,0x65,0x69,0x2a,0x3a,0x10,0x40,0x70,0x61,0x72,0x61,0x6d,0x65,0x74,0x65,0x72,0x73,0x5b,0x00,0x6f,0x3b,0x0a,0x07,0x3b,0x0b,0x69,0x0f,0x3b,0x0c,0x5b,0x00,0x6f,0x3b,0x0a,0x07,0x3b,0x0b,0x69,0x2c,0x3b,0x0c,0x5b,0x00,0x6f,0x3b,0x0a,0x07,0x3b,0x0b,0x69,0x00,0x3b,0x0c,0x5b,0x00))
     355("add_actor_ex(561)")
     249(bytes(0x04,0x08,0x6f,0x3a,0x0c,0x52,0x50,0x47,0x3a,0x3a,0x4d,0x45,0x08,0x3a,0x0a,0x40,0x6e,0x61,0x6d,0x65,0x49,0x22,0x0c,0x66,0x61,0x6e,0x66,0x61,0x6c,0x65,0x06,0x3a,0x06,0x45,0x54,0x3a,0x0b,0x40,0x70,0x69,0x74,0x63,0x68,0x69,0x69,0x3a,0x0c,0x40,0x76,0x6f,0x6c,0x75,0x6d,0x65,0x69,0x69))
     ShowMessageFace("",0,0,2,3)
     ShowMessage("ウィッチが仲間に加わった！")
     Wait(60)
     EndEventProcessing()
     0()
    IfPlayerPicksChoice(1,null)
     ShowMessageFace("mob_majyo1_fc1",0,0,2,4)
     ShowMessage("\\n<Witchy>まあ、それでもいいさ……")
     0()
    404()
    0()
   EndIf()
   0()
  EndIf()
  RunCommonEvent(7181)
  0()
 PAGE   2
  // condition: party contains actor #561
  0()
