﻿
DisplayName "Sabasa Castle 2F"



EVENT   1
 PAGE   1
  281(0)
  If(6,-1,2)
   250(bytes(0x04,0x08,0x6f,0x3a,0x0c,0x52,0x50,0x47,0x3a,0x3a,0x53,0x45,0x08,0x3a,0x0a,0x40,0x6e,0x61,0x6d,0x65,0x49,0x22,0x09,0x4d,0x6f,0x76,0x65,0x06,0x3a,0x06,0x45,0x54,0x3a,0x0b,0x40,0x70,0x69,0x74,0x63,0x68,0x69,0x69,0x3a,0x0c,0x40,0x76,0x6f,0x6c,0x75,0x6d,0x65,0x69,0x55))
   TeleportPlayer(0,377,60,17,0,0)
   0()
  EndIf()
  0()



EVENT   5
 PAGE   1
  281(0)
  If(6,-1,2)
   250(bytes(0x04,0x08,0x6f,0x3a,0x0c,0x52,0x50,0x47,0x3a,0x3a,0x53,0x45,0x08,0x3a,0x0a,0x40,0x6e,0x61,0x6d,0x65,0x49,0x22,0x09,0x4d,0x6f,0x76,0x65,0x06,0x3a,0x06,0x45,0x54,0x3a,0x0b,0x40,0x70,0x69,0x74,0x63,0x68,0x69,0x69,0x3a,0x0c,0x40,0x76,0x6f,0x6c,0x75,0x6d,0x65,0x69,0x55))
   TeleportPlayer(0,377,60,17,0,0)
   0()
  EndIf()
  0()



EVENT   6
 PAGE   1
  281(0)
  If(6,-1,2)
   250(bytes(0x04,0x08,0x6f,0x3a,0x0c,0x52,0x50,0x47,0x3a,0x3a,0x53,0x45,0x08,0x3a,0x0a,0x40,0x6e,0x61,0x6d,0x65,0x49,0x22,0x09,0x4d,0x6f,0x76,0x65,0x06,0x3a,0x06,0x45,0x54,0x3a,0x0b,0x40,0x70,0x69,0x74,0x63,0x68,0x69,0x69,0x3a,0x0c,0x40,0x76,0x6f,0x6c,0x75,0x6d,0x65,0x69,0x55))
   TeleportPlayer(0,377,60,17,0,0)
   0()
  EndIf()
  0()



EVENT   2
 PAGE   1
  281(0)
  If(6,-1,2)
   250(bytes(0x04,0x08,0x6f,0x3a,0x0c,0x52,0x50,0x47,0x3a,0x3a,0x53,0x45,0x08,0x3a,0x0a,0x40,0x6e,0x61,0x6d,0x65,0x49,0x22,0x09,0x4d,0x6f,0x76,0x65,0x06,0x3a,0x06,0x45,0x54,0x3a,0x0b,0x40,0x70,0x69,0x74,0x63,0x68,0x69,0x69,0x3a,0x0c,0x40,0x76,0x6f,0x6c,0x75,0x6d,0x65,0x69,0x55))
   TeleportPlayer(0,377,31,28,0,0)
   0()
  EndIf()
  If(1,1028,0,4,2)
   216(0)
   ChangeSwitch(100,100,1)
   ShowMessageFace("",0,0,2,1)
   ShowMessage("Luka rejoined his comrades!")
   If(0,2115,1)
    ShowMessageFace("ruka_fc1",0,0,2,2)
    ShowMessage("\\n<Luka>I have no intention of talking with the Queen.")
    If(0,4,0)
     ShowMessageFace("alice_fc5",6,0,2,3)
     ShowMessage("\\n<Alice>Then what did you go there for...?")
     0()
    EndIf()
    If(0,5,0)
     ShowMessageFace("iriasu_fc4",5,0,2,4)
     ShowMessage("\\n<Ilias>Then what do you intend...?")
     0()
    EndIf()
    RunCommonEvent(303)
    0()
   Else()
    ShowMessageFace("ruka_fc1",0,0,2,5)
    ShowMessage("\\n<Luka>It was worse than I expected. She didn't listen to what I have to say at all...")
    If(0,4,0)
     ShowMessageFace("alice_fc5",3,0,2,6)
     ShowMessage("\\n<Alice>So speaking directly to the Queen didn't work. We should go ask around at the tavern to gather information...")
     0()
    EndIf()
    If(0,5,0)
     ShowMessageFace("iriasu_fc4",2,0,2,7)
     ShowMessage("\\n<Ilias>As I thought, speaking directly to the Queen was for naught. Let's continue gathering information at the tavern...")
     0()
    EndIf()
    0()
   EndIf()
   0()
  EndIf()
  0()



EVENT   8
 PAGE   1
  // condition: switch 31 is ON
  0()



EVENT   11
 PAGE   1
  If(1,1028,0,7,2)
   ShowMessageFace("",0,0,2,1)
   ShowMessage("\\n<Chamberlain>This is lady Sara's room. Outsiders are asked to refrain themselves...")
   EndEventProcessing()
   0()
  EndIf()
  If(1,1028,0,8,0)
   ShowMessageFace("",0,0,2,2)
   ShowMessage("\\n<Chamberlain>As I thought, lady Sara prefers using this room over the King's room. Ahh, how heartrending...")
   355("actor_label_jump")
   EndEventProcessing()
   DefineLabel("529")
   ShowMessageFace("sara_fc1",4,0,2,3)
   ShowMessage("\\n<Sara>We will clean Father's room only after we find his body... ...That is what I decided.")
   EndEventProcessing()
   0()
  EndIf()
  0()



EVENT   13
 PAGE   1
  250(bytes(0x04,0x08,0x6f,0x3a,0x0c,0x52,0x50,0x47,0x3a,0x3a,0x53,0x45,0x08,0x3a,0x0a,0x40,0x6e,0x61,0x6d,0x65,0x49,0x22,0x0a,0x49,0x74,0x65,0x6d,0x31,0x06,0x3a,0x06,0x45,0x54,0x3a,0x0b,0x40,0x70,0x69,0x74,0x63,0x68,0x69,0x69,0x3a,0x0c,0x40,0x76,0x6f,0x6c,0x75,0x6d,0x65,0x69,0x55))
  ChangeSelfSwitch("A",0)
  ChangeInventoryWeapon(94,0,0,1,false)
  0()
 PAGE   2
  // condition: self-switch A is ON
  0()



EVENT   14
 PAGE   1
  250(bytes(0x04,0x08,0x6f,0x3a,0x0c,0x52,0x50,0x47,0x3a,0x3a,0x53,0x45,0x08,0x3a,0x0a,0x40,0x6e,0x61,0x6d,0x65,0x49,0x22,0x0a,0x49,0x74,0x65,0x6d,0x31,0x06,0x3a,0x06,0x45,0x54,0x3a,0x0b,0x40,0x70,0x69,0x74,0x63,0x68,0x69,0x69,0x3a,0x0c,0x40,0x76,0x6f,0x6c,0x75,0x6d,0x65,0x69,0x55))
  ChangeSelfSwitch("A",0)
  ChangeInventoryArmor(1145,0,0,1,false)
  0()
 PAGE   2
  // condition: self-switch A is ON
  0()



EVENT   15
 PAGE   1
  // condition: variable 1028 >= 8
  ShowMessageFace("",0,0,2,1)
  ShowMessage("\\n<Minister>Lady Sara's current standing is constitutionally unclear but... it's safe to say she's the nation's representative as the First Princes.")
  ShowMessageFace("",0,0,2,2)
  ShowMessage("\\n<Minister>Please continue ruling the country until the elections are complete. Even after that, you will be needed as the symbol of the country...")
  355("actor_label_jump")
  EndEventProcessing()
  DefineLabel("529")
  ShowMessageFace("sara_fc1",1,0,2,3)
  ShowMessage("\\n<Sara>I know, I won't be too reckless.")
  ShowMessageFace("",0,0,2,4)
  ShowMessage("\\n<Minister>I think you are plenty reckless now... well, we have accustomed ourselves to this during the previous King's era.")
  ShowMessageFace("",0,0,2,5)
  ShowMessage("\\n<Minister>...Is what I say, but the King before that and the one before him too were... is it in the blood?")
  EndEventProcessing()
  0()



EVENT   16
 PAGE   1
  250(bytes(0x04,0x08,0x6f,0x3a,0x0c,0x52,0x50,0x47,0x3a,0x3a,0x53,0x45,0x08,0x3a,0x0a,0x40,0x6e,0x61,0x6d,0x65,0x49,0x22,0x0a,0x49,0x74,0x65,0x6d,0x31,0x06,0x3a,0x06,0x45,0x54,0x3a,0x0b,0x40,0x70,0x69,0x74,0x63,0x68,0x69,0x69,0x3a,0x0c,0x40,0x76,0x6f,0x6c,0x75,0x6d,0x65,0x69,0x55))
  ChangeSelfSwitch("A",0)
  ChangeInventory_Item(40,0,0,1)
  0()
 PAGE   2
  // condition: self-switch A is ON
  0()



EVENT   3
 PAGE   1
  281(0)
  If(6,-1,2)
   250(bytes(0x04,0x08,0x6f,0x3a,0x0c,0x52,0x50,0x47,0x3a,0x3a,0x53,0x45,0x08,0x3a,0x0a,0x40,0x6e,0x61,0x6d,0x65,0x49,0x22,0x09,0x4d,0x6f,0x76,0x65,0x06,0x3a,0x06,0x45,0x54,0x3a,0x0b,0x40,0x70,0x69,0x74,0x63,0x68,0x69,0x69,0x3a,0x0c,0x40,0x76,0x6f,0x6c,0x75,0x6d,0x65,0x69,0x55))
   TeleportPlayer(0,377,31,28,0,0)
   0()
  EndIf()
  If(1,1028,0,4,2)
   216(0)
   ChangeSwitch(100,100,1)
   ShowMessageFace("",0,0,2,1)
   ShowMessage("Luka rejoined his comrades!")
   If(0,2115,1)
    ShowMessageFace("ruka_fc1",0,0,2,2)
    ShowMessage("\\n<Luka>I have no intention of talking with the Queen.")
    If(0,4,0)
     ShowMessageFace("alice_fc5",6,0,2,3)
     ShowMessage("\\n<Alice>Then what did you go there for...?")
     0()
    EndIf()
    If(0,5,0)
     ShowMessageFace("iriasu_fc4",5,0,2,4)
     ShowMessage("\\n<Ilias>Then what do you intend...?")
     0()
    EndIf()
    RunCommonEvent(303)
    0()
   Else()
    ShowMessageFace("ruka_fc1",0,0,2,5)
    ShowMessage("\\n<Luka>It was worse than I expected. She didn't listen to what I have to say at all...")
    If(0,4,0)
     ShowMessageFace("alice_fc5",3,0,2,6)
     ShowMessage("\\n<Alice>So speaking directly to the Queen didn't work. We should go ask around at the tavern to gather information...")
     0()
    EndIf()
    If(0,5,0)
     ShowMessageFace("iriasu_fc4",2,0,2,7)
     ShowMessage("\\n<Ilias>As I thought, speaking directly to the Queen was for naught. Let's continue gathering information at the tavern...")
     0()
    EndIf()
    0()
   EndIf()
   0()
  EndIf()
  0()



EVENT   4
 PAGE   1
  281(0)
  If(6,-1,2)
   250(bytes(0x04,0x08,0x6f,0x3a,0x0c,0x52,0x50,0x47,0x3a,0x3a,0x53,0x45,0x08,0x3a,0x0a,0x40,0x6e,0x61,0x6d,0x65,0x49,0x22,0x09,0x4d,0x6f,0x76,0x65,0x06,0x3a,0x06,0x45,0x54,0x3a,0x0b,0x40,0x70,0x69,0x74,0x63,0x68,0x69,0x69,0x3a,0x0c,0x40,0x76,0x6f,0x6c,0x75,0x6d,0x65,0x69,0x55))
   TeleportPlayer(0,377,31,28,0,0)
   0()
  EndIf()
  If(1,1028,0,4,2)
   216(0)
   ChangeSwitch(100,100,1)
   ShowMessageFace("",0,0,2,1)
   ShowMessage("Luka rejoined his comrades!")
   If(0,2115,1)
    ShowMessageFace("ruka_fc1",0,0,2,2)
    ShowMessage("\\n<Luka>I have no intention of talking with the Queen.")
    If(0,4,0)
     ShowMessageFace("alice_fc5",6,0,2,3)
     ShowMessage("\\n<Alice>Then what did you go there for...?")
     0()
    EndIf()
    If(0,5,0)
     ShowMessageFace("iriasu_fc4",5,0,2,4)
     ShowMessage("\\n<Ilias>Then what do you intend...?")
     0()
    EndIf()
    RunCommonEvent(303)
    0()
   Else()
    ShowMessageFace("ruka_fc1",0,0,2,5)
    ShowMessage("\\n<Luka>It was worse than I expected. She didn't listen to what I have to say at all...")
    If(0,4,0)
     ShowMessageFace("alice_fc5",3,0,2,6)
     ShowMessage("\\n<Alice>So speaking directly to the Queen didn't work. We should go ask around at the tavern to gather information...")
     0()
    EndIf()
    If(0,5,0)
     ShowMessageFace("iriasu_fc4",2,0,2,7)
     ShowMessage("\\n<Ilias>As I thought, speaking directly to the Queen was for naught. Let's continue gathering information at the tavern...")
     0()
    EndIf()
    0()
   EndIf()
   0()
  EndIf()
  0()



EVENT   10
 PAGE   1
  // condition: variable 1028 >= 8
  ShowMessageFace("",0,0,2,1)
  ShowMessage("\\n<Samson>The previous King too had traveled to gain combat experience when he was the same age as lady Sara. You can't fight blood...")
  If(0,1565,1)
   ShowMessageFace("",0,0,2,2)
   ShowMessage("\\n<Samson>...by the way, would you need my great strength during your adventure? I think it doesn't fit me to stay quietly in the castle...")
   ShowChoices(strings("Let him join","Decline for now"),0)
   IfPlayerPicksChoice(0,null)
    ShowMessageFace("",0,0,2,3)
    ShowMessage("\\n<Samson>Then let's do it together! Behold my strength praised as 'Sabasa's Mighty Hammer'!")
    PictureClear(5)
    205(0,bytes(0x04,0x08,0x6f,0x3a,0x13,0x52,0x50,0x47,0x3a,0x3a,0x4d,0x6f,0x76,0x65,0x52,0x6f,0x75,0x74,0x65,0x09,0x3a,0x0c,0x40,0x72,0x65,0x70,0x65,0x61,0x74,0x46,0x3a,0x0f,0x40,0x73,0x6b,0x69,0x70,0x70,0x61,0x62,0x6c,0x65,0x46,0x3a,0x0a,0x40,0x77,0x61,0x69,0x74,0x54,0x3a,0x0a,0x40,0x6c,0x69,0x73,0x74,0x5b,0x09,0x6f,0x3a,0x15,0x52,0x50,0x47,0x3a,0x3a,0x4d,0x6f,0x76,0x65,0x43,0x6f,0x6d,0x6d,0x61,0x6e,0x64,0x07,0x3a,0x0a,0x40,0x63,0x6f,0x64,0x65,0x69,0x2a,0x3a,0x10,0x40,0x70,0x61,0x72,0x61,0x6d,0x65,0x74,0x65,0x72,0x73,0x5b,0x00,0x6f,0x3b,0x0a,0x07,0x3b,0x0b,0x69,0x0f,0x3b,0x0c,0x5b,0x00,0x6f,0x3b,0x0a,0x07,0x3b,0x0b,0x69,0x2c,0x3b,0x0c,0x5b,0x00,0x6f,0x3b,0x0a,0x07,0x3b,0x0b,0x69,0x00,0x3b,0x0c,0x5b,0x00))
    355("add_actor_ex(565)")
    249(bytes(0x04,0x08,0x6f,0x3a,0x0c,0x52,0x50,0x47,0x3a,0x3a,0x4d,0x45,0x08,0x3a,0x0a,0x40,0x6e,0x61,0x6d,0x65,0x49,0x22,0x0c,0x66,0x61,0x6e,0x66,0x61,0x6c,0x65,0x06,0x3a,0x06,0x45,0x54,0x3a,0x0b,0x40,0x70,0x69,0x74,0x63,0x68,0x69,0x69,0x3a,0x0c,0x40,0x76,0x6f,0x6c,0x75,0x6d,0x65,0x69,0x69))
    ShowMessageFace("",0,0,2,4)
    ShowMessage("Samson has joined the party!")
    Wait(60)
    EndEventProcessing()
    0()
   IfPlayerPicksChoice(1,null)
    ShowMessageFace("",0,0,2,5)
    ShowMessage("\\n<Samson>...Mmm, then it can't be helped. Please take care of lady Sara.")
    EndEventProcessing()
    0()
   404()
   0()
  EndIf()
  0()
 PAGE   2
  // condition: party contains actor #565
  0()



EVENT   9
 PAGE   1
  // condition: variable 1028 >= 7
  241(bytes(0x04,0x08,0x6f,0x3a,0x0d,0x52,0x50,0x47,0x3a,0x3a,0x42,0x47,0x4d,0x08,0x3a,0x0a,0x40,0x6e,0x61,0x6d,0x65,0x49,0x22,0x14,0x73,0x63,0x65,0x6e,0x65,0x5f,0x65,0x70,0x69,0x6c,0x6f,0x67,0x75,0x65,0x31,0x06,0x3a,0x06,0x45,0x54,0x3a,0x0c,0x40,0x76,0x6f,0x6c,0x75,0x6d,0x65,0x69,0x69,0x3a,0x0b,0x40,0x70,0x69,0x74,0x63,0x68,0x69,0x69))
  ChangeSelfSwitch("A",0)
  314(0,0)
  222()
  PictureDisplay(5,"80_sara_st12",0,0,0,0,100,100,0,0)
  PictureMove(5,null,0,0,0,0,100,100,255,0,30,true)
  ShowMessageFace("ruka_fc1",0,0,2,1)
  ShowMessage("\\n<Luka>Is it really all right? To abdicate from the throne...")
  ShowMessageFace("sara_fc2",1,0,2,2)
  ShowMessage("\\n<Sara>Yes... after repeating such debauchery I cannot remain as the country's ruler.")
  If(4,118,0)
   ShowMessageFace("meia_fc1",0,0,2,3)
   ShowMessage("\\n<Meia>Brainwashed and forced to do something you don't want... I know something about that.")
   0()
  EndIf()
  If(0,6,0)
   ShowMessageFace("sonia_fc2",2,0,2,4)
   ShowMessage("\\n<Sonya>During the announcement majority of people sympathized with you. There was no need to force yourself to quit... ")
   0()
  Else()
   ShowMessageFace("ruka_fc1",0,0,2,5)
   ShowMessage("\\n<Luka>Even during announcement of this, most have sympathized with you. I don't think you had to force yourself to abdicate...")
   0()
  EndIf()
  ShowMessageFace("sara_fc2",1,0,2,6)
  ShowMessage("\\n<Sara>As the ruler I'm already guilty. Being manipulated by a succubus is no excuse.")
  ShowMessageFace("sara_fc2",1,0,2,7)
  ShowMessage("\\n<Sara>Also, Sabasa had a parliament in the first place. At this opportunity I only strengthened the parliaments authority so there won't be much confusion.")
  If(0,4,0)
   ShowMessageFace("alice_fc5",0,0,2,8)
   ShowMessage("\\n<Alice>Certainly... during the Queen's debauched era the citizens' political consciousness has grown. This is an unexpected opportunity to change to democracy.")
   0()
  EndIf()
  If(0,5,0)
   ShowMessageFace("iriasu_fc4",0,0,2,9)
   ShowMessage("\\n<Ilias>With this time's incident the citizens' political consciousness has grown. It might be appropriate timing to migrate to democracy.")
   0()
  EndIf()
  ShowMessageFace("sara_fc2",2,0,2,10)
  ShowMessage("\\n<Sara>In addition to that, I have things I need to do. Rather than continue as Queen just in name, what's more important is...")
  If(0,6,0)
   ShowMessageFace("sonia_fc3",2,0,2,11)
   ShowMessage("\\n<Sonya>That's, you mean...")
   0()
  Else()
   ShowMessageFace("ruka_fc1",0,0,2,12)
   ShowMessage("\\n<Luka>That's, you mean...")
   0()
  EndIf()
  PictureDisplay(5,"80_sara_st02",0,0,0,0,100,100,255,0)
  205(7,bytes(0x04,0x08,0x6f,0x3a,0x13,0x52,0x50,0x47,0x3a,0x3a,0x4d,0x6f,0x76,0x65,0x52,0x6f,0x75,0x74,0x65,0x09,0x3a,0x0c,0x40,0x72,0x65,0x70,0x65,0x61,0x74,0x46,0x3a,0x0f,0x40,0x73,0x6b,0x69,0x70,0x70,0x61,0x62,0x6c,0x65,0x46,0x3a,0x0a,0x40,0x77,0x61,0x69,0x74,0x54,0x3a,0x0a,0x40,0x6c,0x69,0x73,0x74,0x5b,0x07,0x6f,0x3a,0x15,0x52,0x50,0x47,0x3a,0x3a,0x4d,0x6f,0x76,0x65,0x43,0x6f,0x6d,0x6d,0x61,0x6e,0x64,0x07,0x3a,0x0a,0x40,0x63,0x6f,0x64,0x65,0x69,0x2e,0x3a,0x10,0x40,0x70,0x61,0x72,0x61,0x6d,0x65,0x74,0x65,0x72,0x73,0x5b,0x07,0x49,0x22,0x10,0x52,0x6f,0x69,0x61,0x6c,0x30,0x32,0x5f,0x63,0x69,0x70,0x06,0x3a,0x06,0x45,0x54,0x69,0x00,0x6f,0x3b,0x0a,0x07,0x3b,0x0b,0x69,0x00,0x3b,0x0c,0x5b,0x00))
  ShowMessageFace("",0,0,2,13)
  ShowMessage("Sara changed her clothes in an instant!")
  ShowMessageFace("sara_fc1",1,0,2,14)
  ShowMessage("\\n<Sara>Of course, the journey to save the world! I will be accompanying you all!")
  If(0,6,0)
   ShowMessageFace("sonia_fc3",2,0,2,15)
   ShowMessage("\\n<Sonya>That's too reckless! A noble shouldn't...!")
   0()
  Else()
   ShowMessageFace("ruka_fc1",0,0,2,16)
   ShowMessage("\\n<Luka>That's too reckless! Someone from royal family shouldn't...!")
   0()
  EndIf()
  PictureDisplay(5,"80_sara_st03",0,0,0,0,100,100,255,0)
  ShowMessageFace("sara_fc1",4,0,2,17)
  ShowMessage("\\n<Sara>Right now I'm no Queen any more. Also we're pretty much of the same age so you can speak to me frankly.")
  PictureDisplay(5,"80_sara_st02",0,0,0,0,100,100,255,0)
  ShowMessageFace("sara_fc1",1,0,2,18)
  ShowMessage("\\n<Sara>That' show it is, I'll be going with you. Take car of me, Luka!")
  PictureClear(5)
  205(7,bytes(0x04,0x08,0x6f,0x3a,0x13,0x52,0x50,0x47,0x3a,0x3a,0x4d,0x6f,0x76,0x65,0x52,0x6f,0x75,0x74,0x65,0x09,0x3a,0x0c,0x40,0x72,0x65,0x70,0x65,0x61,0x74,0x46,0x3a,0x0f,0x40,0x73,0x6b,0x69,0x70,0x70,0x61,0x62,0x6c,0x65,0x46,0x3a,0x0a,0x40,0x77,0x61,0x69,0x74,0x54,0x3a,0x0a,0x40,0x6c,0x69,0x73,0x74,0x5b,0x09,0x6f,0x3a,0x15,0x52,0x50,0x47,0x3a,0x3a,0x4d,0x6f,0x76,0x65,0x43,0x6f,0x6d,0x6d,0x61,0x6e,0x64,0x07,0x3a,0x0a,0x40,0x63,0x6f,0x64,0x65,0x69,0x2a,0x3a,0x10,0x40,0x70,0x61,0x72,0x61,0x6d,0x65,0x74,0x65,0x72,0x73,0x5b,0x00,0x6f,0x3b,0x0a,0x07,0x3b,0x0b,0x69,0x06,0x3b,0x0c,0x5b,0x00,0x6f,0x3b,0x0a,0x07,0x3b,0x0b,0x69,0x2c,0x3b,0x0c,0x5b,0x00,0x6f,0x3b,0x0a,0x07,0x3b,0x0b,0x69,0x00,0x3b,0x0c,0x5b,0x00))
  ChangeVariable(1028,1028,0,0,8)
  249(bytes(0x04,0x08,0x6f,0x3a,0x0c,0x52,0x50,0x47,0x3a,0x3a,0x4d,0x45,0x08,0x3a,0x0a,0x40,0x6e,0x61,0x6d,0x65,0x49,0x22,0x0c,0x66,0x61,0x6e,0x66,0x61,0x6c,0x65,0x06,0x3a,0x06,0x45,0x54,0x3a,0x0b,0x40,0x70,0x69,0x74,0x63,0x68,0x69,0x69,0x3a,0x0c,0x40,0x76,0x6f,0x6c,0x75,0x6d,0x65,0x69,0x69))
  ShowMessageFace("",0,0,2,19)
  ShowMessage("Sara has officially joined the party!")
  Wait(60)
  If(0,6,0)
   ShowMessageFace("sonia_fc2",2,0,2,20)
   ShowMessage("\\n<Sonya>I'm not really against it, it's reassuring to have you but... Is it really okay...?")
   ShowMessageFace("sonia_fc1",0,0,2,21)
   ShowMessage("\\n<Sonya>...Well, fine! Let's get along, miss Sara!")
   ShowMessageFace("sara_fc1",1,0,2,22)
   ShowMessage("\\n<Sara>Just call me Sara. Take care of me, Sonya.")
   0()
  Else()
   ShowMessageFace("ruka_fc1",0,0,2,23)
   ShowMessage("\\n<Luka>Is this really all right...?")
   0()
  EndIf()
  355("gain_medal(26)")
  If(1,1029,0,2,2)
   ChangeVariable(1029,1029,0,0,1)
   Wait(15)
   ChangeSwitch(31,31,0)
   205(8,bytes(0x04,0x08,0x6f,0x3a,0x13,0x52,0x50,0x47,0x3a,0x3a,0x4d,0x6f,0x76,0x65,0x52,0x6f,0x75,0x74,0x65,0x09,0x3a,0x0c,0x40,0x72,0x65,0x70,0x65,0x61,0x74,0x46,0x3a,0x0f,0x40,0x73,0x6b,0x69,0x70,0x70,0x61,0x62,0x6c,0x65,0x46,0x3a,0x0a,0x40,0x77,0x61,0x69,0x74,0x54,0x3a,0x0a,0x40,0x6c,0x69,0x73,0x74,0x5b,0x0d,0x6f,0x3a,0x15,0x52,0x50,0x47,0x3a,0x3a,0x4d,0x6f,0x76,0x65,0x43,0x6f,0x6d,0x6d,0x61,0x6e,0x64,0x07,0x3a,0x0a,0x40,0x63,0x6f,0x64,0x65,0x69,0x22,0x3a,0x10,0x40,0x70,0x61,0x72,0x61,0x6d,0x65,0x74,0x65,0x72,0x73,0x5b,0x06,0x69,0x0a,0x6f,0x3b,0x0a,0x07,0x3b,0x0b,0x69,0x23,0x3b,0x0c,0x5b,0x06,0x69,0x09,0x6f,0x3b,0x0a,0x07,0x3b,0x0b,0x69,0x2a,0x3b,0x0c,0x5b,0x00,0x6f,0x3b,0x0a,0x07,0x3b,0x0b,0x69,0x09,0x3b,0x0c,0x5b,0x00,0x6f,0x3b,0x0a,0x07,0x3b,0x0b,0x69,0x09,0x3b,0x0c,0x5b,0x00,0x6f,0x3b,0x0a,0x07,0x3b,0x0b,0x69,0x09,0x3b,0x0c,0x5b,0x00,0x6f,0x3b,0x0a,0x07,0x3b,0x0b,0x69,0x09,0x3b,0x0c,0x5b,0x00,0x6f,0x3b,0x0a,0x07,0x3b,0x0b,0x69,0x00,0x3b,0x0c,0x5b,0x00))
   205(-1,bytes(0x04,0x08,0x6f,0x3a,0x13,0x52,0x50,0x47,0x3a,0x3a,0x4d,0x6f,0x76,0x65,0x52,0x6f,0x75,0x74,0x65,0x09,0x3a,0x0c,0x40,0x72,0x65,0x70,0x65,0x61,0x74,0x46,0x3a,0x0f,0x40,0x73,0x6b,0x69,0x70,0x70,0x61,0x62,0x6c,0x65,0x46,0x3a,0x0a,0x40,0x77,0x61,0x69,0x74,0x54,0x3a,0x0a,0x40,0x6c,0x69,0x73,0x74,0x5b,0x07,0x6f,0x3a,0x15,0x52,0x50,0x47,0x3a,0x3a,0x4d,0x6f,0x76,0x65,0x43,0x6f,0x6d,0x6d,0x61,0x6e,0x64,0x07,0x3a,0x0a,0x40,0x63,0x6f,0x64,0x65,0x69,0x15,0x3a,0x10,0x40,0x70,0x61,0x72,0x61,0x6d,0x65,0x74,0x65,0x72,0x73,0x5b,0x00,0x6f,0x3b,0x0a,0x07,0x3b,0x0b,0x69,0x00,0x3b,0x0c,0x5b,0x00))
   241(bytes(0x04,0x08,0x6f,0x3a,0x0d,0x52,0x50,0x47,0x3a,0x3a,0x42,0x47,0x4d,0x08,0x3a,0x0a,0x40,0x6e,0x61,0x6d,0x65,0x49,0x22,0x0a,0x6b,0x69,0x6b,0x69,0x32,0x06,0x3a,0x06,0x45,0x54,0x3a,0x0c,0x40,0x76,0x6f,0x6c,0x75,0x6d,0x65,0x69,0x69,0x3a,0x0b,0x40,0x70,0x69,0x74,0x63,0x68,0x69,0x69))
   ShowMessageFace("",0,0,2,24)
   ShowMessage("\\n<Royal Guard>Your Majesty, I have an urgent report!")
   ShowMessageFace("sara_fc1",4,0,2,25)
   ShowMessage("\\n<Sara>But I'm no longer the Queen...")
   ShowMessageFace("",0,0,2,26)
   ShowMessage("\\n<Royal Guard>But it's no mistake you are the ruler of Sabasa. Anyway, there's an urgent message from Magistea Village!")
   ShowMessageFace("sara_fc1",3,0,2,27)
   ShowMessage("\\n<Sara>Magistea...the Witch Hunt Village...?!")
   ShowMessageFace("",0,0,2,28)
   ShowMessage("\\n<Royal Guard>There was a large-scale terrorist attack in Magistea! The divided lord's and the rebel army started a civil war!")
   ShowMessageFace("ruka_fc1",0,0,2,29)
   ShowMessage("\\n<Luka>Civil war...? Why on earth did such...")
   ShowMessageFace("sara_fc1",0,0,2,30)
   ShowMessage("\\n<Sara>Magistea Village is ruled by a lord who uses sorcery. The village's old-fashioned structure was a problem for long time now but...")
   ShowMessageFace("sara_fc1",0,0,2,31)
   ShowMessage("\\n<Sara>Rebels who seek to be released and free have formed an army. Ever since then the fight between the factions have been intensifying...")
   ShowMessageFace("sara_fc1",4,0,2,32)
   ShowMessage("\\n<Sara>But it has finally lead to an uprising, hasn't it. A war that has sorcery involved in it will definitely be gruesome...")
   ShowMessageFace("",0,0,2,33)
   ShowMessage("\\n<Royal Guard>It seems like the soldiers can't hold a candle to either the lord's or the rebel army. Both of them are led by powerful sorcerers and are supported by many monsters...")
   ShowMessageFace("sara_fc1",0,0,2,34)
   ShowMessage("\\n<Sara>Thank you for the report, you can go down.")
   205(8,bytes(0x04,0x08,0x6f,0x3a,0x13,0x52,0x50,0x47,0x3a,0x3a,0x4d,0x6f,0x76,0x65,0x52,0x6f,0x75,0x74,0x65,0x09,0x3a,0x0c,0x40,0x72,0x65,0x70,0x65,0x61,0x74,0x46,0x3a,0x0f,0x40,0x73,0x6b,0x69,0x70,0x70,0x61,0x62,0x6c,0x65,0x46,0x3a,0x0a,0x40,0x77,0x61,0x69,0x74,0x46,0x3a,0x0a,0x40,0x6c,0x69,0x73,0x74,0x5b,0x0f,0x6f,0x3a,0x15,0x52,0x50,0x47,0x3a,0x3a,0x4d,0x6f,0x76,0x65,0x43,0x6f,0x6d,0x6d,0x61,0x6e,0x64,0x07,0x3a,0x0a,0x40,0x63,0x6f,0x64,0x65,0x69,0x22,0x3a,0x10,0x40,0x70,0x61,0x72,0x61,0x6d,0x65,0x74,0x65,0x72,0x73,0x5b,0x06,0x69,0x09,0x6f,0x3b,0x0a,0x07,0x3b,0x0b,0x69,0x23,0x3b,0x0c,0x5b,0x06,0x69,0x08,0x6f,0x3b,0x0a,0x07,0x3b,0x0b,0x69,0x2a,0x3b,0x0c,0x5b,0x00,0x6f,0x3b,0x0a,0x07,0x3b,0x0b,0x69,0x06,0x3b,0x0c,0x5b,0x00,0x6f,0x3b,0x0a,0x07,0x3b,0x0b,0x69,0x06,0x3b,0x0c,0x5b,0x00,0x6f,0x3b,0x0a,0x07,0x3b,0x0b,0x69,0x06,0x3b,0x0c,0x5b,0x00,0x6f,0x3b,0x0a,0x07,0x3b,0x0b,0x69,0x06,0x3b,0x0c,0x5b,0x00,0x6f,0x3b,0x0a,0x07,0x3b,0x0b,0x69,0x06,0x3b,0x0c,0x5b,0x00,0x6f,0x3b,0x0a,0x07,0x3b,0x0b,0x69,0x06,0x3b,0x0c,0x5b,0x00,0x6f,0x3b,0x0a,0x07,0x3b,0x0b,0x69,0x00,0x3b,0x0c,0x5b,0x00))
   ShowMessageFace("sara_fc1",0,0,2,35)
   ShowMessage("\\n<Sara>If army is dispatched there all of a sudden, there's a risk of extra chaos... looks like I have to go there myself.")
   ShowMessageFace("ruka_fc1",0,0,2,36)
   ShowMessage("\\n<Luka>We'll help! We can't leave a situation like that...")
   If(4,129,0)
    ShowMessageFace("brunhild_fc1",0,0,2,37)
    ShowMessage("\\n<Hild>Hild will go too, beat enemies up...")
    0()
   EndIf()
   If(0,4,0)
    ShowMessageFace("alice_fc5",3,0,2,38)
    ShowMessage("\\n<Alice>...this can't be helped. Since monsters are involved I can't tolerate this either.")
    0()
   EndIf()
   If(0,5,0)
    ShowMessageFace("iriasu_fc4",2,0,2,39)
    ShowMessage("\\n<Ilias>This cannot be helped. I cannot overlook heretical sorcery that's misleading people.")
    0()
   EndIf()
   If(1,1001,0,17,0)
    If(0,4,0)
     ShowMessageFace("alice_fc5",0,0,2,40)
     ShowMessage("\\n<Alice>We'll have to leave Gnome and the Tartaros for later but... it's not a bad idea to train some before challenging the dangerous places.")
     0()
    EndIf()
    If(0,5,0)
     ShowMessageFace("iriasu_fc4",2,0,2,41)
     ShowMessage("\\n<Ilias>We will have to leave Gnome and the Tartaros for later... but it's better to improve our skills before exploring the dangerous places.")
     0()
    EndIf()
    0()
   EndIf()
   ShowMessageFace("sara_fc1",0,0,2,42)
   ShowMessage("\\n<Sara>Thank you for your cooperation. The way to Magistea is quite far away though.")
   ShowMessageFace("sara_fc1",0,0,2,43)
   ShowMessage("\\n<Sara>It is located West of Sabasa Castle but... we'll have to bypass the mountain range to the West, making a big detour.")
   ShowMessageFace("sara_fc1",0,0,2,44)
   ShowMessage("\\n<Sara>First we have to head straight North and cross the bridge on the river. Then to Northwest we'll see Sabasa's largest business district, the Grandeur.")
   ShowMessageFace("sara_fc1",0,0,2,45)
   ShowMessage("\\n<Sara>Since it's on the other side of the river we'll have to walk circle around it some... but then we'll be able to rest in Grandeur.")
   ShowMessageFace("sara_fc1",0,0,2,46)
   ShowMessage("\\n<Sara>It's best to learn further directions in Grandeur. Even if I tell you everything at once you'll probably forget, right?")
   ShowMessageFace("ruka_fc1",0,0,2,47)
   ShowMessage("\\n<Luka>Yup, you're right. Let's first go to Grandeur!")
   ShowMessageFace("",0,0,2,48)
   ShowMessage("North of Sabasa Castle there's a big bridge for crossing the river. From there we will see a town called Grandeur, first we'll rest there...")
   ShowMessageFace("",0,0,2,49)
   ShowMessage("That's the current destination of our journey.")
   0()
  EndIf()
  ChangeSwitch(31,31,1)
  241(bytes(0x04,0x08,0x6f,0x3a,0x0d,0x52,0x50,0x47,0x3a,0x3a,0x42,0x47,0x4d,0x08,0x3a,0x0a,0x40,0x6e,0x61,0x6d,0x65,0x49,0x22,0x0c,0x63,0x61,0x73,0x74,0x6c,0x65,0x32,0x06,0x3a,0x06,0x45,0x54,0x3a,0x0c,0x40,0x76,0x6f,0x6c,0x75,0x6d,0x65,0x69,0x69,0x3a,0x0b,0x40,0x70,0x69,0x74,0x63,0x68,0x69,0x69))
  0()
 PAGE   2
  // condition: self-switch A is ON
  0()



EVENT   7
 PAGE   1
  ChangeSwitch(2115,2115,0)
  PictureDisplay(5,"80_sara_st12",0,0,0,0,100,100,0,0)
  PictureMove(5,null,0,0,0,0,100,100,255,0,30,true)
  If(1,1028,0,4,2)
   If(2,"A",1)
    ShowMessageFace("sara_fc2",1,0,2,1)
    ShowMessage("\\n<Sara>Oh my... what do travelers want from me? I know, you heard my reputation...")
    0()
   Else()
    ShowMessageFace("sara_fc2",1,0,2,2)
    ShowMessage("\\n<Sara>Oh dear... it's you again. So you want me to suck your dick after all?")
    0()
   EndIf()
   PictureDisplay(5,"80_sara_st11",0,0,0,0,100,100,255,0)
   ShowMessageFace("sara_fc2",0,0,2,3)
   ShowMessage("\\n<Sara>Well then, pull down your pants. Show me your dick...")
   ShowMessageFace("ruka_fc1",0,0,2,4)
   ShowMessage("\\n<Luka>...Ehhh?!")
   PictureDisplay(5,"80_sara_st13",0,0,0,0,100,100,255,0)
   ShowMessageFace("sara_fc2",5,0,2,5)
   ShowMessage("\\n<Sara>I mean... I can't suck it unless you pull your pants down. Now, hurry and take out your dick...")
   ShowChoices(strings("Talk with her","Pull down your pants"),0)
   IfPlayerPicksChoice(0,null)
    If(2,"A",1)
     ShowMessageFace("ruka_fc1",0,0,2,6)
     ShowMessage("\\n<Luka>That's not what I came here for! I want to talk for a bit!")
     ShowMessageFace("sara_fc2",5,0,2,7)
     ShowMessage("\\n<Sara>What a strange person... you prefer talking over sucking...?")
     ShowMessageFace("sara_fc2",5,0,2,8)
     ShowMessage("\\n<Sara>...fine, get out.")
     ShowMessageFace("ruka_fc1",0,0,2,9)
     ShowMessage("\\n<Luka>Wait a moment, I want to ask something...")
     PictureDisplay(5,"80_sara_st11",0,0,0,0,100,100,255,0)
     ShowMessageFace("sara_fc2",0,0,2,10)
     ShowMessage("\\n<Sara>Once you get down tell this to the guard 'Next time bring a man who'll obediently whip out his dick'...")
     ChangeSelfSwitch("A",0)
     PictureClear(5)
     EndEventProcessing()
     0()
    Else()
     ShowMessageFace("ruka_fc1",0,0,2,11)
     ShowMessage("\\n<Luka>I said, that's not what I came here for!")
     ShowMessageFace("sara_fc2",5,0,2,12)
     ShowMessage("\\n<Sara>...fine, get out. No free looking at my goods...")
     PictureClear(5)
     EndEventProcessing()
     0()
    EndIf()
    ChangeSelfSwitch("A",0)
    205(-1,bytes(0x04,0x08,0x6f,0x3a,0x13,0x52,0x50,0x47,0x3a,0x3a,0x4d,0x6f,0x76,0x65,0x52,0x6f,0x75,0x74,0x65,0x09,0x3a,0x0c,0x40,0x72,0x65,0x70,0x65,0x61,0x74,0x46,0x3a,0x0f,0x40,0x73,0x6b,0x69,0x70,0x70,0x61,0x62,0x6c,0x65,0x46,0x3a,0x0a,0x40,0x77,0x61,0x69,0x74,0x54,0x3a,0x0a,0x40,0x6c,0x69,0x73,0x74,0x5b,0x07,0x6f,0x3a,0x15,0x52,0x50,0x47,0x3a,0x3a,0x4d,0x6f,0x76,0x65,0x43,0x6f,0x6d,0x6d,0x61,0x6e,0x64,0x07,0x3a,0x0a,0x40,0x63,0x6f,0x64,0x65,0x69,0x15,0x3a,0x10,0x40,0x70,0x61,0x72,0x61,0x6d,0x65,0x74,0x65,0x72,0x73,0x5b,0x00,0x6f,0x3b,0x0a,0x07,0x3b,0x0b,0x69,0x00,0x3b,0x0c,0x5b,0x00))
    ShowMessageFace("ruka_fc1",0,0,2,13)
    ShowMessage("\\n<Luka>......")
    ShowMessageFace("",0,0,2,14)
    ShowMessage("Looks like it's even harder to get to her than I thought. It appears there's no choice but to back out...")
    0()
   IfPlayerPicksChoice(1,null)
    RunCommonEvent(7151)
    EndEventProcessing()
    0()
   404()
   0()
  EndIf()
  If(1,1028,0,5,0)
   ShowMessageFace("sara_fc2",1,0,2,15)
   ShowMessage("\\n<Sara>Oh my... what an imposing atmosphere. Do you want to fuck me violently...?")
   If(0,6,0)
    ShowMessageFace("sonia_fc3",2,0,2,16)
    ShowMessage("\\n<Sonya>The first thing she says is super dirty?! She really looks like she lost her reason...")
    0()
   EndIf()
   ShowMessageFace("ruka_fc1",0,0,2,17)
   ShowMessage("\\n<Luka>Could you drink this blood...? You'll go back to sanity if you do.")
   ShowMessageFace("sara_fc2",1,0,2,18)
   ShowMessage("\\n<Sara>The only thing I want to drink is a man's semen... I don't want sine weird blood.")
   If(0,4,0)
    ShowMessageFace("alice_fc5",2,0,2,19)
    ShowMessage("\\n<Alice>Then we'll have to hold you down and force you to drink it! Don't think bad of us, this is for your country's sake!")
    0()
   EndIf()
   If(0,5,0)
    ShowMessageFace("iriasu_fc4",0,0,2,20)
    ShowMessage("\\n<Ilias>In that case we will hold you down and make you drink it. It's for your own sake, you better prepare to get some bones broken...")
    0()
   EndIf()
   ShowMessageFace("sara_fc2",1,0,2,21)
   ShowMessage("\\n<Sara>Ahaha... So you want to play violently with me...?")
   250(bytes(0x04,0x08,0x6f,0x3a,0x0c,0x52,0x50,0x47,0x3a,0x3a,0x53,0x45,0x08,0x3a,0x0a,0x40,0x6e,0x61,0x6d,0x65,0x49,0x22,0x0e,0x6d,0x6f,0x6e,0x5f,0x70,0x6f,0x77,0x65,0x72,0x06,0x3a,0x06,0x45,0x54,0x3a,0x0b,0x40,0x70,0x69,0x74,0x63,0x68,0x69,0x69,0x3a,0x0c,0x40,0x76,0x6f,0x6c,0x75,0x6d,0x65,0x69,0x69))
   ShowMessageFace("",0,0,2,22)
   ShowMessage("Sara's magic grows! Her body had gradually transformed in front of us...")
   241(bytes(0x04,0x08,0x6f,0x3a,0x0d,0x52,0x50,0x47,0x3a,0x3a,0x42,0x47,0x4d,0x08,0x3a,0x0a,0x40,0x6e,0x61,0x6d,0x65,0x49,0x22,0x0a,0x62,0x6f,0x73,0x73,0x30,0x06,0x3a,0x06,0x45,0x54,0x3a,0x0c,0x40,0x76,0x6f,0x6c,0x75,0x6d,0x65,0x69,0x69,0x3a,0x0b,0x40,0x70,0x69,0x74,0x63,0x68,0x69,0x69))
   PictureDisplay(5,"80_saraevil_st01",0,0,0,0,100,100,255,0)
   ShowMessageFace("sara_fc4",0,0,2,23)
   ShowMessage("\\n<Sara>I don't mind forcing you either... I'll show heaven to you all...")
   If(0,6,0)
    ShowMessageFace("sonia_fc3",7,0,2,24)
    ShowMessage("\\n<Sonya>Hey, she turned into a monster! What do we do, Luka?!")
    0()
   EndIf()
   ShowMessageFace("ruka_fc1",0,0,2,25)
   ShowMessage("\\n<Luka>We can't help this! We'll have her drink Sphinx blood after we defeat her!")
   ShowMessageFace("sara_fc4",0,0,2,26)
   ShowMessage("\\n<Sara>You want me to drink it so muuuuch...? But I want to drink gulp dooown your semen...")
   If(4,129,0)
    ShowMessageFace("brunhild_fc1",0,0,2,27)
    ShowMessage("\\n<Hild>Target confirmed... Start combat procedures...")
    0()
   EndIf()
   If(4,529,0)
    ShowMessageFace("sara_fc1",4,0,2,28)
    ShowMessage("\\n<Sara'>Ahh, what a horrible appearance let's quickly defeat her...")
    ShowMessageFace("sara_fc4",0,0,2,29)
    ShowMessage("\\n<Sara>Oh my, there's another me... I know how to satisfy you the best of all...")
    0()
   EndIf()
   PictureClear(5)
   SetBattleBGM(bytes(0x04,0x08,0x6f,0x3a,0x0d,0x52,0x50,0x47,0x3a,0x3a,0x42,0x47,0x4d,0x08,0x3a,0x0a,0x40,0x6e,0x61,0x6d,0x65,0x49,0x22,0x0a,0x62,0x6f,0x73,0x73,0x31,0x06,0x3a,0x06,0x45,0x54,0x3a,0x0c,0x40,0x76,0x6f,0x6c,0x75,0x6d,0x65,0x69,0x69,0x3a,0x0b,0x40,0x70,0x69,0x74,0x63,0x68,0x69,0x69))
   ChangeSwitch(22,22,0)
   Battle(0,248,false,false)
   ChangeSwitch(22,22,1)
   SetBattleBGM(bytes(0x04,0x08,0x6f,0x3a,0x0d,0x52,0x50,0x47,0x3a,0x3a,0x42,0x47,0x4d,0x08,0x3a,0x0a,0x40,0x6e,0x61,0x6d,0x65,0x49,0x22,0x0b,0x62,0x61,0x74,0x74,0x6c,0x65,0x06,0x3a,0x06,0x45,0x54,0x3a,0x0c,0x40,0x76,0x6f,0x6c,0x75,0x6d,0x65,0x69,0x69,0x3a,0x0b,0x40,0x70,0x69,0x74,0x63,0x68,0x69,0x69))
   241(bytes(0x04,0x08,0x6f,0x3a,0x0d,0x52,0x50,0x47,0x3a,0x3a,0x42,0x47,0x4d,0x08,0x3a,0x0a,0x40,0x6e,0x61,0x6d,0x65,0x49,0x22,0x0a,0x6b,0x69,0x6b,0x69,0x32,0x06,0x3a,0x06,0x45,0x54,0x3a,0x0c,0x40,0x76,0x6f,0x6c,0x75,0x6d,0x65,0x69,0x69,0x3a,0x0b,0x40,0x70,0x69,0x74,0x63,0x68,0x69,0x69))
   PictureDisplay(5,"80_saraevil_st03",0,0,0,0,100,100,255,0)
   ShowMessageFace("sara_fc4",2,0,2,30)
   ShowMessage("\\n<Sara>I have no strength left...")
   If(4,62,0)
    ShowMessageFace("gob_fc1",0,0,2,31)
    ShowMessage("\\n<Gob>We did it! She's vulnerable!")
    0()
   EndIf()
   ShowMessageFace("ruka_fc1",0,0,2,32)
   ShowMessage("\\n<Luka>All right, now!")
   ChangeInventory_Item(520,1,0,1)
   ShowMessageFace("",0,0,2,33)
   ShowMessage("We poured Sphinx Blood into Sara's mouth as she laid down defeated!")
   ShowMessageFace("sara_fc4",2,0,2,34)
   ShowMessage("\\n<Sara>What...is this...my power is...")
   ShowMessageFace("sara_fc4",2,0,2,35)
   ShowMessage("\\n<Sara>Aa-AAaAaaa...!")
   241(bytes(0x04,0x08,0x6f,0x3a,0x0d,0x52,0x50,0x47,0x3a,0x3a,0x42,0x47,0x4d,0x08,0x3a,0x0a,0x40,0x6e,0x61,0x6d,0x65,0x49,0x22,0x14,0x73,0x63,0x65,0x6e,0x65,0x5f,0x65,0x70,0x69,0x6c,0x6f,0x67,0x75,0x65,0x31,0x06,0x3a,0x06,0x45,0x54,0x3a,0x0c,0x40,0x76,0x6f,0x6c,0x75,0x6d,0x65,0x69,0x69,0x3a,0x0b,0x40,0x70,0x69,0x74,0x63,0x68,0x69,0x69))
   250(bytes(0x04,0x08,0x6f,0x3a,0x0c,0x52,0x50,0x47,0x3a,0x3a,0x53,0x45,0x08,0x3a,0x0a,0x40,0x6e,0x61,0x6d,0x65,0x49,0x22,0x0a,0x44,0x6f,0x77,0x6e,0x33,0x06,0x3a,0x06,0x45,0x54,0x3a,0x0b,0x40,0x70,0x69,0x74,0x63,0x68,0x69,0x69,0x3a,0x0c,0x40,0x76,0x6f,0x6c,0x75,0x6d,0x65,0x69,0x69))
   PictureDisplay(10,"sys_white",0,0,0,0,100,100,0,0)
   PictureMove(10,null,0,0,0,0,100,100,255,0,30,true)
   PictureDisplay(5,"80_sara_st14",0,0,0,0,100,100,255,0)
   PictureMove(10,null,0,0,0,0,100,100,0,0,30,true)
   PictureClear(1)
   ShowMessageFace("sara_fc2",4,0,2,36)
   ShowMessage("\\n<Sara>Ah...? I'm...あれ……私は……")
   ShowMessageFace("sara_fc2",4,0,2,37)
   ShowMessage("\\n<Sara>......")
   PictureDisplay(5,"80_sara_st13",0,0,0,0,100,100,255,0)
   ShowMessageFace("sara_fc2",5,0,2,38)
   ShowMessage("\\n<Sara>Wait, no way..?! What outrageous things have I...?!")
   If(0,6,0)
    ShowMessageFace("sonia_fc3",7,0,2,39)
    ShowMessage("\\n<Sonya>Um, nice to meet you your Majesty... has your reason returned?")
    0()
   Else()
    ShowMessageFace("ruka_fc1",0,0,2,40)
    ShowMessage("\\n<Luka>...your Majesty, has your reason returned?")
    0()
   EndIf()
   ShowMessageFace("sara_fc2",5,0,2,41)
   ShowMessage("\\n<Sara>Yes, yeah... I have both my reason and my memory. Everything I have done so far...all of it...")
   If(0,6,0)
    ShowMessageFace("sonia_fc2",2,0,2,42)
    ShowMessage("\\n<Sonya>Yeah, well... I can imagine how you feel...")
    0()
   Else()
    ShowMessageFace("ruka_fc1",0,0,2,43)
    ShowMessage("\\n<Luka>Must be hard on you... I can imagine how you feel...")
    0()
   EndIf()
   PictureDisplay(5,"80_sara_st12",0,0,0,0,100,100,255,0)
   ShowMessageFace("sara_fc2",2,0,2,44)
   ShowMessage("\\n<Sara>But it's not the time to feel depressed. I have caused you all much trouble...")
   PictureClear(5)
   Wait(15)
   ChangeSwitch(31,31,0)
   205(8,bytes(0x04,0x08,0x6f,0x3a,0x13,0x52,0x50,0x47,0x3a,0x3a,0x4d,0x6f,0x76,0x65,0x52,0x6f,0x75,0x74,0x65,0x09,0x3a,0x0c,0x40,0x72,0x65,0x70,0x65,0x61,0x74,0x46,0x3a,0x0f,0x40,0x73,0x6b,0x69,0x70,0x70,0x61,0x62,0x6c,0x65,0x46,0x3a,0x0a,0x40,0x77,0x61,0x69,0x74,0x54,0x3a,0x0a,0x40,0x6c,0x69,0x73,0x74,0x5b,0x0b,0x6f,0x3a,0x15,0x52,0x50,0x47,0x3a,0x3a,0x4d,0x6f,0x76,0x65,0x43,0x6f,0x6d,0x6d,0x61,0x6e,0x64,0x07,0x3a,0x0a,0x40,0x63,0x6f,0x64,0x65,0x69,0x2a,0x3a,0x10,0x40,0x70,0x61,0x72,0x61,0x6d,0x65,0x74,0x65,0x72,0x73,0x5b,0x00,0x6f,0x3b,0x0a,0x07,0x3b,0x0b,0x69,0x22,0x3b,0x0c,0x5b,0x06,0x69,0x09,0x6f,0x3b,0x0a,0x07,0x3b,0x0b,0x69,0x09,0x3b,0x0c,0x5b,0x00,0x6f,0x3b,0x0a,0x07,0x3b,0x0b,0x69,0x09,0x3b,0x0c,0x5b,0x00,0x6f,0x3b,0x0a,0x07,0x3b,0x0b,0x69,0x09,0x3b,0x0c,0x5b,0x00,0x6f,0x3b,0x0a,0x07,0x3b,0x0b,0x69,0x00,0x3b,0x0c,0x5b,0x00))
   241(bytes(0x04,0x08,0x6f,0x3a,0x0d,0x52,0x50,0x47,0x3a,0x3a,0x42,0x47,0x4d,0x08,0x3a,0x0a,0x40,0x6e,0x61,0x6d,0x65,0x49,0x22,0x0a,0x6b,0x69,0x6b,0x69,0x32,0x06,0x3a,0x06,0x45,0x54,0x3a,0x0c,0x40,0x76,0x6f,0x6c,0x75,0x6d,0x65,0x69,0x69,0x3a,0x0b,0x40,0x70,0x69,0x74,0x63,0x68,0x69,0x69))
   ShowMessageFace("",0,0,2,45)
   ShowMessage("\\n<Royal Guard>Queeeen, sorry to interrupt your fun but I have urgent message. Something big is apparently happening at Luddite Village, or something...")
   PictureDisplay(5,"80_sara_st15",0,0,0,0,100,100,255,0)
   ShowMessageFace("sara_fc2",3,0,2,46)
   ShowMessage("\\n<Sara>Luddite Village...? Report, hurry!")
   ShowMessageFace("",0,0,2,47)
   ShowMessage("\\n<Royal Guard>Eh...? Y-yes!")
   241(bytes(0x04,0x08,0x6f,0x3a,0x0d,0x52,0x50,0x47,0x3a,0x3a,0x42,0x47,0x4d,0x08,0x3a,0x0a,0x40,0x6e,0x61,0x6d,0x65,0x49,0x22,0x0a,0x6b,0x69,0x6b,0x69,0x31,0x06,0x3a,0x06,0x45,0x54,0x3a,0x0c,0x40,0x76,0x6f,0x6c,0x75,0x6d,0x65,0x69,0x69,0x3a,0x0b,0x40,0x70,0x69,0x74,0x63,0x68,0x69,0x69))
   ShowMessageFace("",0,0,2,48)
   ShowMessage("\\n<Royal Guard>Three succubi have assaulted Luddite Village! Some serious goin' on...ehm, it's a pressing situation!")
   ShowMessageFace("sara_fc2",3,0,2,49)
   ShowMessage("\\n<Sara>Thank you for the report... Bring me my sword!")
   ShowMessageFace("",0,0,2,50)
   ShowMessage("\\n<Royal Guard>Huh? Sword...? Eh...?")
   ShowMessageFace("sara_fc2",3,0,2,51)
   ShowMessage("\\n<Sara>I'll be going there personally! Prepare for departure! ")
   ShowMessageFace("",0,0,2,52)
   ShowMessage("\\n<Royal Guard>Y-yesh! Understood!")
   PictureClear(5)
   Wait(15)
   205(8,bytes(0x04,0x08,0x6f,0x3a,0x13,0x52,0x50,0x47,0x3a,0x3a,0x4d,0x6f,0x76,0x65,0x52,0x6f,0x75,0x74,0x65,0x09,0x3a,0x0c,0x40,0x72,0x65,0x70,0x65,0x61,0x74,0x46,0x3a,0x0f,0x40,0x73,0x6b,0x69,0x70,0x70,0x61,0x62,0x6c,0x65,0x46,0x3a,0x0a,0x40,0x77,0x61,0x69,0x74,0x54,0x3a,0x0a,0x40,0x6c,0x69,0x73,0x74,0x5b,0x0c,0x6f,0x3a,0x15,0x52,0x50,0x47,0x3a,0x3a,0x4d,0x6f,0x76,0x65,0x43,0x6f,0x6d,0x6d,0x61,0x6e,0x64,0x07,0x3a,0x0a,0x40,0x63,0x6f,0x64,0x65,0x69,0x2a,0x3a,0x10,0x40,0x70,0x61,0x72,0x61,0x6d,0x65,0x74,0x65,0x72,0x73,0x5b,0x00,0x6f,0x3b,0x0a,0x07,0x3b,0x0b,0x69,0x22,0x3b,0x0c,0x5b,0x06,0x69,0x0b,0x6f,0x3b,0x0a,0x07,0x3b,0x0b,0x69,0x23,0x3b,0x0c,0x5b,0x06,0x69,0x0a,0x6f,0x3b,0x0a,0x07,0x3b,0x0b,0x69,0x06,0x3b,0x0c,0x5b,0x00,0x6f,0x3b,0x0a,0x07,0x3b,0x0b,0x69,0x06,0x3b,0x0c,0x5b,0x00,0x6f,0x3b,0x0a,0x07,0x3b,0x0b,0x69,0x06,0x3b,0x0c,0x5b,0x00,0x6f,0x3b,0x0a,0x07,0x3b,0x0b,0x69,0x00,0x3b,0x0c,0x5b,0x00))
   ChangeSwitch(31,31,1)
   221()
   ShowMessageFace("",0,0,2,53)
   ShowMessage("Queen Sara has changed into the brought equipment!")
   222()
   PictureDisplay(5,"80_sara_st05",0,0,0,0,100,100,255,0)
   ShowMessageFace("sara_fc1",2,0,2,54)
   ShowMessage("\\n<Sara>In accordance with defense agreement against youmas we have with San Ilia, Sabasa will dispatch reinforcements!")
   ShowMessageFace("sara_fc1",2,0,2,55)
   ShowMessage("\\n<Sara>Relay these words to San Ilia's minister of foreign affairs! Our country is to be on semi-alert status!")
   If(4,531,0)
    ShowMessageFace("saniria_fc2",0,0,2,56)
    ShowMessage("\\n<King of San Ilia>There's no need to notify us, I am here and I heard that.")
    ShowMessageFace("sara_fc1",3,0,2,57)
    ShowMessage("\\n<Sara>Eh? It can't be... the Pope himself? Excuse my rudeness! Since it's an emergency let's leave greetings for later...")
    0()
   EndIf()
   ShowMessageFace("sara_fc1",2,0,2,58)
   ShowMessage("\\n<Sara>I will go ahead to Luddite Village! Meanwhile, organise reinforcements and march to Luddite!")
   PictureDisplay(5,"80_sara_st03",0,0,0,0,100,100,255,0)
   ShowMessageFace("sara_fc1",4,0,2,59)
   ShowMessage("\\n<Sara>The commander of reinforcements will be Samson... ...Ah, I fired him, haven't I.")
   PictureDisplay(5,"80_sara_st05",0,0,0,0,100,100,255,0)
   ShowMessageFace("sara_fc1",2,0,2,60)
   ShowMessage("\\n<Sara>Find Samson as soon as possible and have him lead the army! He's a warrior among warriors, he should be equipped to fight at any time!")
   ShowMessageFace("",0,0,2,61)
   ShowMessage("\\n<Royal Guard>Y-yesh! Right away!")
   PictureDisplay(5,"80_sara_st01",0,0,0,0,100,100,255,0)
   ShowMessageFace("sara_fc1",0,0,2,62)
   ShowMessage("\\n<Sara>Travelers! Seeing your strength, I have a request for you...")
   PictureDisplay(5,"80_sara_st03",0,0,0,0,100,100,255,0)
   ShowMessageFace("sara_fc1",4,0,2,63)
   ShowMessage("\\n<Sara>...Ahh, damn! You've seen me look so embarrassing already, might as well act informal with you, right?")
   PictureDisplay(5,"80_sara_st05",0,0,0,0,100,100,255,0)
   ShowMessageFace("sara_fc1",2,0,2,64)
   ShowMessage("\\n<Sara>Lend me your strength! We'll rush to Luddite Village and attack the enemy!")
   If(0,6,0)
    ShowMessageFace("sonia_fc3",2,0,2,65)
    ShowMessage("\\n<Sonya>W-what an aggressive Queen!")
    0()
   Else()
    ShowMessageFace("ruka_fc1",0,0,2,66)
    ShowMessage("\\n<Luka>S-so valiant...")
    0()
   EndIf()
   ShowMessageFace("sara_fc1",2,0,2,67)
   ShowMessage("\\n<Sara>It's those three succubi who are the masterminds behind this country's confusion! They might have moved because they realized my sanity is back...")
   ShowMessageFace("ruka_fc1",0,0,2,68)
   ShowMessage("\\n<Luka>The masterminds are in Luddite Village...?! Can those three succubi be...?!")
   If(4,56,0)
    ShowMessageFace("inp_fc1",3,0,2,69)
    ShowMessage("\\n<Rami>I-it's not us...!")
    0()
   EndIf()
   If(0,4,0)
    ShowMessageFace("alice_fc6",0,0,2,70)
    ShowMessage("\\n<Alice>Three Lilith sisters...!")
    0()
   EndIf()
   If(0,5,0)
    ShowMessageFace("iriasu_fc4",7,0,2,71)
    ShowMessage("\\n<Ilias>It's the three Lilith sisters...!")
    0()
   EndIf()
   ShowMessageFace("sara_fc1",2,0,2,72)
   ShowMessage("\\n<Sara>Anyway, let's hurry!")
   PictureClear(5)
   205(0,bytes(0x04,0x08,0x6f,0x3a,0x13,0x52,0x50,0x47,0x3a,0x3a,0x4d,0x6f,0x76,0x65,0x52,0x6f,0x75,0x74,0x65,0x09,0x3a,0x0c,0x40,0x72,0x65,0x70,0x65,0x61,0x74,0x46,0x3a,0x0f,0x40,0x73,0x6b,0x69,0x70,0x70,0x61,0x62,0x6c,0x65,0x46,0x3a,0x0a,0x40,0x77,0x61,0x69,0x74,0x54,0x3a,0x0a,0x40,0x6c,0x69,0x73,0x74,0x5b,0x09,0x6f,0x3a,0x15,0x52,0x50,0x47,0x3a,0x3a,0x4d,0x6f,0x76,0x65,0x43,0x6f,0x6d,0x6d,0x61,0x6e,0x64,0x07,0x3a,0x0a,0x40,0x63,0x6f,0x64,0x65,0x69,0x2a,0x3a,0x10,0x40,0x70,0x61,0x72,0x61,0x6d,0x65,0x74,0x65,0x72,0x73,0x5b,0x00,0x6f,0x3b,0x0a,0x07,0x3b,0x0b,0x69,0x0f,0x3b,0x0c,0x5b,0x00,0x6f,0x3b,0x0a,0x07,0x3b,0x0b,0x69,0x2c,0x3b,0x0c,0x5b,0x00,0x6f,0x3b,0x0a,0x07,0x3b,0x0b,0x69,0x00,0x3b,0x0c,0x5b,0x00))
   355("add_actor_ex(529)")
   249(bytes(0x04,0x08,0x6f,0x3a,0x0c,0x52,0x50,0x47,0x3a,0x3a,0x4d,0x45,0x08,0x3a,0x0a,0x40,0x6e,0x61,0x6d,0x65,0x49,0x22,0x0c,0x66,0x61,0x6e,0x66,0x61,0x6c,0x65,0x06,0x3a,0x06,0x45,0x54,0x3a,0x0b,0x40,0x70,0x69,0x74,0x63,0x68,0x69,0x69,0x3a,0x0c,0x40,0x76,0x6f,0x6c,0x75,0x6d,0x65,0x69,0x69))
   ShowMessageFace("",0,0,2,73)
   ShowMessage("Sara has joined the party!")
   Wait(60)
   If(0,6,0)
    ShowMessageFace("sonia_fc3",2,0,2,74)
    ShowMessage("\\n<Sonya>This Queen... She's amazing in a different way compared to when she lost reason...")
    0()
   EndIf()
   ShowMessageFace("ruka_fc1",0,0,2,75)
   ShowMessage("\\n<Luka>Well then, let's hurry to Luddite Village!")
   If(4,531,0)
    ShowMessageFace("saniria_fc2",0,0,2,76)
    ShowMessage("\\n<King of San Ilia>Of course, I will come with you. It's happening within our territory...!")
    0()
   EndIf()
   If(4,79,0)
    ShowMessageFace("nuruko_fc1",0,0,2,77)
    ShowMessage("\\n<Nuruko>Kyuuu!!")
    0()
   EndIf()
   241(bytes(0x04,0x08,0x6f,0x3a,0x0d,0x52,0x50,0x47,0x3a,0x3a,0x42,0x47,0x4d,0x08,0x3a,0x0a,0x40,0x6e,0x61,0x6d,0x65,0x49,0x22,0x0c,0x63,0x61,0x73,0x74,0x6c,0x65,0x32,0x06,0x3a,0x06,0x45,0x54,0x3a,0x0c,0x40,0x76,0x6f,0x6c,0x75,0x6d,0x65,0x69,0x69,0x3a,0x0b,0x40,0x70,0x69,0x74,0x63,0x68,0x69,0x69))
   ChangeVariable(1028,1028,0,0,6)
   314(0,0)
   EndEventProcessing()
   0()
  EndIf()
  0()
 PAGE   2
  // condition: variable 1028 >= 6
  0()
 PAGE   3
  // condition: variable 1028 >= 7
  0()
 PAGE   4
  // condition: variable 1028 >= 8
  0()
