# -*- encoding: utf-8 -*-
=begin
=図鑑_アイテムデータ設定セクション by Foo

図鑑のアイテムの項に表示する内容を設定します。

==更新履歴
Date     Version Author Comment
13/07/20 1.0,0   Foo    新設


=end

#==============================================================================
# ■ NWConst::Library
#==============================================================================
module NWConst::Library
  # アイテム入手場所
  # 文字列はシンボルで統一してください
  GET_ITEM_PLACES = {
    1  => [:各地],
    2  => [:各地],
    3  => [:各地],
    4  => [:カジノ景品（ポルノフ）],
    5  => [:各地],
    6  => [:各地],
    7  => [:各地],
    8  => [:各地],
    9  => [:各地],
    11  => [:各地],
    12  => [:ナメクジタワー, :聖山アモス, :カジノ景品（グランドール）, :サファル砂漠遺跡],
    13  => [:各地],
    14  => [:各地],
    15  => [:各地],
    16  => [:各地],
    17  => [:各地],
    18  => [:各地],
    19  => [:各地],
    20  => [:各地],
    21  => [:各地],
    22  => [:各地],
    23  => [:各地],
    24  => [:各地],
    25  => [:各地],
    26  => [:各地],
    27  => [:各地],
    28  => [:各地],
    29  => [:各地],
    30  => [:各地],
    31  => [:各地],
    32  => [:各地],
    35  => [:各地],
    36  => [:各地],
    37  => [:各地],
    39  => [:各地],
    40  => [:各地],
    41  => [:各地],
    44  => [:各地],
    45  => [:各地],
    51  => [:ロストルム村（異世界）],
    53  => [:各地],
    55  => [:ロストルム村（異世界）],
    57  => [:各地],
    59  => [:ロストルム村（異世界）],
    61  => [:各地],
    63  => [:ラダイト村],
    65  => [:各地],
    67  => [:ラダイト村],
    69  => [:各地],
    71  => [:ラダイト村],
    73  => [:各地],
    75  => [:グランドール],
    77  => [:各地],
    79  => [:マギステア村],
    81  => [:各地],
    101  => [:イリアスポート, :ナタリアポート, :サン・イリア],
    102  => [:サバサ],
    103  => [:サルーン],
    151  => [:ポルノフ鉱山],
    152  => [:ミダス廃鉱],
    153  => [:聖山アモス],
    154  => [:サルーン廃鉱],
    160  => [:試しの洞窟],
    161  => [:ナメクジタワー],
    162  => [:タラスの丘],
    163  => [:タラスの丘],
    164  => [:イリナ山地北の洞窟],
    165  => [:イリナ山地南の洞窟, :ナメクジタワー],
    166  => [:タルタロス（イリアス大陸南）],
    167  => [:ハーピーの塔],
    168  => [:ハーピーの塔],
    169  => [:迷いの森],
    170  => [:迷いの森],
    171  => [:ロストルム山地洞窟, :ナタリア海岸],
    172  => [:タルタロス（イリアス大陸東）],
    173  => [:秘宝の洞窟],
    174  => [:秘宝の洞窟],
    175  => [:秘宝の洞窟],
    176  => [:ナタリア海岸],
    177  => [:ナタリア海岸],
    178  => [:聖山アモス],
    179  => [:聖山アモス],
    180  => [:地下図書館],
    181  => [:ラダイト村],
    182  => [:ラダイト村],
    183  => [:古代神殿跡],
    184  => [:古代神殿跡],
    185  => [:北のお化け屋敷],
    186  => [:北のお化け屋敷],
    187  => [:カルロスの丘],
    188  => [:精霊の森],
    189  => [:求道者の洞窟],
    190  => [:カルロスの丘],
    191  => [:恵みのオアシス],
    192  => [:恵みのオアシス],
    193  => [:ピラミッド],
    194  => [:ピラミッド],
    195  => [:魔導の塔],
    196  => [:魔導の塔],
    197  => [:サルーン廃鉱],
    198  => [:タルタロス（サバサ大陸北）],
    199  => [:タルタロス（サバサ大陸北）],
    200  => [:管理者の塔],
    201  => [:サファル砂漠遺跡],
    301  => [:ハピネス村, :グランドール, :サルーン],
    302  => [:ハピネス村, :グランドール, :サルーン],
    303  => [:サバサ],
    304  => [:ハピネス村, :サン・イリア, :サバサ, :グランドール],
    305  => [:イリアスベルク, :ハピネス村, :サバサ, :グランドール],
    306  => [:イリアスヴィル, :グランドール, :サルーン],
    307  => [:イリアスヴィル, :グランドール],
    308  => [:ラダイト村, :グランドール],
    309  => [:イリアスヴィル, :ラダイト村, :グランドール],
    310  => [:イリアスヴィル, :ラダイト村, :グランドール],
    312  => [:ラダイト村, :グランドール],
    313  => [:イリアスベルク, :グランドール, :サルーン],
    315  => [:ハピネス村, :グランドール],
    316  => [:イリアスヴィル, :サン・イリア, :グランドール, :サルーン],
    317  => [:サン・イリア],
    318  => [:ラダイト村, :グランドール],
    319  => [:イリアスベルク, :グランドール],
    321  => [:イリアスヴィル, :グランドール],
    322  => [:イリアスヴィルの裏山, :イリアスベルク, :イリアスポート, :ナタリアポート],
    324  => [:イリアスポート, :ナタリアポート],
    325  => [:イリアスポート, :ナタリアポート],
    327  => [:イリアスポート, :ナタリアポート],
    329  => [:ミダス村],
    330  => [:ミダス村],
    331  => [:ミダス村, :サルーン],
    332  => [:ナタリアポート, :グランドール],
    334  => [:イリアスベルク, :イリアスポート, :ナタリアポート],
    335  => [:イリアスベルク, :イリアスポート, :ナタリアポート],
    336  => [:ナタリアポート, :グランドール],
    337  => [:サバサ],
    338  => [:イリアスベルク, :グランドール],
    339  => [:ナタリアポート, :グランドール],
    340  => [:イリアスヴィル],
    341  => [:ミダス村],
    342  => [:サン・イリア],
    343  => [:イリアスベルク, :サン・イリア, :サバサ, :グランドール, :サルーン],
    346  => [:料理],
    347  => [:料理],
    348  => [:料理],
    349  => [:料理],
    350  => [:料理],
    353  => [:料理],
    354  => [:料理],
    355  => [:料理],
    356  => [:料理],
    357  => [:料理],
    358  => [:料理],
    359  => [:料理],
    360  => [:イリアスベルク, :グランドール],
    361  => [:料理],
    363  => [:料理],
    364  => [:料理],
    365  => [:料理],
    366  => [:料理],
    367  => [:料理],
    368  => [:料理],
    369  => [:料理],
    370  => [:料理],
    371  => [:料理],
    373  => [:料理],
    374  => [:料理],
    375  => [:料理],
    376  => [:料理],
    377  => [:料理],
    378  => [:料理],
    379  => [:料理],
    380  => [:料理],
    381  => [:料理],
    382  => [:料理],
    383  => [:料理],
    384  => [:料理],
    385  => [:料理],
    386  => [:料理],
    387  => [:料理],
    388  => [:料理],
    389  => [:料理],
    390  => [:料理],
    391  => [:料理],
    393  => [:料理],
    394  => [:料理],
    395  => [:料理],
    396  => [:料理],
    397  => [:料理],
    398  => [:料理],
    399  => [:料理],
    400  => [:料理],
    401  => [:料理],
    402  => [:料理],
    403  => [:料理],
    404  => [:料理],
    405  => [:料理],
    406  => [:料理],
    407  => [:料理],
    409  => [:イリアスベルク],
    414  => [:ナタリアポート, :グランドール],
    420  => [:料理],
    423  => [:料理],
    424  => [:料理],
    425  => [:料理],
    426  => [:ナタリアポート],
    427  => [:サバサ],
    428  => [:名も無きスラム, :モンテカルロ, :サバサ],
    432  => [:イリアスヴィル, :ミダス村],
    433  => [:イリアスポート, :ナタリアポート],
    434  => [:イリアスヴィル, :ナタリアポート, :グランドール],
    435  => [:イリアスヴィル, :ナタリアポート, :グランドール],
    436  => [:ハピネス村],
    437  => [:ナタリアポート],
    438  => [:ナタリアポート],
    439  => [:ナタリアポート],
    440  => [:各地],
    441  => [:各地],
    442  => [:各地],
    443  => [:各地],
    444  => [:各地],
    445  => [:各地],
    446  => [:各地],
    447  => [:各地],
    448  => [:各地],
    449  => [:各地],
    450  => [:各地],
    500  => [:イリアスヴィル],
    501  => [:イリアスヴィル],
    502  => [:イリアスヴィル],
    503  => [:イリアスヴィル],
    504  => [:試しの洞窟],
    505  => [:イリアスベルク],
    506  => [:名も無きスラム],
    507  => [:名も無きスラム],
    508  => [:ハーピーの集落],
    510  => [:ロストルム村（異世界）],
    511  => [:レムズ海岸],
    512  => [:エンリカ],
    513  => [:秘宝の洞窟],
    514  => [:ナタリアポート],
    515  => [:ナタリアポート],
    516  => [:地下図書館],
    517  => [:サン・イリア],
    518  => [:求道者の洞窟],
    519  => [:イリアスヴィル],
    520  => [:ピラミッド],
    521  => [:リリィの館],
    522  => [:タルタロス（サバサ大陸北）],
    523  => [:管理者の塔],
    525  => [:サルーンの丘],
    526  => [:サルーン廃鉱],
    601  => [:イリアスヴィル],
    602  => [:イリアスヴィル],
    605  => [:地下図書館],
    606  => [:サン・イリア],
    609  => [:モンテカルロ],
    610  => [:ポルノフ],
    612  => [:イリアスポート],
    613  => [:タルタロス（イリアス大陸南）],
    614  => [:北のお化け屋敷],
    615  => [:イリアスベルク],
    616  => [:ロストルム村（異世界）],
    617  => [:イリアスポート],
    618  => [:ミダス村],
    619  => [:メダル女王の城],
    620  => [:メダル女王の城],
    621  => [:聖山アモス],
    700  => [:タルタロス（イリアス大陸南）],
    701  => [:タルタロス（イリアス大陸南）],
    702  => [:タルタロス（イリアス大陸南）],
    703  => [:タルタロス（イリアス大陸東）],
    704  => [:タルタロス（イリアス大陸東）],
    705  => [:タルタロス（イリアス大陸東）],
    706  => [:イリアスポート],
    707  => [:イリアスポート],
    708  => [:古代神殿跡],
    709  => [:古代神殿跡],
    710  => [:サン・イリア],
    711  => [:サン・イリア],
    712  => [:タルタロス（サバサ大陸北）],
    713  => [:管理者の塔],
  }
  # アイテム貰える仲間ID配列
  # アイテムIDに関連したアクターID配列を指定してください
  # 今のところ表示上限は３行です。  
  GET_ITEM_ACTORS = {
    1 => [59],
    2 => [110,161,177],
    4 => [58,167],
    5 => [119,159,182],
    8 => [181],
    9 => [162,185],
    11 => [72],
    12 => [105,139,171],
    13 => [70],
    14 => [90],
    17 => [100],
    22 => [89,112,131,183],
    24 => [68,92,104,117,129,152,174],
    25 => [97,121,158],
    26 => [62,125,142,164,173],
    27 => [13,64,87],
    28 => [66,102,137,138,157,160,163],
    29 => [168,179],
    30 => [12,84,101,127,140,148],
    31 => [41,155,178,180],
    32 => [540],
    41 => [77],
    45 => [126],
    51 => [91],
    59 => [77,94],
    67 => [99],
    71 => [76,107,114,115],
    72 => [176],
    75 => [26],
    79 => [5,130],
    161 => [55,61],
    162 => [56],
    164 => [71],
    165 => [73],
    166 => [78],
    310 => [54,74,541],
    322 => [542],
    422 => [165],
    431 => [75],
    436 => [81],
    442 => [60],
    445 => [57],
    448 => [79],
    509 => [55,85],
    524 => [86,122,123],
    527 => [155],
  }
end

